[{"page":7,"pages":7,"per_page":200,"total":1320,"sourceid":"2","lastupdated":"2020-05-19"},[{"indicator":{"id":"SH.MED.NUMW.P3","value":"Nurses and midwives (per 1,000 people)"},"country":{"id":"TL","value":"Timor-Leste"},"countryiso3code":"TLS","date":"2019","value":null,"unit":"","obs_status":"","decimal":1},{"indicator":{"id":"SH.MED.NUMW.P3","value":"Nurses and midwives (per 1,000 people)"},"country":{"id":"TL","value":"Timor-Leste"},"countryiso3code":"TLS","date":"2018","value":1.668,"unit":"","obs_status":"","decimal":1},{"indicator":{"id":"SH.MED.NUMW.P3","value":"Nurses and midwives (per 1,000 people)"},"country":{"id":"TL","value":"Timor-Leste"},"countryiso3code":"TLS","date":"2017","value":1.7413,"unit":"","obs_status":"","decimal":1},{"indicator":{"id":"SH.MED.NUMW.P3","value":"Nurses and midwives (per 1,000 people)"},"country":{"id":"TL","value":"Timor-Leste"},"countryiso3code":"TLS","date":"2016","value":null,"unit":"","obs_status":"","decimal":1},{"indicator":{"id":"SH.MED.NUMW.P3","value":"Nurses and midwives (per 1,000 people)"},"country":{"id":"TL","value":"Timor-Leste"},"countryiso3code":"TLS","date":"2015","value":1.4821,"unit":"","obs_status":"","decimal":1},{"indicator":{"id":"SH.MED.NUMW.P3","value":"Nurses and midwives (per 1,000 people)"},"country":{"id":"TG","value":"Togo"},"countryiso3code":"TGO","date":"2019","value":null,"unit":"","obs_status":"","decimal":1},{"indicator":{"id":"SH.MED.NUMW.P3","value":"Nurses and midwives (per 1,000 people)"},"country":{"id":"TG","value":"Togo"},"countryiso3code":"TGO","date":"2018","value":0.4102,"unit":"","obs_status":"","decimal":1},{"indicator":{"id":"SH.MED.NUMW.P3","value":"Nurses and midwives (per 1,000 people)"},"country":{"id":"TG","value":"Togo"},"countryiso3code":"TGO","date":"2017","value":0.4201,"unit":"","obs_status":"","decimal":1},{"indicator":{"id":"SH.MED.NUMW.P3","value":"Nurses and midwives (per 1,000 people)"},"country":{"id":"TG","value":"Togo"},"countryiso3code":"TGO","date":"2016","value":0.3169,"unit":"","obs_status":"","decimal":1},{"indicator":{"id":"SH.MED.NUMW.P3","value":"Nurses and midwives (per 1,000 people)"},"country":{"id":"TG","value":"Togo"},"countryiso3code":"TGO","date":"2015","value":0.3018,"unit":"","obs_status":"","decimal":1},{"indicator":{"id":"SH.MED.NUMW.P3","value":"Nurses and midwives (per 1,000 people)"},"country":{"id":"TO","value":"Tonga"},"countryiso3code":"TON","date":"2019","value":null,"unit":"","obs_status":"","decimal":1},{"indicator":{"id":"SH.MED.NUMW.P3","value":"Nurses and midwives (per 1,000 people)"},"country":{"id":"TO","value":"Tonga"},"countryiso3code":"TON","date":"2018","value":4.157,"unit":"","obs_status":"","decimal":1},{"indicator":{"id":"SH.MED.NUMW.P3","value":"Nurses and midwives (per 1,000 people)"},"country":{"id":"TO","value":"Tonga"},"countryiso3code":"TON","date":"2017","value":null,"unit":"","obs_status":"","decimal":1},{"indicator":{"id":"SH.MED.NUMW.P3","value":"Nurses and midwives (per 1,000 people)"},"country":{"id":"TO","value":"Tonga"},"countryiso3code":"TON","date":"2016","value":3.932,"unit":"","obs_status":"","decimal":1},{"indicator":{"id":"SH.MED.NUMW.P3","value":"Nurses and midwives (per 1,000 people)"},"country":{"id":"TO","value":"Tonga"},"countryiso3code":"TON","date":"2015","value":null,"unit":"","obs_status":"","decimal":1},{"indicator":{"id":"SH.MED.NUMW.P3","value":"Nurses and midwives (per 1,000 people)"},"country":{"id":"TT","value":"Trinidad and Tobago"},"countryiso3code":"TTO","date":"2019","value":null,"unit":"","obs_status":"","decimal":1},{"indicator":{"id":"SH.MED.NUMW.P3","value":"Nurses and midwives (per 1,000 people)"},"country":{"id":"TT","value":"Trinidad and Tobago"},"countryiso3code":"TTO","date":"2018","value":4.0934,"unit":"","obs_status":"","decimal":1},{"indicator":{"id":"SH.MED.NUMW.P3","value":"Nurses and midwives (per 1,000 people)"},"country":{"id":"TT","value":"Trinidad and Tobago"},"countryiso3code":"TTO","date":"2017","value":5.6441,"unit":"","obs_status":"","decimal":1},{"indicator":{"id":"SH.MED.NUMW.P3","value":"Nurses and midwives (per 1,000 people)"},"country":{"id":"TT","value":"Trinidad and Tobago"},"countryiso3code":"TTO","date":"2016","value":4.2639,"unit":"","obs_status":"","decimal":1},{"indicator":{"id":"SH.MED.NUMW.P3","value":"Nurses and midwives (per 1,000 people)"},"country":{"id":"TT","value":"Trinidad and Tobago"},"countryiso3code":"TTO","date":"2015","value":3.4832,"unit":"","obs_status":"","decimal":1},{"indicator":{"id":"SH.MED.NUMW.P3","value":"Nurses and midwives (per 1,000 people)"},"country":{"id":"TN","value":"Tunisia"},"countryiso3code":"TUN","date":"2019","value":null,"unit":"","obs_status":"","decimal":1},{"indicator":{"id":"SH.MED.NUMW.P3","value":"Nurses and midwives (per 1,000 people)"},"country":{"id":"TN","value":"Tunisia"},"countryiso3code":"TUN","date":"2018","value":null,"unit":"","obs_status":"","decimal":1},{"indicator":{"id":"SH.MED.NUMW.P3","value":"Nurses and midwives (per 1,000 people)"},"country":{"id":"TN","value":"Tunisia"},"countryiso3code":"TUN","date":"2017","value":2.5136,"unit":"","obs_status":"","decimal":1},{"indicator":{"id":"SH.MED.NUMW.P3","value":"Nurses and midwives (per 1,000 people)"},"country":{"id":"TN","value":"Tunisia"},"countryiso3code":"TUN","date":"2016","value":2.6583,"unit":"","obs_status":"","decimal":1},{"indicator":{"id":"SH.MED.NUMW.P3","value":"Nurses and midwives (per 1,000 people)"},"country":{"id":"TN","value":"Tunisia"},"countryiso3code":"TUN","date":"2015","value":2.67,"unit":"","obs_status":"","decimal":1},{"indicator":{"id":"SH.MED.NUMW.P3","value":"Nurses and midwives (per 1,000 people)"},"country":{"id":"TR","value":"Turkey"},"countryiso3code":"TUR","date":"2019","value":null,"unit":"","obs_status":"","decimal":1},{"indicator":{"id":"SH.MED.NUMW.P3","value":"Nurses and midwives (per 1,000 people)"},"country":{"id":"TR","value":"Turkey"},"countryiso3code":"TUR","date":"2018","value":null,"unit":"","obs_status":"","decimal":1},{"indicator":{"id":"SH.MED.NUMW.P3","value":"Nurses and midwives (per 1,000 people)"},"country":{"id":"TR","value":"Turkey"},"countryiso3code":"TUR","date":"2017","value":2.7107,"unit":"","obs_status":"","decimal":1},{"indicator":{"id":"SH.MED.NUMW.P3","value":"Nurses and midwives (per 1,000 people)"},"country":{"id":"TR","value":"Turkey"},"countryiso3code":"TUR","date":"2016","value":2.5731,"unit":"","obs_status":"","decimal":1},{"indicator":{"id":"SH.MED.NUMW.P3","value":"Nurses and midwives (per 1,000 people)"},"country":{"id":"TR","value":"Turkey"},"countryiso3code":"TUR","date":"2015","value":2.6218,"unit":"","obs_status":"","decimal":1},{"indicator":{"id":"SH.MED.NUMW.P3","value":"Nurses and midwives (per 1,000 people)"},"country":{"id":"TM","value":"Turkmenistan"},"countryiso3code":"TKM","date":"2019","value":null,"unit":"","obs_status":"","decimal":1},{"indicator":{"id":"SH.MED.NUMW.P3","value":"Nurses and midwives (per 1,000 people)"},"country":{"id":"TM","value":"Turkmenistan"},"countryiso3code":"TKM","date":"2018","value":null,"unit":"","obs_status":"","decimal":1},{"indicator":{"id":"SH.MED.NUMW.P3","value":"Nurses and midwives (per 1,000 people)"},"country":{"id":"TM","value":"Turkmenistan"},"countryiso3code":"TKM","date":"2017","value":null,"unit":"","obs_status":"","decimal":1},{"indicator":{"id":"SH.MED.NUMW.P3","value":"Nurses and midwives (per 1,000 people)"},"country":{"id":"TM","value":"Turkmenistan"},"countryiso3code":"TKM","date":"2016","value":null,"unit":"","obs_status":"","decimal":1},{"indicator":{"id":"SH.MED.NUMW.P3","value":"Nurses and midwives (per 1,000 people)"},"country":{"id":"TM","value":"Turkmenistan"},"countryiso3code":"TKM","date":"2015","value":null,"unit":"","obs_status":"","decimal":1},{"indicator":{"id":"SH.MED.NUMW.P3","value":"Nurses and midwives (per 1,000 people)"},"country":{"id":"TC","value":"Turks and Caicos Islands"},"countryiso3code":"TCA","date":"2019","value":null,"unit":"","obs_status":"","decimal":1},{"indicator":{"id":"SH.MED.NUMW.P3","value":"Nurses and midwives (per 1,000 people)"},"country":{"id":"TC","value":"Turks and Caicos Islands"},"countryiso3code":"TCA","date":"2018","value":null,"unit":"","obs_status":"","decimal":1},{"indicator":{"id":"SH.MED.NUMW.P3","value":"Nurses and midwives (per 1,000 people)"},"country":{"id":"TC","value":"Turks and Caicos Islands"},"countryiso3code":"TCA","date":"2017","value":null,"unit":"","obs_status":"","decimal":1},{"indicator":{"id":"SH.MED.NUMW.P3","value":"Nurses and midwives (per 1,000 people)"},"country":{"id":"TC","value":"Turks and Caicos Islands"},"countryiso3code":"TCA","date":"2016","value":null,"unit":"","obs_status":"","decimal":1},{"indicator":{"id":"SH.MED.NUMW.P3","value":"Nurses and midwives (per 1,000 people)"},"country":{"id":"TC","value":"Turks and Caicos Islands"},"countryiso3code":"TCA","date":"2015","value":null,"unit":"","obs_status":"","decimal":1},{"indicator":{"id":"SH.MED.NUMW.P3","value":"Nurses and midwives (per 1,000 people)"},"country":{"id":"TV","value":"Tuvalu"},"countryiso3code":"TUV","date":"2019","value":null,"unit":"","obs_status":"","decimal":1},{"indicator":{"id":"SH.MED.NUMW.P3","value":"Nurses and midwives (per 1,000 people)"},"country":{"id":"TV","value":"Tuvalu"},"countryiso3code":"TUV","date":"2018","value":4.2609,"unit":"","obs_status":"","decimal":1},{"indicator":{"id":"SH.MED.NUMW.P3","value":"Nurses and midwives (per 1,000 people)"},"country":{"id":"TV","value":"Tuvalu"},"countryiso3code":"TUV","date":"2017","value":null,"unit":"","obs_status":"","decimal":1},{"indicator":{"id":"SH.MED.NUMW.P3","value":"Nurses and midwives (per 1,000 people)"},"country":{"id":"TV","value":"Tuvalu"},"countryiso3code":"TUV","date":"2016","value":null,"unit":"","obs_status":"","decimal":1},{"indicator":{"id":"SH.MED.NUMW.P3","value":"Nurses and midwives (per 1,000 people)"},"country":{"id":"TV","value":"Tuvalu"},"countryiso3code":"TUV","date":"2015","value":null,"unit":"","obs_status":"","decimal":1},{"indicator":{"id":"SH.MED.NUMW.P3","value":"Nurses and midwives (per 1,000 people)"},"country":{"id":"UG","value":"Uganda"},"countryiso3code":"UGA","date":"2019","value":null,"unit":"","obs_status":"","decimal":1},{"indicator":{"id":"SH.MED.NUMW.P3","value":"Nurses and midwives (per 1,000 people)"},"country":{"id":"UG","value":"Uganda"},"countryiso3code":"UGA","date":"2018","value":1.2382,"unit":"","obs_status":"","decimal":1},{"indicator":{"id":"SH.MED.NUMW.P3","value":"Nurses and midwives (per 1,000 people)"},"country":{"id":"UG","value":"Uganda"},"countryiso3code":"UGA","date":"2017","value":1.4686,"unit":"","obs_status":"","decimal":1},{"indicator":{"id":"SH.MED.NUMW.P3","value":"Nurses and midwives (per 1,000 people)"},"country":{"id":"UG","value":"Uganda"},"countryiso3code":"UGA","date":"2016","value":1.6401,"unit":"","obs_status":"","decimal":1},{"indicator":{"id":"SH.MED.NUMW.P3","value":"Nurses and midwives (per 1,000 people)"},"country":{"id":"UG","value":"Uganda"},"countryiso3code":"UGA","date":"2015","value":1.5565,"unit":"","obs_status":"","decimal":1},{"indicator":{"id":"SH.MED.NUMW.P3","value":"Nurses and midwives (per 1,000 people)"},"country":{"id":"UA","value":"Ukraine"},"countryiso3code":"UKR","date":"2019","value":null,"unit":"","obs_status":"","decimal":1},{"indicator":{"id":"SH.MED.NUMW.P3","value":"Nurses and midwives (per 1,000 people)"},"country":{"id":"UA","value":"Ukraine"},"countryiso3code":"UKR","date":"2018","value":null,"unit":"","obs_status":"","decimal":1},{"indicator":{"id":"SH.MED.NUMW.P3","value":"Nurses and midwives (per 1,000 people)"},"country":{"id":"UA","value":"Ukraine"},"countryiso3code":"UKR","date":"2017","value":null,"unit":"","obs_status":"","decimal":1},{"indicator":{"id":"SH.MED.NUMW.P3","value":"Nurses and midwives (per 1,000 people)"},"country":{"id":"UA","value":"Ukraine"},"countryiso3code":"UKR","date":"2016","value":null,"unit":"","obs_status":"","decimal":1},{"indicator":{"id":"SH.MED.NUMW.P3","value":"Nurses and midwives (per 1,000 people)"},"country":{"id":"UA","value":"Ukraine"},"countryiso3code":"UKR","date":"2015","value":null,"unit":"","obs_status":"","decimal":1},{"indicator":{"id":"SH.MED.NUMW.P3","value":"Nurses and midwives (per 1,000 people)"},"country":{"id":"AE","value":"United Arab Emirates"},"countryiso3code":"ARE","date":"2019","value":null,"unit":"","obs_status":"","decimal":1},{"indicator":{"id":"SH.MED.NUMW.P3","value":"Nurses and midwives (per 1,000 people)"},"country":{"id":"AE","value":"United Arab Emirates"},"countryiso3code":"ARE","date":"2018","value":5.7271,"unit":"","obs_status":"","decimal":1},{"indicator":{"id":"SH.MED.NUMW.P3","value":"Nurses and midwives (per 1,000 people)"},"country":{"id":"AE","value":"United Arab Emirates"},"countryiso3code":"ARE","date":"2017","value":5.6829,"unit":"","obs_status":"","decimal":1},{"indicator":{"id":"SH.MED.NUMW.P3","value":"Nurses and midwives (per 1,000 people)"},"country":{"id":"AE","value":"United Arab Emirates"},"countryiso3code":"ARE","date":"2016","value":5.5311,"unit":"","obs_status":"","decimal":1},{"indicator":{"id":"SH.MED.NUMW.P3","value":"Nurses and midwives (per 1,000 people)"},"country":{"id":"AE","value":"United Arab Emirates"},"countryiso3code":"ARE","date":"2015","value":4.9828,"unit":"","obs_status":"","decimal":1},{"indicator":{"id":"SH.MED.NUMW.P3","value":"Nurses and midwives (per 1,000 people)"},"country":{"id":"GB","value":"United Kingdom"},"countryiso3code":"GBR","date":"2019","value":null,"unit":"","obs_status":"","decimal":1},{"indicator":{"id":"SH.MED.NUMW.P3","value":"Nurses and midwives (per 1,000 people)"},"country":{"id":"GB","value":"United Kingdom"},"countryiso3code":"GBR","date":"2018","value":8.1723,"unit":"","obs_status":"","decimal":1},{"indicator":{"id":"SH.MED.NUMW.P3","value":"Nurses and midwives (per 1,000 people)"},"country":{"id":"GB","value":"United Kingdom"},"countryiso3code":"GBR","date":"2017","value":8.2245,"unit":"","obs_status":"","decimal":1},{"indicator":{"id":"SH.MED.NUMW.P3","value":"Nurses and midwives (per 1,000 people)"},"country":{"id":"GB","value":"United Kingdom"},"countryiso3code":"GBR","date":"2016","value":8.2751,"unit":"","obs_status":"","decimal":1},{"indicator":{"id":"SH.MED.NUMW.P3","value":"Nurses and midwives (per 1,000 people)"},"country":{"id":"GB","value":"United Kingdom"},"countryiso3code":"GBR","date":"2015","value":8.2936,"unit":"","obs_status":"","decimal":1},{"indicator":{"id":"SH.MED.NUMW.P3","value":"Nurses and midwives (per 1,000 people)"},"country":{"id":"US","value":"United States"},"countryiso3code":"USA","date":"2019","value":null,"unit":"","obs_status":"","decimal":1},{"indicator":{"id":"SH.MED.NUMW.P3","value":"Nurses and midwives (per 1,000 people)"},"country":{"id":"US","value":"United States"},"countryiso3code":"USA","date":"2018","value":null,"unit":"","obs_status":"","decimal":1},{"indicator":{"id":"SH.MED.NUMW.P3","value":"Nurses and midwives (per 1,000 people)"},"country":{"id":"US","value":"United States"},"countryiso3code":"USA","date":"2017","value":14.548,"unit":"","obs_status":"","decimal":1},{"indicator":{"id":"SH.MED.NUMW.P3","value":"Nurses and midwives (per 1,000 people)"},"country":{"id":"US","value":"United States"},"countryiso3code":"USA","date":"2016","value":null,"unit":"","obs_status":"","decimal":1},{"indicator":{"id":"SH.MED.NUMW.P3","value":"Nurses and midwives (per 1,000 people)"},"country":{"id":"US","value":"United States"},"countryiso3code":"USA","date":"2015","value":8.55,"unit":"","obs_status":"","decimal":1},{"indicator":{"id":"SH.MED.NUMW.P3","value":"Nurses and midwives (per 1,000 people)"},"country":{"id":"UY","value":"Uruguay"},"countryiso3code":"URY","date":"2019","value":null,"unit":"","obs_status":"","decimal":1},{"indicator":{"id":"SH.MED.NUMW.P3","value":"Nurses and midwives (per 1,000 people)"},"country":{"id":"UY","value":"Uruguay"},"countryiso3code":"URY","date":"2018","value":null,"unit":"","obs_status":"","decimal":1},{"indicator":{"id":"SH.MED.NUMW.P3","value":"Nurses and midwives (per 1,000 people)"},"country":{"id":"UY","value":"Uruguay"},"countryiso3code":"URY","date":"2017","value":1.9412,"unit":"","obs_status":"","decimal":1},{"indicator":{"id":"SH.MED.NUMW.P3","value":"Nurses and midwives (per 1,000 people)"},"country":{"id":"UY","value":"Uruguay"},"countryiso3code":"URY","date":"2016","value":6.2782,"unit":"","obs_status":"","decimal":1},{"indicator":{"id":"SH.MED.NUMW.P3","value":"Nurses and midwives (per 1,000 people)"},"country":{"id":"UY","value":"Uruguay"},"countryiso3code":"URY","date":"2015","value":null,"unit":"","obs_status":"","decimal":1},{"indicator":{"id":"SH.MED.NUMW.P3","value":"Nurses and midwives (per 1,000 people)"},"country":{"id":"UZ","value":"Uzbekistan"},"countryiso3code":"UZB","date":"2019","value":null,"unit":"","obs_status":"","decimal":1},{"indicator":{"id":"SH.MED.NUMW.P3","value":"Nurses and midwives (per 1,000 people)"},"country":{"id":"UZ","value":"Uzbekistan"},"countryiso3code":"UZB","date":"2018","value":null,"unit":"","obs_status":"","decimal":1},{"indicator":{"id":"SH.MED.NUMW.P3","value":"Nurses and midwives (per 1,000 people)"},"country":{"id":"UZ","value":"Uzbekistan"},"countryiso3code":"UZB","date":"2017","value":null,"unit":"","obs_status":"","decimal":1},{"indicator":{"id":"SH.MED.NUMW.P3","value":"Nurses and midwives (per 1,000 people)"},"country":{"id":"UZ","value":"Uzbekistan"},"countryiso3code":"UZB","date":"2016","value":null,"unit":"","obs_status":"","decimal":1},{"indicator":{"id":"SH.MED.NUMW.P3","value":"Nurses and midwives (per 1,000 people)"},"country":{"id":"UZ","value":"Uzbekistan"},"countryiso3code":"UZB","date":"2015","value":null,"unit":"","obs_status":"","decimal":1},{"indicator":{"id":"SH.MED.NUMW.P3","value":"Nurses and midwives (per 1,000 people)"},"country":{"id":"VU","value":"Vanuatu"},"countryiso3code":"VUT","date":"2019","value":null,"unit":"","obs_status":"","decimal":1},{"indicator":{"id":"SH.MED.NUMW.P3","value":"Nurses and midwives (per 1,000 people)"},"country":{"id":"VU","value":"Vanuatu"},"countryiso3code":"VUT","date":"2018","value":1.4247,"unit":"","obs_status":"","decimal":1},{"indicator":{"id":"SH.MED.NUMW.P3","value":"Nurses and midwives (per 1,000 people)"},"country":{"id":"VU","value":"Vanuatu"},"countryiso3code":"VUT","date":"2017","value":null,"unit":"","obs_status":"","decimal":1},{"indicator":{"id":"SH.MED.NUMW.P3","value":"Nurses and midwives (per 1,000 people)"},"country":{"id":"VU","value":"Vanuatu"},"countryiso3code":"VUT","date":"2016","value":1.3853,"unit":"","obs_status":"","decimal":1},{"indicator":{"id":"SH.MED.NUMW.P3","value":"Nurses and midwives (per 1,000 people)"},"country":{"id":"VU","value":"Vanuatu"},"countryiso3code":"VUT","date":"2015","value":null,"unit":"","obs_status":"","decimal":1},{"indicator":{"id":"SH.MED.NUMW.P3","value":"Nurses and midwives (per 1,000 people)"},"country":{"id":"VE","value":"Venezuela, RB"},"countryiso3code":"VEN","date":"2019","value":null,"unit":"","obs_status":"","decimal":1},{"indicator":{"id":"SH.MED.NUMW.P3","value":"Nurses and midwives (per 1,000 people)"},"country":{"id":"VE","value":"Venezuela, RB"},"countryiso3code":"VEN","date":"2018","value":0.9416,"unit":"","obs_status":"","decimal":1},{"indicator":{"id":"SH.MED.NUMW.P3","value":"Nurses and midwives (per 1,000 people)"},"country":{"id":"VE","value":"Venezuela, RB"},"countryiso3code":"VEN","date":"2017","value":null,"unit":"","obs_status":"","decimal":1},{"indicator":{"id":"SH.MED.NUMW.P3","value":"Nurses and midwives (per 1,000 people)"},"country":{"id":"VE","value":"Venezuela, RB"},"countryiso3code":"VEN","date":"2016","value":null,"unit":"","obs_status":"","decimal":1},{"indicator":{"id":"SH.MED.NUMW.P3","value":"Nurses and midwives (per 1,000 people)"},"country":{"id":"VE","value":"Venezuela, RB"},"countryiso3code":"VEN","date":"2015","value":null,"unit":"","obs_status":"","decimal":1},{"indicator":{"id":"SH.MED.NUMW.P3","value":"Nurses and midwives (per 1,000 people)"},"country":{"id":"VN","value":"Vietnam"},"countryiso3code":"VNM","date":"2019","value":null,"unit":"","obs_status":"","decimal":1},{"indicator":{"id":"SH.MED.NUMW.P3","value":"Nurses and midwives (per 1,000 people)"},"country":{"id":"VN","value":"Vietnam"},"countryiso3code":"VNM","date":"2018","value":null,"unit":"","obs_status":"","decimal":1},{"indicator":{"id":"SH.MED.NUMW.P3","value":"Nurses and midwives (per 1,000 people)"},"country":{"id":"VN","value":"Vietnam"},"countryiso3code":"VNM","date":"2017","value":null,"unit":"","obs_status":"","decimal":1},{"indicator":{"id":"SH.MED.NUMW.P3","value":"Nurses and midwives (per 1,000 people)"},"country":{"id":"VN","value":"Vietnam"},"countryiso3code":"VNM","date":"2016","value":1.4463,"unit":"","obs_status":"","decimal":1},{"indicator":{"id":"SH.MED.NUMW.P3","value":"Nurses and midwives (per 1,000 people)"},"country":{"id":"VN","value":"Vietnam"},"countryiso3code":"VNM","date":"2015","value":1.4228,"unit":"","obs_status":"","decimal":1},{"indicator":{"id":"SH.MED.NUMW.P3","value":"Nurses and midwives (per 1,000 people)"},"country":{"id":"VI","value":"Virgin Islands (U.S.)"},"countryiso3code":"VIR","date":"2019","value":null,"unit":"","obs_status":"","decimal":1},{"indicator":{"id":"SH.MED.NUMW.P3","value":"Nurses and midwives (per 1,000 people)"},"country":{"id":"VI","value":"Virgin Islands (U.S.)"},"countryiso3code":"VIR","date":"2018","value":null,"unit":"","obs_status":"","decimal":1},{"indicator":{"id":"SH.MED.NUMW.P3","value":"Nurses and midwives (per 1,000 people)"},"country":{"id":"VI","value":"Virgin Islands (U.S.)"},"countryiso3code":"VIR","date":"2017","value":null,"unit":"","obs_status":"","decimal":1},{"indicator":{"id":"SH.MED.NUMW.P3","value":"Nurses and midwives (per 1,000 people)"},"country":{"id":"VI","value":"Virgin Islands (U.S.)"},"countryiso3code":"VIR","date":"2016","value":null,"unit":"","obs_status":"","decimal":1},{"indicator":{"id":"SH.MED.NUMW.P3","value":"Nurses and midwives (per 1,000 people)"},"country":{"id":"VI","value":"Virgin Islands (U.S.)"},"countryiso3code":"VIR","date":"2015","value":null,"unit":"","obs_status":"","decimal":1},{"indicator":{"id":"SH.MED.NUMW.P3","value":"Nurses and midwives (per 1,000 people)"},"country":{"id":"PS","value":"West Bank and Gaza"},"countryiso3code":"PSE","date":"2019","value":null,"unit":"","obs_status":"","decimal":1},{"indicator":{"id":"SH.MED.NUMW.P3","value":"Nurses and midwives (per 1,000 people)"},"country":{"id":"PS","value":"West Bank and Gaza"},"countryiso3code":"PSE","date":"2018","value":null,"unit":"","obs_status":"","decimal":1},{"indicator":{"id":"SH.MED.NUMW.P3","value":"Nurses and midwives (per 1,000 people)"},"country":{"id":"PS","value":"West Bank and Gaza"},"countryiso3code":"PSE","date":"2017","value":null,"unit":"","obs_status":"","decimal":1},{"indicator":{"id":"SH.MED.NUMW.P3","value":"Nurses and midwives (per 1,000 people)"},"country":{"id":"PS","value":"West Bank and Gaza"},"countryiso3code":"PSE","date":"2016","value":null,"unit":"","obs_status":"","decimal":1},{"indicator":{"id":"SH.MED.NUMW.P3","value":"Nurses and midwives (per 1,000 people)"},"country":{"id":"PS","value":"West Bank and Gaza"},"countryiso3code":"PSE","date":"2015","value":null,"unit":"","obs_status":"","decimal":1},{"indicator":{"id":"SH.MED.NUMW.P3","value":"Nurses and midwives (per 1,000 people)"},"country":{"id":"YE","value":"Yemen, Rep."},"countryiso3code":"YEM","date":"2019","value":null,"unit":"","obs_status":"","decimal":1},{"indicator":{"id":"SH.MED.NUMW.P3","value":"Nurses and midwives (per 1,000 people)"},"country":{"id":"YE","value":"Yemen, Rep."},"countryiso3code":"YEM","date":"2018","value":0.7852,"unit":"","obs_status":"","decimal":1},{"indicator":{"id":"SH.MED.NUMW.P3","value":"Nurses and midwives (per 1,000 people)"},"country":{"id":"YE","value":"Yemen, Rep."},"countryiso3code":"YEM","date":"2017","value":0.7682,"unit":"","obs_status":"","decimal":1},{"indicator":{"id":"SH.MED.NUMW.P3","value":"Nurses and midwives (per 1,000 people)"},"country":{"id":"YE","value":"Yemen, Rep."},"countryiso3code":"YEM","date":"2016","value":0.7485,"unit":"","obs_status":"","decimal":1},{"indicator":{"id":"SH.MED.NUMW.P3","value":"Nurses and midwives (per 1,000 people)"},"country":{"id":"YE","value":"Yemen, Rep."},"countryiso3code":"YEM","date":"2015","value":0.7242,"unit":"","obs_status":"","decimal":1},{"indicator":{"id":"SH.MED.NUMW.P3","value":"Nurses and midwives (per 1,000 people)"},"country":{"id":"ZM","value":"Zambia"},"countryiso3code":"ZMB","date":"2019","value":null,"unit":"","obs_status":"","decimal":1},{"indicator":{"id":"SH.MED.NUMW.P3","value":"Nurses and midwives (per 1,000 people)"},"country":{"id":"ZM","value":"Zambia"},"countryiso3code":"ZMB","date":"2018","value":1.3376,"unit":"","obs_status":"","decimal":1},{"indicator":{"id":"SH.MED.NUMW.P3","value":"Nurses and midwives (per 1,000 people)"},"country":{"id":"ZM","value":"Zambia"},"countryiso3code":"ZMB","date":"2017","value":1.2988,"unit":"","obs_status":"","decimal":1},{"indicator":{"id":"SH.MED.NUMW.P3","value":"Nurses and midwives (per 1,000 people)"},"country":{"id":"ZM","value":"Zambia"},"countryiso3code":"ZMB","date":"2016","value":0.8925,"unit":"","obs_status":"","decimal":1},{"indicator":{"id":"SH.MED.NUMW.P3","value":"Nurses and midwives (per 1,000 people)"},"country":{"id":"ZM","value":"Zambia"},"countryiso3code":"ZMB","date":"2015","value":null,"unit":"","obs_status":"","decimal":1},{"indicator":{"id":"SH.MED.NUMW.P3","value":"Nurses and midwives (per 1,000 people)"},"country":{"id":"ZW","value":"Zimbabwe"},"countryiso3code":"ZWE","date":"2019","value":null,"unit":"","obs_status":"","decimal":1},{"indicator":{"id":"SH.MED.NUMW.P3","value":"Nurses and midwives (per 1,000 people)"},"country":{"id":"ZW","value":"Zimbabwe"},"countryiso3code":"ZWE","date":"2018","value":1.9346,"unit":"","obs_status":"","decimal":1},{"indicator":{"id":"SH.MED.NUMW.P3","value":"Nurses and midwives (per 1,000 people)"},"country":{"id":"ZW","value":"Zimbabwe"},"countryiso3code":"ZWE","date":"2017","value":2.5972,"unit":"","obs_status":"","decimal":1},{"indicator":{"id":"SH.MED.NUMW.P3","value":"Nurses and midwives (per 1,000 people)"},"country":{"id":"ZW","value":"Zimbabwe"},"countryiso3code":"ZWE","date":"2016","value":1.4,"unit":"","obs_status":"","decimal":1},{"indicator":{"id":"SH.MED.NUMW.P3","value":"Nurses and midwives (per 1,000 people)"},"country":{"id":"ZW","value":"Zimbabwe"},"countryiso3code":"ZWE","date":"2015","value":1.3825,"unit":"","obs_status":"","decimal":1}]]