[{"page":7,"pages":7,"per_page":200,"total":1320,"sourceid":"2","lastupdated":"2020-05-19"},[{"indicator":{"id":"SH.MED.PHYS.ZS","value":"Physicians (per 1,000 people)"},"country":{"id":"TL","value":"Timor-Leste"},"countryiso3code":"TLS","date":"2019","value":null,"unit":"","obs_status":"","decimal":1},{"indicator":{"id":"SH.MED.PHYS.ZS","value":"Physicians (per 1,000 people)"},"country":{"id":"TL","value":"Timor-Leste"},"countryiso3code":"TLS","date":"2018","value":0.7224,"unit":"","obs_status":"","decimal":1},{"indicator":{"id":"SH.MED.PHYS.ZS","value":"Physicians (per 1,000 people)"},"country":{"id":"TL","value":"Timor-Leste"},"countryiso3code":"TLS","date":"2017","value":0.7504,"unit":"","obs_status":"","decimal":1},{"indicator":{"id":"SH.MED.PHYS.ZS","value":"Physicians (per 1,000 people)"},"country":{"id":"TL","value":"Timor-Leste"},"countryiso3code":"TLS","date":"2016","value":null,"unit":"","obs_status":"","decimal":1},{"indicator":{"id":"SH.MED.PHYS.ZS","value":"Physicians (per 1,000 people)"},"country":{"id":"TL","value":"Timor-Leste"},"countryiso3code":"TLS","date":"2015","value":0.6946,"unit":"","obs_status":"","decimal":1},{"indicator":{"id":"SH.MED.PHYS.ZS","value":"Physicians (per 1,000 people)"},"country":{"id":"TG","value":"Togo"},"countryiso3code":"TGO","date":"2019","value":null,"unit":"","obs_status":"","decimal":1},{"indicator":{"id":"SH.MED.PHYS.ZS","value":"Physicians (per 1,000 people)"},"country":{"id":"TG","value":"Togo"},"countryiso3code":"TGO","date":"2018","value":0.0774,"unit":"","obs_status":"","decimal":1},{"indicator":{"id":"SH.MED.PHYS.ZS","value":"Physicians (per 1,000 people)"},"country":{"id":"TG","value":"Togo"},"countryiso3code":"TGO","date":"2017","value":0.0299,"unit":"","obs_status":"","decimal":1},{"indicator":{"id":"SH.MED.PHYS.ZS","value":"Physicians (per 1,000 people)"},"country":{"id":"TG","value":"Togo"},"countryiso3code":"TGO","date":"2016","value":0.0128,"unit":"","obs_status":"","decimal":1},{"indicator":{"id":"SH.MED.PHYS.ZS","value":"Physicians (per 1,000 people)"},"country":{"id":"TG","value":"Togo"},"countryiso3code":"TGO","date":"2015","value":0.0493,"unit":"","obs_status":"","decimal":1},{"indicator":{"id":"SH.MED.PHYS.ZS","value":"Physicians (per 1,000 people)"},"country":{"id":"TO","value":"Tonga"},"countryiso3code":"TON","date":"2019","value":null,"unit":"","obs_status":"","decimal":1},{"indicator":{"id":"SH.MED.PHYS.ZS","value":"Physicians (per 1,000 people)"},"country":{"id":"TO","value":"Tonga"},"countryiso3code":"TON","date":"2018","value":null,"unit":"","obs_status":"","decimal":1},{"indicator":{"id":"SH.MED.PHYS.ZS","value":"Physicians (per 1,000 people)"},"country":{"id":"TO","value":"Tonga"},"countryiso3code":"TON","date":"2017","value":null,"unit":"","obs_status":"","decimal":1},{"indicator":{"id":"SH.MED.PHYS.ZS","value":"Physicians (per 1,000 people)"},"country":{"id":"TO","value":"Tonga"},"countryiso3code":"TON","date":"2016","value":null,"unit":"","obs_status":"","decimal":1},{"indicator":{"id":"SH.MED.PHYS.ZS","value":"Physicians (per 1,000 people)"},"country":{"id":"TO","value":"Tonga"},"countryiso3code":"TON","date":"2015","value":null,"unit":"","obs_status":"","decimal":1},{"indicator":{"id":"SH.MED.PHYS.ZS","value":"Physicians (per 1,000 people)"},"country":{"id":"TT","value":"Trinidad and Tobago"},"countryiso3code":"TTO","date":"2019","value":null,"unit":"","obs_status":"","decimal":1},{"indicator":{"id":"SH.MED.PHYS.ZS","value":"Physicians (per 1,000 people)"},"country":{"id":"TT","value":"Trinidad and Tobago"},"countryiso3code":"TTO","date":"2018","value":4.1675,"unit":"","obs_status":"","decimal":1},{"indicator":{"id":"SH.MED.PHYS.ZS","value":"Physicians (per 1,000 people)"},"country":{"id":"TT","value":"Trinidad and Tobago"},"countryiso3code":"TTO","date":"2017","value":3.3646,"unit":"","obs_status":"","decimal":1},{"indicator":{"id":"SH.MED.PHYS.ZS","value":"Physicians (per 1,000 people)"},"country":{"id":"TT","value":"Trinidad and Tobago"},"countryiso3code":"TTO","date":"2016","value":null,"unit":"","obs_status":"","decimal":1},{"indicator":{"id":"SH.MED.PHYS.ZS","value":"Physicians (per 1,000 people)"},"country":{"id":"TT","value":"Trinidad and Tobago"},"countryiso3code":"TTO","date":"2015","value":2.6498,"unit":"","obs_status":"","decimal":1},{"indicator":{"id":"SH.MED.PHYS.ZS","value":"Physicians (per 1,000 people)"},"country":{"id":"TN","value":"Tunisia"},"countryiso3code":"TUN","date":"2019","value":null,"unit":"","obs_status":"","decimal":1},{"indicator":{"id":"SH.MED.PHYS.ZS","value":"Physicians (per 1,000 people)"},"country":{"id":"TN","value":"Tunisia"},"countryiso3code":"TUN","date":"2018","value":null,"unit":"","obs_status":"","decimal":1},{"indicator":{"id":"SH.MED.PHYS.ZS","value":"Physicians (per 1,000 people)"},"country":{"id":"TN","value":"Tunisia"},"countryiso3code":"TUN","date":"2017","value":1.3025,"unit":"","obs_status":"","decimal":1},{"indicator":{"id":"SH.MED.PHYS.ZS","value":"Physicians (per 1,000 people)"},"country":{"id":"TN","value":"Tunisia"},"countryiso3code":"TUN","date":"2016","value":1.2834,"unit":"","obs_status":"","decimal":1},{"indicator":{"id":"SH.MED.PHYS.ZS","value":"Physicians (per 1,000 people)"},"country":{"id":"TN","value":"Tunisia"},"countryiso3code":"TUN","date":"2015","value":1.3108,"unit":"","obs_status":"","decimal":1},{"indicator":{"id":"SH.MED.PHYS.ZS","value":"Physicians (per 1,000 people)"},"country":{"id":"TR","value":"Turkey"},"countryiso3code":"TUR","date":"2019","value":null,"unit":"","obs_status":"","decimal":1},{"indicator":{"id":"SH.MED.PHYS.ZS","value":"Physicians (per 1,000 people)"},"country":{"id":"TR","value":"Turkey"},"countryiso3code":"TUR","date":"2018","value":null,"unit":"","obs_status":"","decimal":1},{"indicator":{"id":"SH.MED.PHYS.ZS","value":"Physicians (per 1,000 people)"},"country":{"id":"TR","value":"Turkey"},"countryiso3code":"TUR","date":"2017","value":1.8492,"unit":"","obs_status":"","decimal":1},{"indicator":{"id":"SH.MED.PHYS.ZS","value":"Physicians (per 1,000 people)"},"country":{"id":"TR","value":"Turkey"},"countryiso3code":"TUR","date":"2016","value":1.8142,"unit":"","obs_status":"","decimal":1},{"indicator":{"id":"SH.MED.PHYS.ZS","value":"Physicians (per 1,000 people)"},"country":{"id":"TR","value":"Turkey"},"countryiso3code":"TUR","date":"2015","value":1.7988,"unit":"","obs_status":"","decimal":1},{"indicator":{"id":"SH.MED.PHYS.ZS","value":"Physicians (per 1,000 people)"},"country":{"id":"TM","value":"Turkmenistan"},"countryiso3code":"TKM","date":"2019","value":null,"unit":"","obs_status":"","decimal":1},{"indicator":{"id":"SH.MED.PHYS.ZS","value":"Physicians (per 1,000 people)"},"country":{"id":"TM","value":"Turkmenistan"},"countryiso3code":"TKM","date":"2018","value":null,"unit":"","obs_status":"","decimal":1},{"indicator":{"id":"SH.MED.PHYS.ZS","value":"Physicians (per 1,000 people)"},"country":{"id":"TM","value":"Turkmenistan"},"countryiso3code":"TKM","date":"2017","value":null,"unit":"","obs_status":"","decimal":1},{"indicator":{"id":"SH.MED.PHYS.ZS","value":"Physicians (per 1,000 people)"},"country":{"id":"TM","value":"Turkmenistan"},"countryiso3code":"TKM","date":"2016","value":null,"unit":"","obs_status":"","decimal":1},{"indicator":{"id":"SH.MED.PHYS.ZS","value":"Physicians (per 1,000 people)"},"country":{"id":"TM","value":"Turkmenistan"},"countryiso3code":"TKM","date":"2015","value":null,"unit":"","obs_status":"","decimal":1},{"indicator":{"id":"SH.MED.PHYS.ZS","value":"Physicians (per 1,000 people)"},"country":{"id":"TC","value":"Turks and Caicos Islands"},"countryiso3code":"TCA","date":"2019","value":null,"unit":"","obs_status":"","decimal":1},{"indicator":{"id":"SH.MED.PHYS.ZS","value":"Physicians (per 1,000 people)"},"country":{"id":"TC","value":"Turks and Caicos Islands"},"countryiso3code":"TCA","date":"2018","value":null,"unit":"","obs_status":"","decimal":1},{"indicator":{"id":"SH.MED.PHYS.ZS","value":"Physicians (per 1,000 people)"},"country":{"id":"TC","value":"Turks and Caicos Islands"},"countryiso3code":"TCA","date":"2017","value":null,"unit":"","obs_status":"","decimal":1},{"indicator":{"id":"SH.MED.PHYS.ZS","value":"Physicians (per 1,000 people)"},"country":{"id":"TC","value":"Turks and Caicos Islands"},"countryiso3code":"TCA","date":"2016","value":null,"unit":"","obs_status":"","decimal":1},{"indicator":{"id":"SH.MED.PHYS.ZS","value":"Physicians (per 1,000 people)"},"country":{"id":"TC","value":"Turks and Caicos Islands"},"countryiso3code":"TCA","date":"2015","value":null,"unit":"","obs_status":"","decimal":1},{"indicator":{"id":"SH.MED.PHYS.ZS","value":"Physicians (per 1,000 people)"},"country":{"id":"TV","value":"Tuvalu"},"countryiso3code":"TUV","date":"2019","value":null,"unit":"","obs_status":"","decimal":1},{"indicator":{"id":"SH.MED.PHYS.ZS","value":"Physicians (per 1,000 people)"},"country":{"id":"TV","value":"Tuvalu"},"countryiso3code":"TUV","date":"2018","value":null,"unit":"","obs_status":"","decimal":1},{"indicator":{"id":"SH.MED.PHYS.ZS","value":"Physicians (per 1,000 people)"},"country":{"id":"TV","value":"Tuvalu"},"countryiso3code":"TUV","date":"2017","value":null,"unit":"","obs_status":"","decimal":1},{"indicator":{"id":"SH.MED.PHYS.ZS","value":"Physicians (per 1,000 people)"},"country":{"id":"TV","value":"Tuvalu"},"countryiso3code":"TUV","date":"2016","value":null,"unit":"","obs_status":"","decimal":1},{"indicator":{"id":"SH.MED.PHYS.ZS","value":"Physicians (per 1,000 people)"},"country":{"id":"TV","value":"Tuvalu"},"countryiso3code":"TUV","date":"2015","value":null,"unit":"","obs_status":"","decimal":1},{"indicator":{"id":"SH.MED.PHYS.ZS","value":"Physicians (per 1,000 people)"},"country":{"id":"UG","value":"Uganda"},"countryiso3code":"UGA","date":"2019","value":null,"unit":"","obs_status":"","decimal":1},{"indicator":{"id":"SH.MED.PHYS.ZS","value":"Physicians (per 1,000 people)"},"country":{"id":"UG","value":"Uganda"},"countryiso3code":"UGA","date":"2018","value":null,"unit":"","obs_status":"","decimal":1},{"indicator":{"id":"SH.MED.PHYS.ZS","value":"Physicians (per 1,000 people)"},"country":{"id":"UG","value":"Uganda"},"countryiso3code":"UGA","date":"2017","value":0.168,"unit":"","obs_status":"","decimal":1},{"indicator":{"id":"SH.MED.PHYS.ZS","value":"Physicians (per 1,000 people)"},"country":{"id":"UG","value":"Uganda"},"countryiso3code":"UGA","date":"2016","value":null,"unit":"","obs_status":"","decimal":1},{"indicator":{"id":"SH.MED.PHYS.ZS","value":"Physicians (per 1,000 people)"},"country":{"id":"UG","value":"Uganda"},"countryiso3code":"UGA","date":"2015","value":0.0954,"unit":"","obs_status":"","decimal":1},{"indicator":{"id":"SH.MED.PHYS.ZS","value":"Physicians (per 1,000 people)"},"country":{"id":"UA","value":"Ukraine"},"countryiso3code":"UKR","date":"2019","value":null,"unit":"","obs_status":"","decimal":1},{"indicator":{"id":"SH.MED.PHYS.ZS","value":"Physicians (per 1,000 people)"},"country":{"id":"UA","value":"Ukraine"},"countryiso3code":"UKR","date":"2018","value":null,"unit":"","obs_status":"","decimal":1},{"indicator":{"id":"SH.MED.PHYS.ZS","value":"Physicians (per 1,000 people)"},"country":{"id":"UA","value":"Ukraine"},"countryiso3code":"UKR","date":"2017","value":null,"unit":"","obs_status":"","decimal":1},{"indicator":{"id":"SH.MED.PHYS.ZS","value":"Physicians (per 1,000 people)"},"country":{"id":"UA","value":"Ukraine"},"countryiso3code":"UKR","date":"2016","value":null,"unit":"","obs_status":"","decimal":1},{"indicator":{"id":"SH.MED.PHYS.ZS","value":"Physicians (per 1,000 people)"},"country":{"id":"UA","value":"Ukraine"},"countryiso3code":"UKR","date":"2015","value":null,"unit":"","obs_status":"","decimal":1},{"indicator":{"id":"SH.MED.PHYS.ZS","value":"Physicians (per 1,000 people)"},"country":{"id":"AE","value":"United Arab Emirates"},"countryiso3code":"ARE","date":"2019","value":null,"unit":"","obs_status":"","decimal":1},{"indicator":{"id":"SH.MED.PHYS.ZS","value":"Physicians (per 1,000 people)"},"country":{"id":"AE","value":"United Arab Emirates"},"countryiso3code":"ARE","date":"2018","value":2.5278,"unit":"","obs_status":"","decimal":1},{"indicator":{"id":"SH.MED.PHYS.ZS","value":"Physicians (per 1,000 people)"},"country":{"id":"AE","value":"United Arab Emirates"},"countryiso3code":"ARE","date":"2017","value":2.4356,"unit":"","obs_status":"","decimal":1},{"indicator":{"id":"SH.MED.PHYS.ZS","value":"Physicians (per 1,000 people)"},"country":{"id":"AE","value":"United Arab Emirates"},"countryiso3code":"ARE","date":"2016","value":2.371,"unit":"","obs_status":"","decimal":1},{"indicator":{"id":"SH.MED.PHYS.ZS","value":"Physicians (per 1,000 people)"},"country":{"id":"AE","value":"United Arab Emirates"},"countryiso3code":"ARE","date":"2015","value":2.2111,"unit":"","obs_status":"","decimal":1},{"indicator":{"id":"SH.MED.PHYS.ZS","value":"Physicians (per 1,000 people)"},"country":{"id":"GB","value":"United Kingdom"},"countryiso3code":"GBR","date":"2019","value":null,"unit":"","obs_status":"","decimal":1},{"indicator":{"id":"SH.MED.PHYS.ZS","value":"Physicians (per 1,000 people)"},"country":{"id":"GB","value":"United Kingdom"},"countryiso3code":"GBR","date":"2018","value":2.8117,"unit":"","obs_status":"","decimal":1},{"indicator":{"id":"SH.MED.PHYS.ZS","value":"Physicians (per 1,000 people)"},"country":{"id":"GB","value":"United Kingdom"},"countryiso3code":"GBR","date":"2017","value":2.7863,"unit":"","obs_status":"","decimal":1},{"indicator":{"id":"SH.MED.PHYS.ZS","value":"Physicians (per 1,000 people)"},"country":{"id":"GB","value":"United Kingdom"},"countryiso3code":"GBR","date":"2016","value":2.7563,"unit":"","obs_status":"","decimal":1},{"indicator":{"id":"SH.MED.PHYS.ZS","value":"Physicians (per 1,000 people)"},"country":{"id":"GB","value":"United Kingdom"},"countryiso3code":"GBR","date":"2015","value":2.7465,"unit":"","obs_status":"","decimal":1},{"indicator":{"id":"SH.MED.PHYS.ZS","value":"Physicians (per 1,000 people)"},"country":{"id":"US","value":"United States"},"countryiso3code":"USA","date":"2019","value":null,"unit":"","obs_status":"","decimal":1},{"indicator":{"id":"SH.MED.PHYS.ZS","value":"Physicians (per 1,000 people)"},"country":{"id":"US","value":"United States"},"countryiso3code":"USA","date":"2018","value":null,"unit":"","obs_status":"","decimal":1},{"indicator":{"id":"SH.MED.PHYS.ZS","value":"Physicians (per 1,000 people)"},"country":{"id":"US","value":"United States"},"countryiso3code":"USA","date":"2017","value":2.612,"unit":"","obs_status":"","decimal":1},{"indicator":{"id":"SH.MED.PHYS.ZS","value":"Physicians (per 1,000 people)"},"country":{"id":"US","value":"United States"},"countryiso3code":"USA","date":"2016","value":2.5881,"unit":"","obs_status":"","decimal":1},{"indicator":{"id":"SH.MED.PHYS.ZS","value":"Physicians (per 1,000 people)"},"country":{"id":"US","value":"United States"},"countryiso3code":"USA","date":"2015","value":2.5781,"unit":"","obs_status":"","decimal":1},{"indicator":{"id":"SH.MED.PHYS.ZS","value":"Physicians (per 1,000 people)"},"country":{"id":"UY","value":"Uruguay"},"countryiso3code":"URY","date":"2019","value":null,"unit":"","obs_status":"","decimal":1},{"indicator":{"id":"SH.MED.PHYS.ZS","value":"Physicians (per 1,000 people)"},"country":{"id":"UY","value":"Uruguay"},"countryiso3code":"URY","date":"2018","value":null,"unit":"","obs_status":"","decimal":1},{"indicator":{"id":"SH.MED.PHYS.ZS","value":"Physicians (per 1,000 people)"},"country":{"id":"UY","value":"Uruguay"},"countryiso3code":"URY","date":"2017","value":5.0794,"unit":"","obs_status":"","decimal":1},{"indicator":{"id":"SH.MED.PHYS.ZS","value":"Physicians (per 1,000 people)"},"country":{"id":"UY","value":"Uruguay"},"countryiso3code":"URY","date":"2016","value":3.9558,"unit":"","obs_status":"","decimal":1},{"indicator":{"id":"SH.MED.PHYS.ZS","value":"Physicians (per 1,000 people)"},"country":{"id":"UY","value":"Uruguay"},"countryiso3code":"URY","date":"2015","value":null,"unit":"","obs_status":"","decimal":1},{"indicator":{"id":"SH.MED.PHYS.ZS","value":"Physicians (per 1,000 people)"},"country":{"id":"UZ","value":"Uzbekistan"},"countryiso3code":"UZB","date":"2019","value":null,"unit":"","obs_status":"","decimal":1},{"indicator":{"id":"SH.MED.PHYS.ZS","value":"Physicians (per 1,000 people)"},"country":{"id":"UZ","value":"Uzbekistan"},"countryiso3code":"UZB","date":"2018","value":null,"unit":"","obs_status":"","decimal":1},{"indicator":{"id":"SH.MED.PHYS.ZS","value":"Physicians (per 1,000 people)"},"country":{"id":"UZ","value":"Uzbekistan"},"countryiso3code":"UZB","date":"2017","value":null,"unit":"","obs_status":"","decimal":1},{"indicator":{"id":"SH.MED.PHYS.ZS","value":"Physicians (per 1,000 people)"},"country":{"id":"UZ","value":"Uzbekistan"},"countryiso3code":"UZB","date":"2016","value":null,"unit":"","obs_status":"","decimal":1},{"indicator":{"id":"SH.MED.PHYS.ZS","value":"Physicians (per 1,000 people)"},"country":{"id":"UZ","value":"Uzbekistan"},"countryiso3code":"UZB","date":"2015","value":null,"unit":"","obs_status":"","decimal":1},{"indicator":{"id":"SH.MED.PHYS.ZS","value":"Physicians (per 1,000 people)"},"country":{"id":"VU","value":"Vanuatu"},"countryiso3code":"VUT","date":"2019","value":null,"unit":"","obs_status":"","decimal":1},{"indicator":{"id":"SH.MED.PHYS.ZS","value":"Physicians (per 1,000 people)"},"country":{"id":"VU","value":"Vanuatu"},"countryiso3code":"VUT","date":"2018","value":null,"unit":"","obs_status":"","decimal":1},{"indicator":{"id":"SH.MED.PHYS.ZS","value":"Physicians (per 1,000 people)"},"country":{"id":"VU","value":"Vanuatu"},"countryiso3code":"VUT","date":"2017","value":null,"unit":"","obs_status":"","decimal":1},{"indicator":{"id":"SH.MED.PHYS.ZS","value":"Physicians (per 1,000 people)"},"country":{"id":"VU","value":"Vanuatu"},"countryiso3code":"VUT","date":"2016","value":0.1653,"unit":"","obs_status":"","decimal":1},{"indicator":{"id":"SH.MED.PHYS.ZS","value":"Physicians (per 1,000 people)"},"country":{"id":"VU","value":"Vanuatu"},"countryiso3code":"VUT","date":"2015","value":null,"unit":"","obs_status":"","decimal":1},{"indicator":{"id":"SH.MED.PHYS.ZS","value":"Physicians (per 1,000 people)"},"country":{"id":"VE","value":"Venezuela, RB"},"countryiso3code":"VEN","date":"2019","value":null,"unit":"","obs_status":"","decimal":1},{"indicator":{"id":"SH.MED.PHYS.ZS","value":"Physicians (per 1,000 people)"},"country":{"id":"VE","value":"Venezuela, RB"},"countryiso3code":"VEN","date":"2018","value":null,"unit":"","obs_status":"","decimal":1},{"indicator":{"id":"SH.MED.PHYS.ZS","value":"Physicians (per 1,000 people)"},"country":{"id":"VE","value":"Venezuela, RB"},"countryiso3code":"VEN","date":"2017","value":null,"unit":"","obs_status":"","decimal":1},{"indicator":{"id":"SH.MED.PHYS.ZS","value":"Physicians (per 1,000 people)"},"country":{"id":"VE","value":"Venezuela, RB"},"countryiso3code":"VEN","date":"2016","value":null,"unit":"","obs_status":"","decimal":1},{"indicator":{"id":"SH.MED.PHYS.ZS","value":"Physicians (per 1,000 people)"},"country":{"id":"VE","value":"Venezuela, RB"},"countryiso3code":"VEN","date":"2015","value":null,"unit":"","obs_status":"","decimal":1},{"indicator":{"id":"SH.MED.PHYS.ZS","value":"Physicians (per 1,000 people)"},"country":{"id":"VN","value":"Vietnam"},"countryiso3code":"VNM","date":"2019","value":null,"unit":"","obs_status":"","decimal":1},{"indicator":{"id":"SH.MED.PHYS.ZS","value":"Physicians (per 1,000 people)"},"country":{"id":"VN","value":"Vietnam"},"countryiso3code":"VNM","date":"2018","value":null,"unit":"","obs_status":"","decimal":1},{"indicator":{"id":"SH.MED.PHYS.ZS","value":"Physicians (per 1,000 people)"},"country":{"id":"VN","value":"Vietnam"},"countryiso3code":"VNM","date":"2017","value":null,"unit":"","obs_status":"","decimal":1},{"indicator":{"id":"SH.MED.PHYS.ZS","value":"Physicians (per 1,000 people)"},"country":{"id":"VN","value":"Vietnam"},"countryiso3code":"VNM","date":"2016","value":0.8281,"unit":"","obs_status":"","decimal":1},{"indicator":{"id":"SH.MED.PHYS.ZS","value":"Physicians (per 1,000 people)"},"country":{"id":"VN","value":"Vietnam"},"countryiso3code":"VNM","date":"2015","value":0.7963,"unit":"","obs_status":"","decimal":1},{"indicator":{"id":"SH.MED.PHYS.ZS","value":"Physicians (per 1,000 people)"},"country":{"id":"VI","value":"Virgin Islands (U.S.)"},"countryiso3code":"VIR","date":"2019","value":null,"unit":"","obs_status":"","decimal":1},{"indicator":{"id":"SH.MED.PHYS.ZS","value":"Physicians (per 1,000 people)"},"country":{"id":"VI","value":"Virgin Islands (U.S.)"},"countryiso3code":"VIR","date":"2018","value":null,"unit":"","obs_status":"","decimal":1},{"indicator":{"id":"SH.MED.PHYS.ZS","value":"Physicians (per 1,000 people)"},"country":{"id":"VI","value":"Virgin Islands (U.S.)"},"countryiso3code":"VIR","date":"2017","value":null,"unit":"","obs_status":"","decimal":1},{"indicator":{"id":"SH.MED.PHYS.ZS","value":"Physicians (per 1,000 people)"},"country":{"id":"VI","value":"Virgin Islands (U.S.)"},"countryiso3code":"VIR","date":"2016","value":null,"unit":"","obs_status":"","decimal":1},{"indicator":{"id":"SH.MED.PHYS.ZS","value":"Physicians (per 1,000 people)"},"country":{"id":"VI","value":"Virgin Islands (U.S.)"},"countryiso3code":"VIR","date":"2015","value":null,"unit":"","obs_status":"","decimal":1},{"indicator":{"id":"SH.MED.PHYS.ZS","value":"Physicians (per 1,000 people)"},"country":{"id":"PS","value":"West Bank and Gaza"},"countryiso3code":"PSE","date":"2019","value":null,"unit":"","obs_status":"","decimal":1},{"indicator":{"id":"SH.MED.PHYS.ZS","value":"Physicians (per 1,000 people)"},"country":{"id":"PS","value":"West Bank and Gaza"},"countryiso3code":"PSE","date":"2018","value":null,"unit":"","obs_status":"","decimal":1},{"indicator":{"id":"SH.MED.PHYS.ZS","value":"Physicians (per 1,000 people)"},"country":{"id":"PS","value":"West Bank and Gaza"},"countryiso3code":"PSE","date":"2017","value":null,"unit":"","obs_status":"","decimal":1},{"indicator":{"id":"SH.MED.PHYS.ZS","value":"Physicians (per 1,000 people)"},"country":{"id":"PS","value":"West Bank and Gaza"},"countryiso3code":"PSE","date":"2016","value":null,"unit":"","obs_status":"","decimal":1},{"indicator":{"id":"SH.MED.PHYS.ZS","value":"Physicians (per 1,000 people)"},"country":{"id":"PS","value":"West Bank and Gaza"},"countryiso3code":"PSE","date":"2015","value":null,"unit":"","obs_status":"","decimal":1},{"indicator":{"id":"SH.MED.PHYS.ZS","value":"Physicians (per 1,000 people)"},"country":{"id":"YE","value":"Yemen, Rep."},"countryiso3code":"YEM","date":"2019","value":null,"unit":"","obs_status":"","decimal":1},{"indicator":{"id":"SH.MED.PHYS.ZS","value":"Physicians (per 1,000 people)"},"country":{"id":"YE","value":"Yemen, Rep."},"countryiso3code":"YEM","date":"2018","value":null,"unit":"","obs_status":"","decimal":1},{"indicator":{"id":"SH.MED.PHYS.ZS","value":"Physicians (per 1,000 people)"},"country":{"id":"YE","value":"Yemen, Rep."},"countryiso3code":"YEM","date":"2017","value":null,"unit":"","obs_status":"","decimal":1},{"indicator":{"id":"SH.MED.PHYS.ZS","value":"Physicians (per 1,000 people)"},"country":{"id":"YE","value":"Yemen, Rep."},"countryiso3code":"YEM","date":"2016","value":null,"unit":"","obs_status":"","decimal":1},{"indicator":{"id":"SH.MED.PHYS.ZS","value":"Physicians (per 1,000 people)"},"country":{"id":"YE","value":"Yemen, Rep."},"countryiso3code":"YEM","date":"2015","value":null,"unit":"","obs_status":"","decimal":1},{"indicator":{"id":"SH.MED.PHYS.ZS","value":"Physicians (per 1,000 people)"},"country":{"id":"ZM","value":"Zambia"},"countryiso3code":"ZMB","date":"2019","value":null,"unit":"","obs_status":"","decimal":1},{"indicator":{"id":"SH.MED.PHYS.ZS","value":"Physicians (per 1,000 people)"},"country":{"id":"ZM","value":"Zambia"},"countryiso3code":"ZMB","date":"2018","value":1.1867,"unit":"","obs_status":"","decimal":1},{"indicator":{"id":"SH.MED.PHYS.ZS","value":"Physicians (per 1,000 people)"},"country":{"id":"ZM","value":"Zambia"},"countryiso3code":"ZMB","date":"2017","value":null,"unit":"","obs_status":"","decimal":1},{"indicator":{"id":"SH.MED.PHYS.ZS","value":"Physicians (per 1,000 people)"},"country":{"id":"ZM","value":"Zambia"},"countryiso3code":"ZMB","date":"2016","value":0.1628,"unit":"","obs_status":"","decimal":1},{"indicator":{"id":"SH.MED.PHYS.ZS","value":"Physicians (per 1,000 people)"},"country":{"id":"ZM","value":"Zambia"},"countryiso3code":"ZMB","date":"2015","value":null,"unit":"","obs_status":"","decimal":1},{"indicator":{"id":"SH.MED.PHYS.ZS","value":"Physicians (per 1,000 people)"},"country":{"id":"ZW","value":"Zimbabwe"},"countryiso3code":"ZWE","date":"2019","value":null,"unit":"","obs_status":"","decimal":1},{"indicator":{"id":"SH.MED.PHYS.ZS","value":"Physicians (per 1,000 people)"},"country":{"id":"ZW","value":"Zimbabwe"},"countryiso3code":"ZWE","date":"2018","value":0.2096,"unit":"","obs_status":"","decimal":1},{"indicator":{"id":"SH.MED.PHYS.ZS","value":"Physicians (per 1,000 people)"},"country":{"id":"ZW","value":"Zimbabwe"},"countryiso3code":"ZWE","date":"2017","value":0.1859,"unit":"","obs_status":"","decimal":1},{"indicator":{"id":"SH.MED.PHYS.ZS","value":"Physicians (per 1,000 people)"},"country":{"id":"ZW","value":"Zimbabwe"},"countryiso3code":"ZWE","date":"2016","value":0.1788,"unit":"","obs_status":"","decimal":1},{"indicator":{"id":"SH.MED.PHYS.ZS","value":"Physicians (per 1,000 people)"},"country":{"id":"ZW","value":"Zimbabwe"},"countryiso3code":"ZWE","date":"2015","value":0.1815,"unit":"","obs_status":"","decimal":1}]]