[{"page":7,"pages":7,"per_page":200,"total":1320,"sourceid":"2","lastupdated":"2020-05-19"},[{"indicator":{"id":"SH.PRV.SMOK","value":"Smoking prevalence, total (ages 15+)"},"country":{"id":"TL","value":"Timor-Leste"},"countryiso3code":"TLS","date":"2019","value":null,"unit":"","obs_status":"","decimal":1},{"indicator":{"id":"SH.PRV.SMOK","value":"Smoking prevalence, total (ages 15+)"},"country":{"id":"TL","value":"Timor-Leste"},"countryiso3code":"TLS","date":"2018","value":null,"unit":"","obs_status":"","decimal":1},{"indicator":{"id":"SH.PRV.SMOK","value":"Smoking prevalence, total (ages 15+)"},"country":{"id":"TL","value":"Timor-Leste"},"countryiso3code":"TLS","date":"2017","value":null,"unit":"","obs_status":"","decimal":1},{"indicator":{"id":"SH.PRV.SMOK","value":"Smoking prevalence, total (ages 15+)"},"country":{"id":"TL","value":"Timor-Leste"},"countryiso3code":"TLS","date":"2016","value":42.6,"unit":"","obs_status":"","decimal":1},{"indicator":{"id":"SH.PRV.SMOK","value":"Smoking prevalence, total (ages 15+)"},"country":{"id":"TL","value":"Timor-Leste"},"countryiso3code":"TLS","date":"2015","value":43.2,"unit":"","obs_status":"","decimal":1},{"indicator":{"id":"SH.PRV.SMOK","value":"Smoking prevalence, total (ages 15+)"},"country":{"id":"TG","value":"Togo"},"countryiso3code":"TGO","date":"2019","value":null,"unit":"","obs_status":"","decimal":1},{"indicator":{"id":"SH.PRV.SMOK","value":"Smoking prevalence, total (ages 15+)"},"country":{"id":"TG","value":"Togo"},"countryiso3code":"TGO","date":"2018","value":null,"unit":"","obs_status":"","decimal":1},{"indicator":{"id":"SH.PRV.SMOK","value":"Smoking prevalence, total (ages 15+)"},"country":{"id":"TG","value":"Togo"},"countryiso3code":"TGO","date":"2017","value":null,"unit":"","obs_status":"","decimal":1},{"indicator":{"id":"SH.PRV.SMOK","value":"Smoking prevalence, total (ages 15+)"},"country":{"id":"TG","value":"Togo"},"countryiso3code":"TGO","date":"2016","value":7.4,"unit":"","obs_status":"","decimal":1},{"indicator":{"id":"SH.PRV.SMOK","value":"Smoking prevalence, total (ages 15+)"},"country":{"id":"TG","value":"Togo"},"countryiso3code":"TGO","date":"2015","value":7.4,"unit":"","obs_status":"","decimal":1},{"indicator":{"id":"SH.PRV.SMOK","value":"Smoking prevalence, total (ages 15+)"},"country":{"id":"TO","value":"Tonga"},"countryiso3code":"TON","date":"2019","value":null,"unit":"","obs_status":"","decimal":1},{"indicator":{"id":"SH.PRV.SMOK","value":"Smoking prevalence, total (ages 15+)"},"country":{"id":"TO","value":"Tonga"},"countryiso3code":"TON","date":"2018","value":null,"unit":"","obs_status":"","decimal":1},{"indicator":{"id":"SH.PRV.SMOK","value":"Smoking prevalence, total (ages 15+)"},"country":{"id":"TO","value":"Tonga"},"countryiso3code":"TON","date":"2017","value":null,"unit":"","obs_status":"","decimal":1},{"indicator":{"id":"SH.PRV.SMOK","value":"Smoking prevalence, total (ages 15+)"},"country":{"id":"TO","value":"Tonga"},"countryiso3code":"TON","date":"2016","value":27.9,"unit":"","obs_status":"","decimal":1},{"indicator":{"id":"SH.PRV.SMOK","value":"Smoking prevalence, total (ages 15+)"},"country":{"id":"TO","value":"Tonga"},"countryiso3code":"TON","date":"2015","value":28.3,"unit":"","obs_status":"","decimal":1},{"indicator":{"id":"SH.PRV.SMOK","value":"Smoking prevalence, total (ages 15+)"},"country":{"id":"TT","value":"Trinidad and Tobago"},"countryiso3code":"TTO","date":"2019","value":null,"unit":"","obs_status":"","decimal":1},{"indicator":{"id":"SH.PRV.SMOK","value":"Smoking prevalence, total (ages 15+)"},"country":{"id":"TT","value":"Trinidad and Tobago"},"countryiso3code":"TTO","date":"2018","value":null,"unit":"","obs_status":"","decimal":1},{"indicator":{"id":"SH.PRV.SMOK","value":"Smoking prevalence, total (ages 15+)"},"country":{"id":"TT","value":"Trinidad and Tobago"},"countryiso3code":"TTO","date":"2017","value":null,"unit":"","obs_status":"","decimal":1},{"indicator":{"id":"SH.PRV.SMOK","value":"Smoking prevalence, total (ages 15+)"},"country":{"id":"TT","value":"Trinidad and Tobago"},"countryiso3code":"TTO","date":"2016","value":null,"unit":"","obs_status":"","decimal":1},{"indicator":{"id":"SH.PRV.SMOK","value":"Smoking prevalence, total (ages 15+)"},"country":{"id":"TT","value":"Trinidad and Tobago"},"countryiso3code":"TTO","date":"2015","value":null,"unit":"","obs_status":"","decimal":1},{"indicator":{"id":"SH.PRV.SMOK","value":"Smoking prevalence, total (ages 15+)"},"country":{"id":"TN","value":"Tunisia"},"countryiso3code":"TUN","date":"2019","value":null,"unit":"","obs_status":"","decimal":1},{"indicator":{"id":"SH.PRV.SMOK","value":"Smoking prevalence, total (ages 15+)"},"country":{"id":"TN","value":"Tunisia"},"countryiso3code":"TUN","date":"2018","value":null,"unit":"","obs_status":"","decimal":1},{"indicator":{"id":"SH.PRV.SMOK","value":"Smoking prevalence, total (ages 15+)"},"country":{"id":"TN","value":"Tunisia"},"countryiso3code":"TUN","date":"2017","value":null,"unit":"","obs_status":"","decimal":1},{"indicator":{"id":"SH.PRV.SMOK","value":"Smoking prevalence, total (ages 15+)"},"country":{"id":"TN","value":"Tunisia"},"countryiso3code":"TUN","date":"2016","value":32.7,"unit":"","obs_status":"","decimal":1},{"indicator":{"id":"SH.PRV.SMOK","value":"Smoking prevalence, total (ages 15+)"},"country":{"id":"TN","value":"Tunisia"},"countryiso3code":"TUN","date":"2015","value":32.6,"unit":"","obs_status":"","decimal":1},{"indicator":{"id":"SH.PRV.SMOK","value":"Smoking prevalence, total (ages 15+)"},"country":{"id":"TR","value":"Turkey"},"countryiso3code":"TUR","date":"2019","value":null,"unit":"","obs_status":"","decimal":1},{"indicator":{"id":"SH.PRV.SMOK","value":"Smoking prevalence, total (ages 15+)"},"country":{"id":"TR","value":"Turkey"},"countryiso3code":"TUR","date":"2018","value":null,"unit":"","obs_status":"","decimal":1},{"indicator":{"id":"SH.PRV.SMOK","value":"Smoking prevalence, total (ages 15+)"},"country":{"id":"TR","value":"Turkey"},"countryiso3code":"TUR","date":"2017","value":null,"unit":"","obs_status":"","decimal":1},{"indicator":{"id":"SH.PRV.SMOK","value":"Smoking prevalence, total (ages 15+)"},"country":{"id":"TR","value":"Turkey"},"countryiso3code":"TUR","date":"2016","value":27.2,"unit":"","obs_status":"","decimal":1},{"indicator":{"id":"SH.PRV.SMOK","value":"Smoking prevalence, total (ages 15+)"},"country":{"id":"TR","value":"Turkey"},"countryiso3code":"TUR","date":"2015","value":27.7,"unit":"","obs_status":"","decimal":1},{"indicator":{"id":"SH.PRV.SMOK","value":"Smoking prevalence, total (ages 15+)"},"country":{"id":"TM","value":"Turkmenistan"},"countryiso3code":"TKM","date":"2019","value":null,"unit":"","obs_status":"","decimal":1},{"indicator":{"id":"SH.PRV.SMOK","value":"Smoking prevalence, total (ages 15+)"},"country":{"id":"TM","value":"Turkmenistan"},"countryiso3code":"TKM","date":"2018","value":null,"unit":"","obs_status":"","decimal":1},{"indicator":{"id":"SH.PRV.SMOK","value":"Smoking prevalence, total (ages 15+)"},"country":{"id":"TM","value":"Turkmenistan"},"countryiso3code":"TKM","date":"2017","value":null,"unit":"","obs_status":"","decimal":1},{"indicator":{"id":"SH.PRV.SMOK","value":"Smoking prevalence, total (ages 15+)"},"country":{"id":"TM","value":"Turkmenistan"},"countryiso3code":"TKM","date":"2016","value":null,"unit":"","obs_status":"","decimal":1},{"indicator":{"id":"SH.PRV.SMOK","value":"Smoking prevalence, total (ages 15+)"},"country":{"id":"TM","value":"Turkmenistan"},"countryiso3code":"TKM","date":"2015","value":null,"unit":"","obs_status":"","decimal":1},{"indicator":{"id":"SH.PRV.SMOK","value":"Smoking prevalence, total (ages 15+)"},"country":{"id":"TC","value":"Turks and Caicos Islands"},"countryiso3code":"TCA","date":"2019","value":null,"unit":"","obs_status":"","decimal":1},{"indicator":{"id":"SH.PRV.SMOK","value":"Smoking prevalence, total (ages 15+)"},"country":{"id":"TC","value":"Turks and Caicos Islands"},"countryiso3code":"TCA","date":"2018","value":null,"unit":"","obs_status":"","decimal":1},{"indicator":{"id":"SH.PRV.SMOK","value":"Smoking prevalence, total (ages 15+)"},"country":{"id":"TC","value":"Turks and Caicos Islands"},"countryiso3code":"TCA","date":"2017","value":null,"unit":"","obs_status":"","decimal":1},{"indicator":{"id":"SH.PRV.SMOK","value":"Smoking prevalence, total (ages 15+)"},"country":{"id":"TC","value":"Turks and Caicos Islands"},"countryiso3code":"TCA","date":"2016","value":null,"unit":"","obs_status":"","decimal":1},{"indicator":{"id":"SH.PRV.SMOK","value":"Smoking prevalence, total (ages 15+)"},"country":{"id":"TC","value":"Turks and Caicos Islands"},"countryiso3code":"TCA","date":"2015","value":null,"unit":"","obs_status":"","decimal":1},{"indicator":{"id":"SH.PRV.SMOK","value":"Smoking prevalence, total (ages 15+)"},"country":{"id":"TV","value":"Tuvalu"},"countryiso3code":"TUV","date":"2019","value":null,"unit":"","obs_status":"","decimal":1},{"indicator":{"id":"SH.PRV.SMOK","value":"Smoking prevalence, total (ages 15+)"},"country":{"id":"TV","value":"Tuvalu"},"countryiso3code":"TUV","date":"2018","value":null,"unit":"","obs_status":"","decimal":1},{"indicator":{"id":"SH.PRV.SMOK","value":"Smoking prevalence, total (ages 15+)"},"country":{"id":"TV","value":"Tuvalu"},"countryiso3code":"TUV","date":"2017","value":null,"unit":"","obs_status":"","decimal":1},{"indicator":{"id":"SH.PRV.SMOK","value":"Smoking prevalence, total (ages 15+)"},"country":{"id":"TV","value":"Tuvalu"},"countryiso3code":"TUV","date":"2016","value":null,"unit":"","obs_status":"","decimal":1},{"indicator":{"id":"SH.PRV.SMOK","value":"Smoking prevalence, total (ages 15+)"},"country":{"id":"TV","value":"Tuvalu"},"countryiso3code":"TUV","date":"2015","value":null,"unit":"","obs_status":"","decimal":1},{"indicator":{"id":"SH.PRV.SMOK","value":"Smoking prevalence, total (ages 15+)"},"country":{"id":"UG","value":"Uganda"},"countryiso3code":"UGA","date":"2019","value":null,"unit":"","obs_status":"","decimal":1},{"indicator":{"id":"SH.PRV.SMOK","value":"Smoking prevalence, total (ages 15+)"},"country":{"id":"UG","value":"Uganda"},"countryiso3code":"UGA","date":"2018","value":null,"unit":"","obs_status":"","decimal":1},{"indicator":{"id":"SH.PRV.SMOK","value":"Smoking prevalence, total (ages 15+)"},"country":{"id":"UG","value":"Uganda"},"countryiso3code":"UGA","date":"2017","value":null,"unit":"","obs_status":"","decimal":1},{"indicator":{"id":"SH.PRV.SMOK","value":"Smoking prevalence, total (ages 15+)"},"country":{"id":"UG","value":"Uganda"},"countryiso3code":"UGA","date":"2016","value":10,"unit":"","obs_status":"","decimal":1},{"indicator":{"id":"SH.PRV.SMOK","value":"Smoking prevalence, total (ages 15+)"},"country":{"id":"UG","value":"Uganda"},"countryiso3code":"UGA","date":"2015","value":10.3,"unit":"","obs_status":"","decimal":1},{"indicator":{"id":"SH.PRV.SMOK","value":"Smoking prevalence, total (ages 15+)"},"country":{"id":"UA","value":"Ukraine"},"countryiso3code":"UKR","date":"2019","value":null,"unit":"","obs_status":"","decimal":1},{"indicator":{"id":"SH.PRV.SMOK","value":"Smoking prevalence, total (ages 15+)"},"country":{"id":"UA","value":"Ukraine"},"countryiso3code":"UKR","date":"2018","value":null,"unit":"","obs_status":"","decimal":1},{"indicator":{"id":"SH.PRV.SMOK","value":"Smoking prevalence, total (ages 15+)"},"country":{"id":"UA","value":"Ukraine"},"countryiso3code":"UKR","date":"2017","value":null,"unit":"","obs_status":"","decimal":1},{"indicator":{"id":"SH.PRV.SMOK","value":"Smoking prevalence, total (ages 15+)"},"country":{"id":"UA","value":"Ukraine"},"countryiso3code":"UKR","date":"2016","value":28.9,"unit":"","obs_status":"","decimal":1},{"indicator":{"id":"SH.PRV.SMOK","value":"Smoking prevalence, total (ages 15+)"},"country":{"id":"UA","value":"Ukraine"},"countryiso3code":"UKR","date":"2015","value":29.4,"unit":"","obs_status":"","decimal":1},{"indicator":{"id":"SH.PRV.SMOK","value":"Smoking prevalence, total (ages 15+)"},"country":{"id":"AE","value":"United Arab Emirates"},"countryiso3code":"ARE","date":"2019","value":null,"unit":"","obs_status":"","decimal":1},{"indicator":{"id":"SH.PRV.SMOK","value":"Smoking prevalence, total (ages 15+)"},"country":{"id":"AE","value":"United Arab Emirates"},"countryiso3code":"ARE","date":"2018","value":null,"unit":"","obs_status":"","decimal":1},{"indicator":{"id":"SH.PRV.SMOK","value":"Smoking prevalence, total (ages 15+)"},"country":{"id":"AE","value":"United Arab Emirates"},"countryiso3code":"ARE","date":"2017","value":null,"unit":"","obs_status":"","decimal":1},{"indicator":{"id":"SH.PRV.SMOK","value":"Smoking prevalence, total (ages 15+)"},"country":{"id":"AE","value":"United Arab Emirates"},"countryiso3code":"ARE","date":"2016","value":28.9,"unit":"","obs_status":"","decimal":1},{"indicator":{"id":"SH.PRV.SMOK","value":"Smoking prevalence, total (ages 15+)"},"country":{"id":"AE","value":"United Arab Emirates"},"countryiso3code":"ARE","date":"2015","value":28.6,"unit":"","obs_status":"","decimal":1},{"indicator":{"id":"SH.PRV.SMOK","value":"Smoking prevalence, total (ages 15+)"},"country":{"id":"GB","value":"United Kingdom"},"countryiso3code":"GBR","date":"2019","value":null,"unit":"","obs_status":"","decimal":1},{"indicator":{"id":"SH.PRV.SMOK","value":"Smoking prevalence, total (ages 15+)"},"country":{"id":"GB","value":"United Kingdom"},"countryiso3code":"GBR","date":"2018","value":null,"unit":"","obs_status":"","decimal":1},{"indicator":{"id":"SH.PRV.SMOK","value":"Smoking prevalence, total (ages 15+)"},"country":{"id":"GB","value":"United Kingdom"},"countryiso3code":"GBR","date":"2017","value":null,"unit":"","obs_status":"","decimal":1},{"indicator":{"id":"SH.PRV.SMOK","value":"Smoking prevalence, total (ages 15+)"},"country":{"id":"GB","value":"United Kingdom"},"countryiso3code":"GBR","date":"2016","value":22.3,"unit":"","obs_status":"","decimal":1},{"indicator":{"id":"SH.PRV.SMOK","value":"Smoking prevalence, total (ages 15+)"},"country":{"id":"GB","value":"United Kingdom"},"countryiso3code":"GBR","date":"2015","value":23.1,"unit":"","obs_status":"","decimal":1},{"indicator":{"id":"SH.PRV.SMOK","value":"Smoking prevalence, total (ages 15+)"},"country":{"id":"US","value":"United States"},"countryiso3code":"USA","date":"2019","value":null,"unit":"","obs_status":"","decimal":1},{"indicator":{"id":"SH.PRV.SMOK","value":"Smoking prevalence, total (ages 15+)"},"country":{"id":"US","value":"United States"},"countryiso3code":"USA","date":"2018","value":null,"unit":"","obs_status":"","decimal":1},{"indicator":{"id":"SH.PRV.SMOK","value":"Smoking prevalence, total (ages 15+)"},"country":{"id":"US","value":"United States"},"countryiso3code":"USA","date":"2017","value":null,"unit":"","obs_status":"","decimal":1},{"indicator":{"id":"SH.PRV.SMOK","value":"Smoking prevalence, total (ages 15+)"},"country":{"id":"US","value":"United States"},"countryiso3code":"USA","date":"2016","value":21.8,"unit":"","obs_status":"","decimal":1},{"indicator":{"id":"SH.PRV.SMOK","value":"Smoking prevalence, total (ages 15+)"},"country":{"id":"US","value":"United States"},"countryiso3code":"USA","date":"2015","value":22.3,"unit":"","obs_status":"","decimal":1},{"indicator":{"id":"SH.PRV.SMOK","value":"Smoking prevalence, total (ages 15+)"},"country":{"id":"UY","value":"Uruguay"},"countryiso3code":"URY","date":"2019","value":null,"unit":"","obs_status":"","decimal":1},{"indicator":{"id":"SH.PRV.SMOK","value":"Smoking prevalence, total (ages 15+)"},"country":{"id":"UY","value":"Uruguay"},"countryiso3code":"URY","date":"2018","value":null,"unit":"","obs_status":"","decimal":1},{"indicator":{"id":"SH.PRV.SMOK","value":"Smoking prevalence, total (ages 15+)"},"country":{"id":"UY","value":"Uruguay"},"countryiso3code":"URY","date":"2017","value":null,"unit":"","obs_status":"","decimal":1},{"indicator":{"id":"SH.PRV.SMOK","value":"Smoking prevalence, total (ages 15+)"},"country":{"id":"UY","value":"Uruguay"},"countryiso3code":"URY","date":"2016","value":16.8,"unit":"","obs_status":"","decimal":1},{"indicator":{"id":"SH.PRV.SMOK","value":"Smoking prevalence, total (ages 15+)"},"country":{"id":"UY","value":"Uruguay"},"countryiso3code":"URY","date":"2015","value":18.1,"unit":"","obs_status":"","decimal":1},{"indicator":{"id":"SH.PRV.SMOK","value":"Smoking prevalence, total (ages 15+)"},"country":{"id":"UZ","value":"Uzbekistan"},"countryiso3code":"UZB","date":"2019","value":null,"unit":"","obs_status":"","decimal":1},{"indicator":{"id":"SH.PRV.SMOK","value":"Smoking prevalence, total (ages 15+)"},"country":{"id":"UZ","value":"Uzbekistan"},"countryiso3code":"UZB","date":"2018","value":null,"unit":"","obs_status":"","decimal":1},{"indicator":{"id":"SH.PRV.SMOK","value":"Smoking prevalence, total (ages 15+)"},"country":{"id":"UZ","value":"Uzbekistan"},"countryiso3code":"UZB","date":"2017","value":null,"unit":"","obs_status":"","decimal":1},{"indicator":{"id":"SH.PRV.SMOK","value":"Smoking prevalence, total (ages 15+)"},"country":{"id":"UZ","value":"Uzbekistan"},"countryiso3code":"UZB","date":"2016","value":12.6,"unit":"","obs_status":"","decimal":1},{"indicator":{"id":"SH.PRV.SMOK","value":"Smoking prevalence, total (ages 15+)"},"country":{"id":"UZ","value":"Uzbekistan"},"countryiso3code":"UZB","date":"2015","value":12.8,"unit":"","obs_status":"","decimal":1},{"indicator":{"id":"SH.PRV.SMOK","value":"Smoking prevalence, total (ages 15+)"},"country":{"id":"VU","value":"Vanuatu"},"countryiso3code":"VUT","date":"2019","value":null,"unit":"","obs_status":"","decimal":1},{"indicator":{"id":"SH.PRV.SMOK","value":"Smoking prevalence, total (ages 15+)"},"country":{"id":"VU","value":"Vanuatu"},"countryiso3code":"VUT","date":"2018","value":null,"unit":"","obs_status":"","decimal":1},{"indicator":{"id":"SH.PRV.SMOK","value":"Smoking prevalence, total (ages 15+)"},"country":{"id":"VU","value":"Vanuatu"},"countryiso3code":"VUT","date":"2017","value":null,"unit":"","obs_status":"","decimal":1},{"indicator":{"id":"SH.PRV.SMOK","value":"Smoking prevalence, total (ages 15+)"},"country":{"id":"VU","value":"Vanuatu"},"countryiso3code":"VUT","date":"2016","value":18.6,"unit":"","obs_status":"","decimal":1},{"indicator":{"id":"SH.PRV.SMOK","value":"Smoking prevalence, total (ages 15+)"},"country":{"id":"VU","value":"Vanuatu"},"countryiso3code":"VUT","date":"2015","value":19.2,"unit":"","obs_status":"","decimal":1},{"indicator":{"id":"SH.PRV.SMOK","value":"Smoking prevalence, total (ages 15+)"},"country":{"id":"VE","value":"Venezuela, RB"},"countryiso3code":"VEN","date":"2019","value":null,"unit":"","obs_status":"","decimal":1},{"indicator":{"id":"SH.PRV.SMOK","value":"Smoking prevalence, total (ages 15+)"},"country":{"id":"VE","value":"Venezuela, RB"},"countryiso3code":"VEN","date":"2018","value":null,"unit":"","obs_status":"","decimal":1},{"indicator":{"id":"SH.PRV.SMOK","value":"Smoking prevalence, total (ages 15+)"},"country":{"id":"VE","value":"Venezuela, RB"},"countryiso3code":"VEN","date":"2017","value":null,"unit":"","obs_status":"","decimal":1},{"indicator":{"id":"SH.PRV.SMOK","value":"Smoking prevalence, total (ages 15+)"},"country":{"id":"VE","value":"Venezuela, RB"},"countryiso3code":"VEN","date":"2016","value":null,"unit":"","obs_status":"","decimal":1},{"indicator":{"id":"SH.PRV.SMOK","value":"Smoking prevalence, total (ages 15+)"},"country":{"id":"VE","value":"Venezuela, RB"},"countryiso3code":"VEN","date":"2015","value":null,"unit":"","obs_status":"","decimal":1},{"indicator":{"id":"SH.PRV.SMOK","value":"Smoking prevalence, total (ages 15+)"},"country":{"id":"VN","value":"Vietnam"},"countryiso3code":"VNM","date":"2019","value":null,"unit":"","obs_status":"","decimal":1},{"indicator":{"id":"SH.PRV.SMOK","value":"Smoking prevalence, total (ages 15+)"},"country":{"id":"VN","value":"Vietnam"},"countryiso3code":"VNM","date":"2018","value":null,"unit":"","obs_status":"","decimal":1},{"indicator":{"id":"SH.PRV.SMOK","value":"Smoking prevalence, total (ages 15+)"},"country":{"id":"VN","value":"Vietnam"},"countryiso3code":"VNM","date":"2017","value":null,"unit":"","obs_status":"","decimal":1},{"indicator":{"id":"SH.PRV.SMOK","value":"Smoking prevalence, total (ages 15+)"},"country":{"id":"VN","value":"Vietnam"},"countryiso3code":"VNM","date":"2016","value":22.8,"unit":"","obs_status":"","decimal":1},{"indicator":{"id":"SH.PRV.SMOK","value":"Smoking prevalence, total (ages 15+)"},"country":{"id":"VN","value":"Vietnam"},"countryiso3code":"VNM","date":"2015","value":23.1,"unit":"","obs_status":"","decimal":1},{"indicator":{"id":"SH.PRV.SMOK","value":"Smoking prevalence, total (ages 15+)"},"country":{"id":"VI","value":"Virgin Islands (U.S.)"},"countryiso3code":"VIR","date":"2019","value":null,"unit":"","obs_status":"","decimal":1},{"indicator":{"id":"SH.PRV.SMOK","value":"Smoking prevalence, total (ages 15+)"},"country":{"id":"VI","value":"Virgin Islands (U.S.)"},"countryiso3code":"VIR","date":"2018","value":null,"unit":"","obs_status":"","decimal":1},{"indicator":{"id":"SH.PRV.SMOK","value":"Smoking prevalence, total (ages 15+)"},"country":{"id":"VI","value":"Virgin Islands (U.S.)"},"countryiso3code":"VIR","date":"2017","value":null,"unit":"","obs_status":"","decimal":1},{"indicator":{"id":"SH.PRV.SMOK","value":"Smoking prevalence, total (ages 15+)"},"country":{"id":"VI","value":"Virgin Islands (U.S.)"},"countryiso3code":"VIR","date":"2016","value":null,"unit":"","obs_status":"","decimal":1},{"indicator":{"id":"SH.PRV.SMOK","value":"Smoking prevalence, total (ages 15+)"},"country":{"id":"VI","value":"Virgin Islands (U.S.)"},"countryiso3code":"VIR","date":"2015","value":null,"unit":"","obs_status":"","decimal":1},{"indicator":{"id":"SH.PRV.SMOK","value":"Smoking prevalence, total (ages 15+)"},"country":{"id":"PS","value":"West Bank and Gaza"},"countryiso3code":"PSE","date":"2019","value":null,"unit":"","obs_status":"","decimal":1},{"indicator":{"id":"SH.PRV.SMOK","value":"Smoking prevalence, total (ages 15+)"},"country":{"id":"PS","value":"West Bank and Gaza"},"countryiso3code":"PSE","date":"2018","value":null,"unit":"","obs_status":"","decimal":1},{"indicator":{"id":"SH.PRV.SMOK","value":"Smoking prevalence, total (ages 15+)"},"country":{"id":"PS","value":"West Bank and Gaza"},"countryiso3code":"PSE","date":"2017","value":null,"unit":"","obs_status":"","decimal":1},{"indicator":{"id":"SH.PRV.SMOK","value":"Smoking prevalence, total (ages 15+)"},"country":{"id":"PS","value":"West Bank and Gaza"},"countryiso3code":"PSE","date":"2016","value":null,"unit":"","obs_status":"","decimal":1},{"indicator":{"id":"SH.PRV.SMOK","value":"Smoking prevalence, total (ages 15+)"},"country":{"id":"PS","value":"West Bank and Gaza"},"countryiso3code":"PSE","date":"2015","value":null,"unit":"","obs_status":"","decimal":1},{"indicator":{"id":"SH.PRV.SMOK","value":"Smoking prevalence, total (ages 15+)"},"country":{"id":"YE","value":"Yemen, Rep."},"countryiso3code":"YEM","date":"2019","value":null,"unit":"","obs_status":"","decimal":1},{"indicator":{"id":"SH.PRV.SMOK","value":"Smoking prevalence, total (ages 15+)"},"country":{"id":"YE","value":"Yemen, Rep."},"countryiso3code":"YEM","date":"2018","value":null,"unit":"","obs_status":"","decimal":1},{"indicator":{"id":"SH.PRV.SMOK","value":"Smoking prevalence, total (ages 15+)"},"country":{"id":"YE","value":"Yemen, Rep."},"countryiso3code":"YEM","date":"2017","value":null,"unit":"","obs_status":"","decimal":1},{"indicator":{"id":"SH.PRV.SMOK","value":"Smoking prevalence, total (ages 15+)"},"country":{"id":"YE","value":"Yemen, Rep."},"countryiso3code":"YEM","date":"2016","value":18.4,"unit":"","obs_status":"","decimal":1},{"indicator":{"id":"SH.PRV.SMOK","value":"Smoking prevalence, total (ages 15+)"},"country":{"id":"YE","value":"Yemen, Rep."},"countryiso3code":"YEM","date":"2015","value":18.7,"unit":"","obs_status":"","decimal":1},{"indicator":{"id":"SH.PRV.SMOK","value":"Smoking prevalence, total (ages 15+)"},"country":{"id":"ZM","value":"Zambia"},"countryiso3code":"ZMB","date":"2019","value":null,"unit":"","obs_status":"","decimal":1},{"indicator":{"id":"SH.PRV.SMOK","value":"Smoking prevalence, total (ages 15+)"},"country":{"id":"ZM","value":"Zambia"},"countryiso3code":"ZMB","date":"2018","value":null,"unit":"","obs_status":"","decimal":1},{"indicator":{"id":"SH.PRV.SMOK","value":"Smoking prevalence, total (ages 15+)"},"country":{"id":"ZM","value":"Zambia"},"countryiso3code":"ZMB","date":"2017","value":null,"unit":"","obs_status":"","decimal":1},{"indicator":{"id":"SH.PRV.SMOK","value":"Smoking prevalence, total (ages 15+)"},"country":{"id":"ZM","value":"Zambia"},"countryiso3code":"ZMB","date":"2016","value":13.8,"unit":"","obs_status":"","decimal":1},{"indicator":{"id":"SH.PRV.SMOK","value":"Smoking prevalence, total (ages 15+)"},"country":{"id":"ZM","value":"Zambia"},"countryiso3code":"ZMB","date":"2015","value":14,"unit":"","obs_status":"","decimal":1},{"indicator":{"id":"SH.PRV.SMOK","value":"Smoking prevalence, total (ages 15+)"},"country":{"id":"ZW","value":"Zimbabwe"},"countryiso3code":"ZWE","date":"2019","value":null,"unit":"","obs_status":"","decimal":1},{"indicator":{"id":"SH.PRV.SMOK","value":"Smoking prevalence, total (ages 15+)"},"country":{"id":"ZW","value":"Zimbabwe"},"countryiso3code":"ZWE","date":"2018","value":null,"unit":"","obs_status":"","decimal":1},{"indicator":{"id":"SH.PRV.SMOK","value":"Smoking prevalence, total (ages 15+)"},"country":{"id":"ZW","value":"Zimbabwe"},"countryiso3code":"ZWE","date":"2017","value":null,"unit":"","obs_status":"","decimal":1},{"indicator":{"id":"SH.PRV.SMOK","value":"Smoking prevalence, total (ages 15+)"},"country":{"id":"ZW","value":"Zimbabwe"},"countryiso3code":"ZWE","date":"2016","value":15.8,"unit":"","obs_status":"","decimal":1},{"indicator":{"id":"SH.PRV.SMOK","value":"Smoking prevalence, total (ages 15+)"},"country":{"id":"ZW","value":"Zimbabwe"},"countryiso3code":"ZWE","date":"2015","value":15.9,"unit":"","obs_status":"","decimal":1}]]