[{"page":7,"pages":7,"per_page":200,"total":1320,"sourceid":"15","lastupdated":"2020-05-19"},[{"indicator":{"id":"SH.PRV.SMOK.MA","value":"Smoking prevalence, males (% of adults)"},"country":{"id":"TL","value":"Timor-Leste"},"countryiso3code":"TLS","date":"2019","value":null,"unit":"","obs_status":"","decimal":0},{"indicator":{"id":"SH.PRV.SMOK.MA","value":"Smoking prevalence, males (% of adults)"},"country":{"id":"TL","value":"Timor-Leste"},"countryiso3code":"TLS","date":"2018","value":null,"unit":"","obs_status":"","decimal":0},{"indicator":{"id":"SH.PRV.SMOK.MA","value":"Smoking prevalence, males (% of adults)"},"country":{"id":"TL","value":"Timor-Leste"},"countryiso3code":"TLS","date":"2017","value":null,"unit":"","obs_status":"","decimal":0},{"indicator":{"id":"SH.PRV.SMOK.MA","value":"Smoking prevalence, males (% of adults)"},"country":{"id":"TL","value":"Timor-Leste"},"countryiso3code":"TLS","date":"2016","value":78.1,"unit":"","obs_status":"","decimal":0},{"indicator":{"id":"SH.PRV.SMOK.MA","value":"Smoking prevalence, males (% of adults)"},"country":{"id":"TL","value":"Timor-Leste"},"countryiso3code":"TLS","date":"2015","value":79.1,"unit":"","obs_status":"","decimal":0},{"indicator":{"id":"SH.PRV.SMOK.MA","value":"Smoking prevalence, males (% of adults)"},"country":{"id":"TG","value":"Togo"},"countryiso3code":"TGO","date":"2019","value":null,"unit":"","obs_status":"","decimal":0},{"indicator":{"id":"SH.PRV.SMOK.MA","value":"Smoking prevalence, males (% of adults)"},"country":{"id":"TG","value":"Togo"},"countryiso3code":"TGO","date":"2018","value":null,"unit":"","obs_status":"","decimal":0},{"indicator":{"id":"SH.PRV.SMOK.MA","value":"Smoking prevalence, males (% of adults)"},"country":{"id":"TG","value":"Togo"},"countryiso3code":"TGO","date":"2017","value":null,"unit":"","obs_status":"","decimal":0},{"indicator":{"id":"SH.PRV.SMOK.MA","value":"Smoking prevalence, males (% of adults)"},"country":{"id":"TG","value":"Togo"},"countryiso3code":"TGO","date":"2016","value":14.2,"unit":"","obs_status":"","decimal":0},{"indicator":{"id":"SH.PRV.SMOK.MA","value":"Smoking prevalence, males (% of adults)"},"country":{"id":"TG","value":"Togo"},"countryiso3code":"TGO","date":"2015","value":14.3,"unit":"","obs_status":"","decimal":0},{"indicator":{"id":"SH.PRV.SMOK.MA","value":"Smoking prevalence, males (% of adults)"},"country":{"id":"TO","value":"Tonga"},"countryiso3code":"TON","date":"2019","value":null,"unit":"","obs_status":"","decimal":0},{"indicator":{"id":"SH.PRV.SMOK.MA","value":"Smoking prevalence, males (% of adults)"},"country":{"id":"TO","value":"Tonga"},"countryiso3code":"TON","date":"2018","value":null,"unit":"","obs_status":"","decimal":0},{"indicator":{"id":"SH.PRV.SMOK.MA","value":"Smoking prevalence, males (% of adults)"},"country":{"id":"TO","value":"Tonga"},"countryiso3code":"TON","date":"2017","value":null,"unit":"","obs_status":"","decimal":0},{"indicator":{"id":"SH.PRV.SMOK.MA","value":"Smoking prevalence, males (% of adults)"},"country":{"id":"TO","value":"Tonga"},"countryiso3code":"TON","date":"2016","value":44.4,"unit":"","obs_status":"","decimal":0},{"indicator":{"id":"SH.PRV.SMOK.MA","value":"Smoking prevalence, males (% of adults)"},"country":{"id":"TO","value":"Tonga"},"countryiso3code":"TON","date":"2015","value":45.1,"unit":"","obs_status":"","decimal":0},{"indicator":{"id":"SH.PRV.SMOK.MA","value":"Smoking prevalence, males (% of adults)"},"country":{"id":"TT","value":"Trinidad and Tobago"},"countryiso3code":"TTO","date":"2019","value":null,"unit":"","obs_status":"","decimal":0},{"indicator":{"id":"SH.PRV.SMOK.MA","value":"Smoking prevalence, males (% of adults)"},"country":{"id":"TT","value":"Trinidad and Tobago"},"countryiso3code":"TTO","date":"2018","value":null,"unit":"","obs_status":"","decimal":0},{"indicator":{"id":"SH.PRV.SMOK.MA","value":"Smoking prevalence, males (% of adults)"},"country":{"id":"TT","value":"Trinidad and Tobago"},"countryiso3code":"TTO","date":"2017","value":null,"unit":"","obs_status":"","decimal":0},{"indicator":{"id":"SH.PRV.SMOK.MA","value":"Smoking prevalence, males (% of adults)"},"country":{"id":"TT","value":"Trinidad and Tobago"},"countryiso3code":"TTO","date":"2016","value":null,"unit":"","obs_status":"","decimal":0},{"indicator":{"id":"SH.PRV.SMOK.MA","value":"Smoking prevalence, males (% of adults)"},"country":{"id":"TT","value":"Trinidad and Tobago"},"countryiso3code":"TTO","date":"2015","value":null,"unit":"","obs_status":"","decimal":0},{"indicator":{"id":"SH.PRV.SMOK.MA","value":"Smoking prevalence, males (% of adults)"},"country":{"id":"TN","value":"Tunisia"},"countryiso3code":"TUN","date":"2019","value":null,"unit":"","obs_status":"","decimal":0},{"indicator":{"id":"SH.PRV.SMOK.MA","value":"Smoking prevalence, males (% of adults)"},"country":{"id":"TN","value":"Tunisia"},"countryiso3code":"TUN","date":"2018","value":null,"unit":"","obs_status":"","decimal":0},{"indicator":{"id":"SH.PRV.SMOK.MA","value":"Smoking prevalence, males (% of adults)"},"country":{"id":"TN","value":"Tunisia"},"countryiso3code":"TUN","date":"2017","value":null,"unit":"","obs_status":"","decimal":0},{"indicator":{"id":"SH.PRV.SMOK.MA","value":"Smoking prevalence, males (% of adults)"},"country":{"id":"TN","value":"Tunisia"},"countryiso3code":"TUN","date":"2016","value":65.8,"unit":"","obs_status":"","decimal":0},{"indicator":{"id":"SH.PRV.SMOK.MA","value":"Smoking prevalence, males (% of adults)"},"country":{"id":"TN","value":"Tunisia"},"countryiso3code":"TUN","date":"2015","value":65.4,"unit":"","obs_status":"","decimal":0},{"indicator":{"id":"SH.PRV.SMOK.MA","value":"Smoking prevalence, males (% of adults)"},"country":{"id":"TR","value":"Turkey"},"countryiso3code":"TUR","date":"2019","value":null,"unit":"","obs_status":"","decimal":0},{"indicator":{"id":"SH.PRV.SMOK.MA","value":"Smoking prevalence, males (% of adults)"},"country":{"id":"TR","value":"Turkey"},"countryiso3code":"TUR","date":"2018","value":null,"unit":"","obs_status":"","decimal":0},{"indicator":{"id":"SH.PRV.SMOK.MA","value":"Smoking prevalence, males (% of adults)"},"country":{"id":"TR","value":"Turkey"},"countryiso3code":"TUR","date":"2017","value":null,"unit":"","obs_status":"","decimal":0},{"indicator":{"id":"SH.PRV.SMOK.MA","value":"Smoking prevalence, males (% of adults)"},"country":{"id":"TR","value":"Turkey"},"countryiso3code":"TUR","date":"2016","value":41.1,"unit":"","obs_status":"","decimal":0},{"indicator":{"id":"SH.PRV.SMOK.MA","value":"Smoking prevalence, males (% of adults)"},"country":{"id":"TR","value":"Turkey"},"countryiso3code":"TUR","date":"2015","value":41.9,"unit":"","obs_status":"","decimal":0},{"indicator":{"id":"SH.PRV.SMOK.MA","value":"Smoking prevalence, males (% of adults)"},"country":{"id":"TM","value":"Turkmenistan"},"countryiso3code":"TKM","date":"2019","value":null,"unit":"","obs_status":"","decimal":0},{"indicator":{"id":"SH.PRV.SMOK.MA","value":"Smoking prevalence, males (% of adults)"},"country":{"id":"TM","value":"Turkmenistan"},"countryiso3code":"TKM","date":"2018","value":null,"unit":"","obs_status":"","decimal":0},{"indicator":{"id":"SH.PRV.SMOK.MA","value":"Smoking prevalence, males (% of adults)"},"country":{"id":"TM","value":"Turkmenistan"},"countryiso3code":"TKM","date":"2017","value":null,"unit":"","obs_status":"","decimal":0},{"indicator":{"id":"SH.PRV.SMOK.MA","value":"Smoking prevalence, males (% of adults)"},"country":{"id":"TM","value":"Turkmenistan"},"countryiso3code":"TKM","date":"2016","value":null,"unit":"","obs_status":"","decimal":0},{"indicator":{"id":"SH.PRV.SMOK.MA","value":"Smoking prevalence, males (% of adults)"},"country":{"id":"TM","value":"Turkmenistan"},"countryiso3code":"TKM","date":"2015","value":null,"unit":"","obs_status":"","decimal":0},{"indicator":{"id":"SH.PRV.SMOK.MA","value":"Smoking prevalence, males (% of adults)"},"country":{"id":"TC","value":"Turks and Caicos Islands"},"countryiso3code":"TCA","date":"2019","value":null,"unit":"","obs_status":"","decimal":0},{"indicator":{"id":"SH.PRV.SMOK.MA","value":"Smoking prevalence, males (% of adults)"},"country":{"id":"TC","value":"Turks and Caicos Islands"},"countryiso3code":"TCA","date":"2018","value":null,"unit":"","obs_status":"","decimal":0},{"indicator":{"id":"SH.PRV.SMOK.MA","value":"Smoking prevalence, males (% of adults)"},"country":{"id":"TC","value":"Turks and Caicos Islands"},"countryiso3code":"TCA","date":"2017","value":null,"unit":"","obs_status":"","decimal":0},{"indicator":{"id":"SH.PRV.SMOK.MA","value":"Smoking prevalence, males (% of adults)"},"country":{"id":"TC","value":"Turks and Caicos Islands"},"countryiso3code":"TCA","date":"2016","value":null,"unit":"","obs_status":"","decimal":0},{"indicator":{"id":"SH.PRV.SMOK.MA","value":"Smoking prevalence, males (% of adults)"},"country":{"id":"TC","value":"Turks and Caicos Islands"},"countryiso3code":"TCA","date":"2015","value":null,"unit":"","obs_status":"","decimal":0},{"indicator":{"id":"SH.PRV.SMOK.MA","value":"Smoking prevalence, males (% of adults)"},"country":{"id":"TV","value":"Tuvalu"},"countryiso3code":"TUV","date":"2019","value":null,"unit":"","obs_status":"","decimal":0},{"indicator":{"id":"SH.PRV.SMOK.MA","value":"Smoking prevalence, males (% of adults)"},"country":{"id":"TV","value":"Tuvalu"},"countryiso3code":"TUV","date":"2018","value":null,"unit":"","obs_status":"","decimal":0},{"indicator":{"id":"SH.PRV.SMOK.MA","value":"Smoking prevalence, males (% of adults)"},"country":{"id":"TV","value":"Tuvalu"},"countryiso3code":"TUV","date":"2017","value":null,"unit":"","obs_status":"","decimal":0},{"indicator":{"id":"SH.PRV.SMOK.MA","value":"Smoking prevalence, males (% of adults)"},"country":{"id":"TV","value":"Tuvalu"},"countryiso3code":"TUV","date":"2016","value":null,"unit":"","obs_status":"","decimal":0},{"indicator":{"id":"SH.PRV.SMOK.MA","value":"Smoking prevalence, males (% of adults)"},"country":{"id":"TV","value":"Tuvalu"},"countryiso3code":"TUV","date":"2015","value":null,"unit":"","obs_status":"","decimal":0},{"indicator":{"id":"SH.PRV.SMOK.MA","value":"Smoking prevalence, males (% of adults)"},"country":{"id":"UG","value":"Uganda"},"countryiso3code":"UGA","date":"2019","value":null,"unit":"","obs_status":"","decimal":0},{"indicator":{"id":"SH.PRV.SMOK.MA","value":"Smoking prevalence, males (% of adults)"},"country":{"id":"UG","value":"Uganda"},"countryiso3code":"UGA","date":"2018","value":null,"unit":"","obs_status":"","decimal":0},{"indicator":{"id":"SH.PRV.SMOK.MA","value":"Smoking prevalence, males (% of adults)"},"country":{"id":"UG","value":"Uganda"},"countryiso3code":"UGA","date":"2017","value":null,"unit":"","obs_status":"","decimal":0},{"indicator":{"id":"SH.PRV.SMOK.MA","value":"Smoking prevalence, males (% of adults)"},"country":{"id":"UG","value":"Uganda"},"countryiso3code":"UGA","date":"2016","value":16.7,"unit":"","obs_status":"","decimal":0},{"indicator":{"id":"SH.PRV.SMOK.MA","value":"Smoking prevalence, males (% of adults)"},"country":{"id":"UG","value":"Uganda"},"countryiso3code":"UGA","date":"2015","value":17.2,"unit":"","obs_status":"","decimal":0},{"indicator":{"id":"SH.PRV.SMOK.MA","value":"Smoking prevalence, males (% of adults)"},"country":{"id":"UA","value":"Ukraine"},"countryiso3code":"UKR","date":"2019","value":null,"unit":"","obs_status":"","decimal":0},{"indicator":{"id":"SH.PRV.SMOK.MA","value":"Smoking prevalence, males (% of adults)"},"country":{"id":"UA","value":"Ukraine"},"countryiso3code":"UKR","date":"2018","value":null,"unit":"","obs_status":"","decimal":0},{"indicator":{"id":"SH.PRV.SMOK.MA","value":"Smoking prevalence, males (% of adults)"},"country":{"id":"UA","value":"Ukraine"},"countryiso3code":"UKR","date":"2017","value":null,"unit":"","obs_status":"","decimal":0},{"indicator":{"id":"SH.PRV.SMOK.MA","value":"Smoking prevalence, males (% of adults)"},"country":{"id":"UA","value":"Ukraine"},"countryiso3code":"UKR","date":"2016","value":47.4,"unit":"","obs_status":"","decimal":0},{"indicator":{"id":"SH.PRV.SMOK.MA","value":"Smoking prevalence, males (% of adults)"},"country":{"id":"UA","value":"Ukraine"},"countryiso3code":"UKR","date":"2015","value":48.2,"unit":"","obs_status":"","decimal":0},{"indicator":{"id":"SH.PRV.SMOK.MA","value":"Smoking prevalence, males (% of adults)"},"country":{"id":"AE","value":"United Arab Emirates"},"countryiso3code":"ARE","date":"2019","value":null,"unit":"","obs_status":"","decimal":0},{"indicator":{"id":"SH.PRV.SMOK.MA","value":"Smoking prevalence, males (% of adults)"},"country":{"id":"AE","value":"United Arab Emirates"},"countryiso3code":"ARE","date":"2018","value":null,"unit":"","obs_status":"","decimal":0},{"indicator":{"id":"SH.PRV.SMOK.MA","value":"Smoking prevalence, males (% of adults)"},"country":{"id":"AE","value":"United Arab Emirates"},"countryiso3code":"ARE","date":"2017","value":null,"unit":"","obs_status":"","decimal":0},{"indicator":{"id":"SH.PRV.SMOK.MA","value":"Smoking prevalence, males (% of adults)"},"country":{"id":"AE","value":"United Arab Emirates"},"countryiso3code":"ARE","date":"2016","value":37.4,"unit":"","obs_status":"","decimal":0},{"indicator":{"id":"SH.PRV.SMOK.MA","value":"Smoking prevalence, males (% of adults)"},"country":{"id":"AE","value":"United Arab Emirates"},"countryiso3code":"ARE","date":"2015","value":36.8,"unit":"","obs_status":"","decimal":0},{"indicator":{"id":"SH.PRV.SMOK.MA","value":"Smoking prevalence, males (% of adults)"},"country":{"id":"GB","value":"United Kingdom"},"countryiso3code":"GBR","date":"2019","value":null,"unit":"","obs_status":"","decimal":0},{"indicator":{"id":"SH.PRV.SMOK.MA","value":"Smoking prevalence, males (% of adults)"},"country":{"id":"GB","value":"United Kingdom"},"countryiso3code":"GBR","date":"2018","value":null,"unit":"","obs_status":"","decimal":0},{"indicator":{"id":"SH.PRV.SMOK.MA","value":"Smoking prevalence, males (% of adults)"},"country":{"id":"GB","value":"United Kingdom"},"countryiso3code":"GBR","date":"2017","value":null,"unit":"","obs_status":"","decimal":0},{"indicator":{"id":"SH.PRV.SMOK.MA","value":"Smoking prevalence, males (% of adults)"},"country":{"id":"GB","value":"United Kingdom"},"countryiso3code":"GBR","date":"2016","value":24.7,"unit":"","obs_status":"","decimal":0},{"indicator":{"id":"SH.PRV.SMOK.MA","value":"Smoking prevalence, males (% of adults)"},"country":{"id":"GB","value":"United Kingdom"},"countryiso3code":"GBR","date":"2015","value":25.6,"unit":"","obs_status":"","decimal":0},{"indicator":{"id":"SH.PRV.SMOK.MA","value":"Smoking prevalence, males (% of adults)"},"country":{"id":"US","value":"United States"},"countryiso3code":"USA","date":"2019","value":null,"unit":"","obs_status":"","decimal":0},{"indicator":{"id":"SH.PRV.SMOK.MA","value":"Smoking prevalence, males (% of adults)"},"country":{"id":"US","value":"United States"},"countryiso3code":"USA","date":"2018","value":null,"unit":"","obs_status":"","decimal":0},{"indicator":{"id":"SH.PRV.SMOK.MA","value":"Smoking prevalence, males (% of adults)"},"country":{"id":"US","value":"United States"},"countryiso3code":"USA","date":"2017","value":null,"unit":"","obs_status":"","decimal":0},{"indicator":{"id":"SH.PRV.SMOK.MA","value":"Smoking prevalence, males (% of adults)"},"country":{"id":"US","value":"United States"},"countryiso3code":"USA","date":"2016","value":24.6,"unit":"","obs_status":"","decimal":0},{"indicator":{"id":"SH.PRV.SMOK.MA","value":"Smoking prevalence, males (% of adults)"},"country":{"id":"US","value":"United States"},"countryiso3code":"USA","date":"2015","value":25.1,"unit":"","obs_status":"","decimal":0},{"indicator":{"id":"SH.PRV.SMOK.MA","value":"Smoking prevalence, males (% of adults)"},"country":{"id":"UY","value":"Uruguay"},"countryiso3code":"URY","date":"2019","value":null,"unit":"","obs_status":"","decimal":0},{"indicator":{"id":"SH.PRV.SMOK.MA","value":"Smoking prevalence, males (% of adults)"},"country":{"id":"UY","value":"Uruguay"},"countryiso3code":"URY","date":"2018","value":null,"unit":"","obs_status":"","decimal":0},{"indicator":{"id":"SH.PRV.SMOK.MA","value":"Smoking prevalence, males (% of adults)"},"country":{"id":"UY","value":"Uruguay"},"countryiso3code":"URY","date":"2017","value":null,"unit":"","obs_status":"","decimal":0},{"indicator":{"id":"SH.PRV.SMOK.MA","value":"Smoking prevalence, males (% of adults)"},"country":{"id":"UY","value":"Uruguay"},"countryiso3code":"URY","date":"2016","value":19.9,"unit":"","obs_status":"","decimal":0},{"indicator":{"id":"SH.PRV.SMOK.MA","value":"Smoking prevalence, males (% of adults)"},"country":{"id":"UY","value":"Uruguay"},"countryiso3code":"URY","date":"2015","value":21.4,"unit":"","obs_status":"","decimal":0},{"indicator":{"id":"SH.PRV.SMOK.MA","value":"Smoking prevalence, males (% of adults)"},"country":{"id":"UZ","value":"Uzbekistan"},"countryiso3code":"UZB","date":"2019","value":null,"unit":"","obs_status":"","decimal":0},{"indicator":{"id":"SH.PRV.SMOK.MA","value":"Smoking prevalence, males (% of adults)"},"country":{"id":"UZ","value":"Uzbekistan"},"countryiso3code":"UZB","date":"2018","value":null,"unit":"","obs_status":"","decimal":0},{"indicator":{"id":"SH.PRV.SMOK.MA","value":"Smoking prevalence, males (% of adults)"},"country":{"id":"UZ","value":"Uzbekistan"},"countryiso3code":"UZB","date":"2017","value":null,"unit":"","obs_status":"","decimal":0},{"indicator":{"id":"SH.PRV.SMOK.MA","value":"Smoking prevalence, males (% of adults)"},"country":{"id":"UZ","value":"Uzbekistan"},"countryiso3code":"UZB","date":"2016","value":24.7,"unit":"","obs_status":"","decimal":0},{"indicator":{"id":"SH.PRV.SMOK.MA","value":"Smoking prevalence, males (% of adults)"},"country":{"id":"UZ","value":"Uzbekistan"},"countryiso3code":"UZB","date":"2015","value":25,"unit":"","obs_status":"","decimal":0},{"indicator":{"id":"SH.PRV.SMOK.MA","value":"Smoking prevalence, males (% of adults)"},"country":{"id":"VU","value":"Vanuatu"},"countryiso3code":"VUT","date":"2019","value":null,"unit":"","obs_status":"","decimal":0},{"indicator":{"id":"SH.PRV.SMOK.MA","value":"Smoking prevalence, males (% of adults)"},"country":{"id":"VU","value":"Vanuatu"},"countryiso3code":"VUT","date":"2018","value":null,"unit":"","obs_status":"","decimal":0},{"indicator":{"id":"SH.PRV.SMOK.MA","value":"Smoking prevalence, males (% of adults)"},"country":{"id":"VU","value":"Vanuatu"},"countryiso3code":"VUT","date":"2017","value":null,"unit":"","obs_status":"","decimal":0},{"indicator":{"id":"SH.PRV.SMOK.MA","value":"Smoking prevalence, males (% of adults)"},"country":{"id":"VU","value":"Vanuatu"},"countryiso3code":"VUT","date":"2016","value":34.5,"unit":"","obs_status":"","decimal":0},{"indicator":{"id":"SH.PRV.SMOK.MA","value":"Smoking prevalence, males (% of adults)"},"country":{"id":"VU","value":"Vanuatu"},"countryiso3code":"VUT","date":"2015","value":35.6,"unit":"","obs_status":"","decimal":0},{"indicator":{"id":"SH.PRV.SMOK.MA","value":"Smoking prevalence, males (% of adults)"},"country":{"id":"VE","value":"Venezuela, RB"},"countryiso3code":"VEN","date":"2019","value":null,"unit":"","obs_status":"","decimal":0},{"indicator":{"id":"SH.PRV.SMOK.MA","value":"Smoking prevalence, males (% of adults)"},"country":{"id":"VE","value":"Venezuela, RB"},"countryiso3code":"VEN","date":"2018","value":null,"unit":"","obs_status":"","decimal":0},{"indicator":{"id":"SH.PRV.SMOK.MA","value":"Smoking prevalence, males (% of adults)"},"country":{"id":"VE","value":"Venezuela, RB"},"countryiso3code":"VEN","date":"2017","value":null,"unit":"","obs_status":"","decimal":0},{"indicator":{"id":"SH.PRV.SMOK.MA","value":"Smoking prevalence, males (% of adults)"},"country":{"id":"VE","value":"Venezuela, RB"},"countryiso3code":"VEN","date":"2016","value":null,"unit":"","obs_status":"","decimal":0},{"indicator":{"id":"SH.PRV.SMOK.MA","value":"Smoking prevalence, males (% of adults)"},"country":{"id":"VE","value":"Venezuela, RB"},"countryiso3code":"VEN","date":"2015","value":null,"unit":"","obs_status":"","decimal":0},{"indicator":{"id":"SH.PRV.SMOK.MA","value":"Smoking prevalence, males (% of adults)"},"country":{"id":"VN","value":"Vietnam"},"countryiso3code":"VNM","date":"2019","value":null,"unit":"","obs_status":"","decimal":0},{"indicator":{"id":"SH.PRV.SMOK.MA","value":"Smoking prevalence, males (% of adults)"},"country":{"id":"VN","value":"Vietnam"},"countryiso3code":"VNM","date":"2018","value":null,"unit":"","obs_status":"","decimal":0},{"indicator":{"id":"SH.PRV.SMOK.MA","value":"Smoking prevalence, males (% of adults)"},"country":{"id":"VN","value":"Vietnam"},"countryiso3code":"VNM","date":"2017","value":null,"unit":"","obs_status":"","decimal":0},{"indicator":{"id":"SH.PRV.SMOK.MA","value":"Smoking prevalence, males (% of adults)"},"country":{"id":"VN","value":"Vietnam"},"countryiso3code":"VNM","date":"2016","value":45.9,"unit":"","obs_status":"","decimal":0},{"indicator":{"id":"SH.PRV.SMOK.MA","value":"Smoking prevalence, males (% of adults)"},"country":{"id":"VN","value":"Vietnam"},"countryiso3code":"VNM","date":"2015","value":46.4,"unit":"","obs_status":"","decimal":0},{"indicator":{"id":"SH.PRV.SMOK.MA","value":"Smoking prevalence, males (% of adults)"},"country":{"id":"VI","value":"Virgin Islands (U.S.)"},"countryiso3code":"VIR","date":"2019","value":null,"unit":"","obs_status":"","decimal":0},{"indicator":{"id":"SH.PRV.SMOK.MA","value":"Smoking prevalence, males (% of adults)"},"country":{"id":"VI","value":"Virgin Islands (U.S.)"},"countryiso3code":"VIR","date":"2018","value":null,"unit":"","obs_status":"","decimal":0},{"indicator":{"id":"SH.PRV.SMOK.MA","value":"Smoking prevalence, males (% of adults)"},"country":{"id":"VI","value":"Virgin Islands (U.S.)"},"countryiso3code":"VIR","date":"2017","value":null,"unit":"","obs_status":"","decimal":0},{"indicator":{"id":"SH.PRV.SMOK.MA","value":"Smoking prevalence, males (% of adults)"},"country":{"id":"VI","value":"Virgin Islands (U.S.)"},"countryiso3code":"VIR","date":"2016","value":null,"unit":"","obs_status":"","decimal":0},{"indicator":{"id":"SH.PRV.SMOK.MA","value":"Smoking prevalence, males (% of adults)"},"country":{"id":"VI","value":"Virgin Islands (U.S.)"},"countryiso3code":"VIR","date":"2015","value":null,"unit":"","obs_status":"","decimal":0},{"indicator":{"id":"SH.PRV.SMOK.MA","value":"Smoking prevalence, males (% of adults)"},"country":{"id":"PS","value":"West Bank and Gaza"},"countryiso3code":"PSE","date":"2019","value":null,"unit":"","obs_status":"","decimal":0},{"indicator":{"id":"SH.PRV.SMOK.MA","value":"Smoking prevalence, males (% of adults)"},"country":{"id":"PS","value":"West Bank and Gaza"},"countryiso3code":"PSE","date":"2018","value":null,"unit":"","obs_status":"","decimal":0},{"indicator":{"id":"SH.PRV.SMOK.MA","value":"Smoking prevalence, males (% of adults)"},"country":{"id":"PS","value":"West Bank and Gaza"},"countryiso3code":"PSE","date":"2017","value":null,"unit":"","obs_status":"","decimal":0},{"indicator":{"id":"SH.PRV.SMOK.MA","value":"Smoking prevalence, males (% of adults)"},"country":{"id":"PS","value":"West Bank and Gaza"},"countryiso3code":"PSE","date":"2016","value":null,"unit":"","obs_status":"","decimal":0},{"indicator":{"id":"SH.PRV.SMOK.MA","value":"Smoking prevalence, males (% of adults)"},"country":{"id":"PS","value":"West Bank and Gaza"},"countryiso3code":"PSE","date":"2015","value":null,"unit":"","obs_status":"","decimal":0},{"indicator":{"id":"SH.PRV.SMOK.MA","value":"Smoking prevalence, males (% of adults)"},"country":{"id":"YE","value":"Yemen, Rep."},"countryiso3code":"YEM","date":"2019","value":null,"unit":"","obs_status":"","decimal":0},{"indicator":{"id":"SH.PRV.SMOK.MA","value":"Smoking prevalence, males (% of adults)"},"country":{"id":"YE","value":"Yemen, Rep."},"countryiso3code":"YEM","date":"2018","value":null,"unit":"","obs_status":"","decimal":0},{"indicator":{"id":"SH.PRV.SMOK.MA","value":"Smoking prevalence, males (% of adults)"},"country":{"id":"YE","value":"Yemen, Rep."},"countryiso3code":"YEM","date":"2017","value":null,"unit":"","obs_status":"","decimal":0},{"indicator":{"id":"SH.PRV.SMOK.MA","value":"Smoking prevalence, males (% of adults)"},"country":{"id":"YE","value":"Yemen, Rep."},"countryiso3code":"YEM","date":"2016","value":29.2,"unit":"","obs_status":"","decimal":0},{"indicator":{"id":"SH.PRV.SMOK.MA","value":"Smoking prevalence, males (% of adults)"},"country":{"id":"YE","value":"Yemen, Rep."},"countryiso3code":"YEM","date":"2015","value":29.4,"unit":"","obs_status":"","decimal":0},{"indicator":{"id":"SH.PRV.SMOK.MA","value":"Smoking prevalence, males (% of adults)"},"country":{"id":"ZM","value":"Zambia"},"countryiso3code":"ZMB","date":"2019","value":null,"unit":"","obs_status":"","decimal":0},{"indicator":{"id":"SH.PRV.SMOK.MA","value":"Smoking prevalence, males (% of adults)"},"country":{"id":"ZM","value":"Zambia"},"countryiso3code":"ZMB","date":"2018","value":null,"unit":"","obs_status":"","decimal":0},{"indicator":{"id":"SH.PRV.SMOK.MA","value":"Smoking prevalence, males (% of adults)"},"country":{"id":"ZM","value":"Zambia"},"countryiso3code":"ZMB","date":"2017","value":null,"unit":"","obs_status":"","decimal":0},{"indicator":{"id":"SH.PRV.SMOK.MA","value":"Smoking prevalence, males (% of adults)"},"country":{"id":"ZM","value":"Zambia"},"countryiso3code":"ZMB","date":"2016","value":24.7,"unit":"","obs_status":"","decimal":0},{"indicator":{"id":"SH.PRV.SMOK.MA","value":"Smoking prevalence, males (% of adults)"},"country":{"id":"ZM","value":"Zambia"},"countryiso3code":"ZMB","date":"2015","value":25,"unit":"","obs_status":"","decimal":0},{"indicator":{"id":"SH.PRV.SMOK.MA","value":"Smoking prevalence, males (% of adults)"},"country":{"id":"ZW","value":"Zimbabwe"},"countryiso3code":"ZWE","date":"2019","value":null,"unit":"","obs_status":"","decimal":0},{"indicator":{"id":"SH.PRV.SMOK.MA","value":"Smoking prevalence, males (% of adults)"},"country":{"id":"ZW","value":"Zimbabwe"},"countryiso3code":"ZWE","date":"2018","value":null,"unit":"","obs_status":"","decimal":0},{"indicator":{"id":"SH.PRV.SMOK.MA","value":"Smoking prevalence, males (% of adults)"},"country":{"id":"ZW","value":"Zimbabwe"},"countryiso3code":"ZWE","date":"2017","value":null,"unit":"","obs_status":"","decimal":0},{"indicator":{"id":"SH.PRV.SMOK.MA","value":"Smoking prevalence, males (% of adults)"},"country":{"id":"ZW","value":"Zimbabwe"},"countryiso3code":"ZWE","date":"2016","value":30.7,"unit":"","obs_status":"","decimal":0},{"indicator":{"id":"SH.PRV.SMOK.MA","value":"Smoking prevalence, males (% of adults)"},"country":{"id":"ZW","value":"Zimbabwe"},"countryiso3code":"ZWE","date":"2015","value":30.8,"unit":"","obs_status":"","decimal":0}]]