[{"page":7,"pages":7,"per_page":200,"total":1320,"sourceid":"15","lastupdated":"2020-05-19"},[{"indicator":{"id":"SH.UHC.SRVS.CV.XD","value":"UHC service coverage index"},"country":{"id":"TL","value":"Timor-Leste"},"countryiso3code":"TLS","date":"2019","value":null,"unit":"","obs_status":"","decimal":2},{"indicator":{"id":"SH.UHC.SRVS.CV.XD","value":"UHC service coverage index"},"country":{"id":"TL","value":"Timor-Leste"},"countryiso3code":"TLS","date":"2018","value":null,"unit":"","obs_status":"","decimal":2},{"indicator":{"id":"SH.UHC.SRVS.CV.XD","value":"UHC service coverage index"},"country":{"id":"TL","value":"Timor-Leste"},"countryiso3code":"TLS","date":"2017","value":52,"unit":"","obs_status":"","decimal":2},{"indicator":{"id":"SH.UHC.SRVS.CV.XD","value":"UHC service coverage index"},"country":{"id":"TL","value":"Timor-Leste"},"countryiso3code":"TLS","date":"2016","value":null,"unit":"","obs_status":"","decimal":2},{"indicator":{"id":"SH.UHC.SRVS.CV.XD","value":"UHC service coverage index"},"country":{"id":"TL","value":"Timor-Leste"},"countryiso3code":"TLS","date":"2015","value":49,"unit":"","obs_status":"","decimal":2},{"indicator":{"id":"SH.UHC.SRVS.CV.XD","value":"UHC service coverage index"},"country":{"id":"TG","value":"Togo"},"countryiso3code":"TGO","date":"2019","value":null,"unit":"","obs_status":"","decimal":2},{"indicator":{"id":"SH.UHC.SRVS.CV.XD","value":"UHC service coverage index"},"country":{"id":"TG","value":"Togo"},"countryiso3code":"TGO","date":"2018","value":null,"unit":"","obs_status":"","decimal":2},{"indicator":{"id":"SH.UHC.SRVS.CV.XD","value":"UHC service coverage index"},"country":{"id":"TG","value":"Togo"},"countryiso3code":"TGO","date":"2017","value":43,"unit":"","obs_status":"","decimal":2},{"indicator":{"id":"SH.UHC.SRVS.CV.XD","value":"UHC service coverage index"},"country":{"id":"TG","value":"Togo"},"countryiso3code":"TGO","date":"2016","value":null,"unit":"","obs_status":"","decimal":2},{"indicator":{"id":"SH.UHC.SRVS.CV.XD","value":"UHC service coverage index"},"country":{"id":"TG","value":"Togo"},"countryiso3code":"TGO","date":"2015","value":42,"unit":"","obs_status":"","decimal":2},{"indicator":{"id":"SH.UHC.SRVS.CV.XD","value":"UHC service coverage index"},"country":{"id":"TO","value":"Tonga"},"countryiso3code":"TON","date":"2019","value":null,"unit":"","obs_status":"","decimal":2},{"indicator":{"id":"SH.UHC.SRVS.CV.XD","value":"UHC service coverage index"},"country":{"id":"TO","value":"Tonga"},"countryiso3code":"TON","date":"2018","value":null,"unit":"","obs_status":"","decimal":2},{"indicator":{"id":"SH.UHC.SRVS.CV.XD","value":"UHC service coverage index"},"country":{"id":"TO","value":"Tonga"},"countryiso3code":"TON","date":"2017","value":58,"unit":"","obs_status":"","decimal":2},{"indicator":{"id":"SH.UHC.SRVS.CV.XD","value":"UHC service coverage index"},"country":{"id":"TO","value":"Tonga"},"countryiso3code":"TON","date":"2016","value":null,"unit":"","obs_status":"","decimal":2},{"indicator":{"id":"SH.UHC.SRVS.CV.XD","value":"UHC service coverage index"},"country":{"id":"TO","value":"Tonga"},"countryiso3code":"TON","date":"2015","value":56,"unit":"","obs_status":"","decimal":2},{"indicator":{"id":"SH.UHC.SRVS.CV.XD","value":"UHC service coverage index"},"country":{"id":"TT","value":"Trinidad and Tobago"},"countryiso3code":"TTO","date":"2019","value":null,"unit":"","obs_status":"","decimal":2},{"indicator":{"id":"SH.UHC.SRVS.CV.XD","value":"UHC service coverage index"},"country":{"id":"TT","value":"Trinidad and Tobago"},"countryiso3code":"TTO","date":"2018","value":null,"unit":"","obs_status":"","decimal":2},{"indicator":{"id":"SH.UHC.SRVS.CV.XD","value":"UHC service coverage index"},"country":{"id":"TT","value":"Trinidad and Tobago"},"countryiso3code":"TTO","date":"2017","value":74,"unit":"","obs_status":"","decimal":2},{"indicator":{"id":"SH.UHC.SRVS.CV.XD","value":"UHC service coverage index"},"country":{"id":"TT","value":"Trinidad and Tobago"},"countryiso3code":"TTO","date":"2016","value":null,"unit":"","obs_status":"","decimal":2},{"indicator":{"id":"SH.UHC.SRVS.CV.XD","value":"UHC service coverage index"},"country":{"id":"TT","value":"Trinidad and Tobago"},"countryiso3code":"TTO","date":"2015","value":72,"unit":"","obs_status":"","decimal":2},{"indicator":{"id":"SH.UHC.SRVS.CV.XD","value":"UHC service coverage index"},"country":{"id":"TN","value":"Tunisia"},"countryiso3code":"TUN","date":"2019","value":null,"unit":"","obs_status":"","decimal":2},{"indicator":{"id":"SH.UHC.SRVS.CV.XD","value":"UHC service coverage index"},"country":{"id":"TN","value":"Tunisia"},"countryiso3code":"TUN","date":"2018","value":null,"unit":"","obs_status":"","decimal":2},{"indicator":{"id":"SH.UHC.SRVS.CV.XD","value":"UHC service coverage index"},"country":{"id":"TN","value":"Tunisia"},"countryiso3code":"TUN","date":"2017","value":70,"unit":"","obs_status":"","decimal":2},{"indicator":{"id":"SH.UHC.SRVS.CV.XD","value":"UHC service coverage index"},"country":{"id":"TN","value":"Tunisia"},"countryiso3code":"TUN","date":"2016","value":null,"unit":"","obs_status":"","decimal":2},{"indicator":{"id":"SH.UHC.SRVS.CV.XD","value":"UHC service coverage index"},"country":{"id":"TN","value":"Tunisia"},"countryiso3code":"TUN","date":"2015","value":70,"unit":"","obs_status":"","decimal":2},{"indicator":{"id":"SH.UHC.SRVS.CV.XD","value":"UHC service coverage index"},"country":{"id":"TR","value":"Turkey"},"countryiso3code":"TUR","date":"2019","value":null,"unit":"","obs_status":"","decimal":2},{"indicator":{"id":"SH.UHC.SRVS.CV.XD","value":"UHC service coverage index"},"country":{"id":"TR","value":"Turkey"},"countryiso3code":"TUR","date":"2018","value":null,"unit":"","obs_status":"","decimal":2},{"indicator":{"id":"SH.UHC.SRVS.CV.XD","value":"UHC service coverage index"},"country":{"id":"TR","value":"Turkey"},"countryiso3code":"TUR","date":"2017","value":74,"unit":"","obs_status":"","decimal":2},{"indicator":{"id":"SH.UHC.SRVS.CV.XD","value":"UHC service coverage index"},"country":{"id":"TR","value":"Turkey"},"countryiso3code":"TUR","date":"2016","value":null,"unit":"","obs_status":"","decimal":2},{"indicator":{"id":"SH.UHC.SRVS.CV.XD","value":"UHC service coverage index"},"country":{"id":"TR","value":"Turkey"},"countryiso3code":"TUR","date":"2015","value":71,"unit":"","obs_status":"","decimal":2},{"indicator":{"id":"SH.UHC.SRVS.CV.XD","value":"UHC service coverage index"},"country":{"id":"TM","value":"Turkmenistan"},"countryiso3code":"TKM","date":"2019","value":null,"unit":"","obs_status":"","decimal":2},{"indicator":{"id":"SH.UHC.SRVS.CV.XD","value":"UHC service coverage index"},"country":{"id":"TM","value":"Turkmenistan"},"countryiso3code":"TKM","date":"2018","value":null,"unit":"","obs_status":"","decimal":2},{"indicator":{"id":"SH.UHC.SRVS.CV.XD","value":"UHC service coverage index"},"country":{"id":"TM","value":"Turkmenistan"},"countryiso3code":"TKM","date":"2017","value":70,"unit":"","obs_status":"","decimal":2},{"indicator":{"id":"SH.UHC.SRVS.CV.XD","value":"UHC service coverage index"},"country":{"id":"TM","value":"Turkmenistan"},"countryiso3code":"TKM","date":"2016","value":null,"unit":"","obs_status":"","decimal":2},{"indicator":{"id":"SH.UHC.SRVS.CV.XD","value":"UHC service coverage index"},"country":{"id":"TM","value":"Turkmenistan"},"countryiso3code":"TKM","date":"2015","value":69,"unit":"","obs_status":"","decimal":2},{"indicator":{"id":"SH.UHC.SRVS.CV.XD","value":"UHC service coverage index"},"country":{"id":"TC","value":"Turks and Caicos Islands"},"countryiso3code":"TCA","date":"2019","value":null,"unit":"","obs_status":"","decimal":2},{"indicator":{"id":"SH.UHC.SRVS.CV.XD","value":"UHC service coverage index"},"country":{"id":"TC","value":"Turks and Caicos Islands"},"countryiso3code":"TCA","date":"2018","value":null,"unit":"","obs_status":"","decimal":2},{"indicator":{"id":"SH.UHC.SRVS.CV.XD","value":"UHC service coverage index"},"country":{"id":"TC","value":"Turks and Caicos Islands"},"countryiso3code":"TCA","date":"2017","value":null,"unit":"","obs_status":"","decimal":2},{"indicator":{"id":"SH.UHC.SRVS.CV.XD","value":"UHC service coverage index"},"country":{"id":"TC","value":"Turks and Caicos Islands"},"countryiso3code":"TCA","date":"2016","value":null,"unit":"","obs_status":"","decimal":2},{"indicator":{"id":"SH.UHC.SRVS.CV.XD","value":"UHC service coverage index"},"country":{"id":"TC","value":"Turks and Caicos Islands"},"countryiso3code":"TCA","date":"2015","value":null,"unit":"","obs_status":"","decimal":2},{"indicator":{"id":"SH.UHC.SRVS.CV.XD","value":"UHC service coverage index"},"country":{"id":"TV","value":"Tuvalu"},"countryiso3code":"TUV","date":"2019","value":null,"unit":"","obs_status":"","decimal":2},{"indicator":{"id":"SH.UHC.SRVS.CV.XD","value":"UHC service coverage index"},"country":{"id":"TV","value":"Tuvalu"},"countryiso3code":"TUV","date":"2018","value":null,"unit":"","obs_status":"","decimal":2},{"indicator":{"id":"SH.UHC.SRVS.CV.XD","value":"UHC service coverage index"},"country":{"id":"TV","value":"Tuvalu"},"countryiso3code":"TUV","date":"2017","value":null,"unit":"","obs_status":"","decimal":2},{"indicator":{"id":"SH.UHC.SRVS.CV.XD","value":"UHC service coverage index"},"country":{"id":"TV","value":"Tuvalu"},"countryiso3code":"TUV","date":"2016","value":null,"unit":"","obs_status":"","decimal":2},{"indicator":{"id":"SH.UHC.SRVS.CV.XD","value":"UHC service coverage index"},"country":{"id":"TV","value":"Tuvalu"},"countryiso3code":"TUV","date":"2015","value":null,"unit":"","obs_status":"","decimal":2},{"indicator":{"id":"SH.UHC.SRVS.CV.XD","value":"UHC service coverage index"},"country":{"id":"UG","value":"Uganda"},"countryiso3code":"UGA","date":"2019","value":null,"unit":"","obs_status":"","decimal":2},{"indicator":{"id":"SH.UHC.SRVS.CV.XD","value":"UHC service coverage index"},"country":{"id":"UG","value":"Uganda"},"countryiso3code":"UGA","date":"2018","value":null,"unit":"","obs_status":"","decimal":2},{"indicator":{"id":"SH.UHC.SRVS.CV.XD","value":"UHC service coverage index"},"country":{"id":"UG","value":"Uganda"},"countryiso3code":"UGA","date":"2017","value":45,"unit":"","obs_status":"","decimal":2},{"indicator":{"id":"SH.UHC.SRVS.CV.XD","value":"UHC service coverage index"},"country":{"id":"UG","value":"Uganda"},"countryiso3code":"UGA","date":"2016","value":null,"unit":"","obs_status":"","decimal":2},{"indicator":{"id":"SH.UHC.SRVS.CV.XD","value":"UHC service coverage index"},"country":{"id":"UG","value":"Uganda"},"countryiso3code":"UGA","date":"2015","value":44,"unit":"","obs_status":"","decimal":2},{"indicator":{"id":"SH.UHC.SRVS.CV.XD","value":"UHC service coverage index"},"country":{"id":"UA","value":"Ukraine"},"countryiso3code":"UKR","date":"2019","value":null,"unit":"","obs_status":"","decimal":2},{"indicator":{"id":"SH.UHC.SRVS.CV.XD","value":"UHC service coverage index"},"country":{"id":"UA","value":"Ukraine"},"countryiso3code":"UKR","date":"2018","value":null,"unit":"","obs_status":"","decimal":2},{"indicator":{"id":"SH.UHC.SRVS.CV.XD","value":"UHC service coverage index"},"country":{"id":"UA","value":"Ukraine"},"countryiso3code":"UKR","date":"2017","value":68,"unit":"","obs_status":"","decimal":2},{"indicator":{"id":"SH.UHC.SRVS.CV.XD","value":"UHC service coverage index"},"country":{"id":"UA","value":"Ukraine"},"countryiso3code":"UKR","date":"2016","value":null,"unit":"","obs_status":"","decimal":2},{"indicator":{"id":"SH.UHC.SRVS.CV.XD","value":"UHC service coverage index"},"country":{"id":"UA","value":"Ukraine"},"countryiso3code":"UKR","date":"2015","value":65,"unit":"","obs_status":"","decimal":2},{"indicator":{"id":"SH.UHC.SRVS.CV.XD","value":"UHC service coverage index"},"country":{"id":"AE","value":"United Arab Emirates"},"countryiso3code":"ARE","date":"2019","value":null,"unit":"","obs_status":"","decimal":2},{"indicator":{"id":"SH.UHC.SRVS.CV.XD","value":"UHC service coverage index"},"country":{"id":"AE","value":"United Arab Emirates"},"countryiso3code":"ARE","date":"2018","value":null,"unit":"","obs_status":"","decimal":2},{"indicator":{"id":"SH.UHC.SRVS.CV.XD","value":"UHC service coverage index"},"country":{"id":"AE","value":"United Arab Emirates"},"countryiso3code":"ARE","date":"2017","value":76,"unit":"","obs_status":"","decimal":2},{"indicator":{"id":"SH.UHC.SRVS.CV.XD","value":"UHC service coverage index"},"country":{"id":"AE","value":"United Arab Emirates"},"countryiso3code":"ARE","date":"2016","value":null,"unit":"","obs_status":"","decimal":2},{"indicator":{"id":"SH.UHC.SRVS.CV.XD","value":"UHC service coverage index"},"country":{"id":"AE","value":"United Arab Emirates"},"countryiso3code":"ARE","date":"2015","value":72,"unit":"","obs_status":"","decimal":2},{"indicator":{"id":"SH.UHC.SRVS.CV.XD","value":"UHC service coverage index"},"country":{"id":"GB","value":"United Kingdom"},"countryiso3code":"GBR","date":"2019","value":null,"unit":"","obs_status":"","decimal":2},{"indicator":{"id":"SH.UHC.SRVS.CV.XD","value":"UHC service coverage index"},"country":{"id":"GB","value":"United Kingdom"},"countryiso3code":"GBR","date":"2018","value":null,"unit":"","obs_status":"","decimal":2},{"indicator":{"id":"SH.UHC.SRVS.CV.XD","value":"UHC service coverage index"},"country":{"id":"GB","value":"United Kingdom"},"countryiso3code":"GBR","date":"2017","value":87,"unit":"","obs_status":"","decimal":2},{"indicator":{"id":"SH.UHC.SRVS.CV.XD","value":"UHC service coverage index"},"country":{"id":"GB","value":"United Kingdom"},"countryiso3code":"GBR","date":"2016","value":null,"unit":"","obs_status":"","decimal":2},{"indicator":{"id":"SH.UHC.SRVS.CV.XD","value":"UHC service coverage index"},"country":{"id":"GB","value":"United Kingdom"},"countryiso3code":"GBR","date":"2015","value":85,"unit":"","obs_status":"","decimal":2},{"indicator":{"id":"SH.UHC.SRVS.CV.XD","value":"UHC service coverage index"},"country":{"id":"US","value":"United States"},"countryiso3code":"USA","date":"2019","value":null,"unit":"","obs_status":"","decimal":2},{"indicator":{"id":"SH.UHC.SRVS.CV.XD","value":"UHC service coverage index"},"country":{"id":"US","value":"United States"},"countryiso3code":"USA","date":"2018","value":null,"unit":"","obs_status":"","decimal":2},{"indicator":{"id":"SH.UHC.SRVS.CV.XD","value":"UHC service coverage index"},"country":{"id":"US","value":"United States"},"countryiso3code":"USA","date":"2017","value":84,"unit":"","obs_status":"","decimal":2},{"indicator":{"id":"SH.UHC.SRVS.CV.XD","value":"UHC service coverage index"},"country":{"id":"US","value":"United States"},"countryiso3code":"USA","date":"2016","value":null,"unit":"","obs_status":"","decimal":2},{"indicator":{"id":"SH.UHC.SRVS.CV.XD","value":"UHC service coverage index"},"country":{"id":"US","value":"United States"},"countryiso3code":"USA","date":"2015","value":83,"unit":"","obs_status":"","decimal":2},{"indicator":{"id":"SH.UHC.SRVS.CV.XD","value":"UHC service coverage index"},"country":{"id":"UY","value":"Uruguay"},"countryiso3code":"URY","date":"2019","value":null,"unit":"","obs_status":"","decimal":2},{"indicator":{"id":"SH.UHC.SRVS.CV.XD","value":"UHC service coverage index"},"country":{"id":"UY","value":"Uruguay"},"countryiso3code":"URY","date":"2018","value":null,"unit":"","obs_status":"","decimal":2},{"indicator":{"id":"SH.UHC.SRVS.CV.XD","value":"UHC service coverage index"},"country":{"id":"UY","value":"Uruguay"},"countryiso3code":"URY","date":"2017","value":80,"unit":"","obs_status":"","decimal":2},{"indicator":{"id":"SH.UHC.SRVS.CV.XD","value":"UHC service coverage index"},"country":{"id":"UY","value":"Uruguay"},"countryiso3code":"URY","date":"2016","value":null,"unit":"","obs_status":"","decimal":2},{"indicator":{"id":"SH.UHC.SRVS.CV.XD","value":"UHC service coverage index"},"country":{"id":"UY","value":"Uruguay"},"countryiso3code":"URY","date":"2015","value":79,"unit":"","obs_status":"","decimal":2},{"indicator":{"id":"SH.UHC.SRVS.CV.XD","value":"UHC service coverage index"},"country":{"id":"UZ","value":"Uzbekistan"},"countryiso3code":"UZB","date":"2019","value":null,"unit":"","obs_status":"","decimal":2},{"indicator":{"id":"SH.UHC.SRVS.CV.XD","value":"UHC service coverage index"},"country":{"id":"UZ","value":"Uzbekistan"},"countryiso3code":"UZB","date":"2018","value":null,"unit":"","obs_status":"","decimal":2},{"indicator":{"id":"SH.UHC.SRVS.CV.XD","value":"UHC service coverage index"},"country":{"id":"UZ","value":"Uzbekistan"},"countryiso3code":"UZB","date":"2017","value":73,"unit":"","obs_status":"","decimal":2},{"indicator":{"id":"SH.UHC.SRVS.CV.XD","value":"UHC service coverage index"},"country":{"id":"UZ","value":"Uzbekistan"},"countryiso3code":"UZB","date":"2016","value":null,"unit":"","obs_status":"","decimal":2},{"indicator":{"id":"SH.UHC.SRVS.CV.XD","value":"UHC service coverage index"},"country":{"id":"UZ","value":"Uzbekistan"},"countryiso3code":"UZB","date":"2015","value":72,"unit":"","obs_status":"","decimal":2},{"indicator":{"id":"SH.UHC.SRVS.CV.XD","value":"UHC service coverage index"},"country":{"id":"VU","value":"Vanuatu"},"countryiso3code":"VUT","date":"2019","value":null,"unit":"","obs_status":"","decimal":2},{"indicator":{"id":"SH.UHC.SRVS.CV.XD","value":"UHC service coverage index"},"country":{"id":"VU","value":"Vanuatu"},"countryiso3code":"VUT","date":"2018","value":null,"unit":"","obs_status":"","decimal":2},{"indicator":{"id":"SH.UHC.SRVS.CV.XD","value":"UHC service coverage index"},"country":{"id":"VU","value":"Vanuatu"},"countryiso3code":"VUT","date":"2017","value":48,"unit":"","obs_status":"","decimal":2},{"indicator":{"id":"SH.UHC.SRVS.CV.XD","value":"UHC service coverage index"},"country":{"id":"VU","value":"Vanuatu"},"countryiso3code":"VUT","date":"2016","value":null,"unit":"","obs_status":"","decimal":2},{"indicator":{"id":"SH.UHC.SRVS.CV.XD","value":"UHC service coverage index"},"country":{"id":"VU","value":"Vanuatu"},"countryiso3code":"VUT","date":"2015","value":49,"unit":"","obs_status":"","decimal":2},{"indicator":{"id":"SH.UHC.SRVS.CV.XD","value":"UHC service coverage index"},"country":{"id":"VE","value":"Venezuela, RB"},"countryiso3code":"VEN","date":"2019","value":null,"unit":"","obs_status":"","decimal":2},{"indicator":{"id":"SH.UHC.SRVS.CV.XD","value":"UHC service coverage index"},"country":{"id":"VE","value":"Venezuela, RB"},"countryiso3code":"VEN","date":"2018","value":null,"unit":"","obs_status":"","decimal":2},{"indicator":{"id":"SH.UHC.SRVS.CV.XD","value":"UHC service coverage index"},"country":{"id":"VE","value":"Venezuela, RB"},"countryiso3code":"VEN","date":"2017","value":74,"unit":"","obs_status":"","decimal":2},{"indicator":{"id":"SH.UHC.SRVS.CV.XD","value":"UHC service coverage index"},"country":{"id":"VE","value":"Venezuela, RB"},"countryiso3code":"VEN","date":"2016","value":null,"unit":"","obs_status":"","decimal":2},{"indicator":{"id":"SH.UHC.SRVS.CV.XD","value":"UHC service coverage index"},"country":{"id":"VE","value":"Venezuela, RB"},"countryiso3code":"VEN","date":"2015","value":73,"unit":"","obs_status":"","decimal":2},{"indicator":{"id":"SH.UHC.SRVS.CV.XD","value":"UHC service coverage index"},"country":{"id":"VN","value":"Vietnam"},"countryiso3code":"VNM","date":"2019","value":null,"unit":"","obs_status":"","decimal":2},{"indicator":{"id":"SH.UHC.SRVS.CV.XD","value":"UHC service coverage index"},"country":{"id":"VN","value":"Vietnam"},"countryiso3code":"VNM","date":"2018","value":null,"unit":"","obs_status":"","decimal":2},{"indicator":{"id":"SH.UHC.SRVS.CV.XD","value":"UHC service coverage index"},"country":{"id":"VN","value":"Vietnam"},"countryiso3code":"VNM","date":"2017","value":75,"unit":"","obs_status":"","decimal":2},{"indicator":{"id":"SH.UHC.SRVS.CV.XD","value":"UHC service coverage index"},"country":{"id":"VN","value":"Vietnam"},"countryiso3code":"VNM","date":"2016","value":null,"unit":"","obs_status":"","decimal":2},{"indicator":{"id":"SH.UHC.SRVS.CV.XD","value":"UHC service coverage index"},"country":{"id":"VN","value":"Vietnam"},"countryiso3code":"VNM","date":"2015","value":73,"unit":"","obs_status":"","decimal":2},{"indicator":{"id":"SH.UHC.SRVS.CV.XD","value":"UHC service coverage index"},"country":{"id":"VI","value":"Virgin Islands (U.S.)"},"countryiso3code":"VIR","date":"2019","value":null,"unit":"","obs_status":"","decimal":2},{"indicator":{"id":"SH.UHC.SRVS.CV.XD","value":"UHC service coverage index"},"country":{"id":"VI","value":"Virgin Islands (U.S.)"},"countryiso3code":"VIR","date":"2018","value":null,"unit":"","obs_status":"","decimal":2},{"indicator":{"id":"SH.UHC.SRVS.CV.XD","value":"UHC service coverage index"},"country":{"id":"VI","value":"Virgin Islands (U.S.)"},"countryiso3code":"VIR","date":"2017","value":null,"unit":"","obs_status":"","decimal":2},{"indicator":{"id":"SH.UHC.SRVS.CV.XD","value":"UHC service coverage index"},"country":{"id":"VI","value":"Virgin Islands (U.S.)"},"countryiso3code":"VIR","date":"2016","value":null,"unit":"","obs_status":"","decimal":2},{"indicator":{"id":"SH.UHC.SRVS.CV.XD","value":"UHC service coverage index"},"country":{"id":"VI","value":"Virgin Islands (U.S.)"},"countryiso3code":"VIR","date":"2015","value":null,"unit":"","obs_status":"","decimal":2},{"indicator":{"id":"SH.UHC.SRVS.CV.XD","value":"UHC service coverage index"},"country":{"id":"PS","value":"West Bank and Gaza"},"countryiso3code":"PSE","date":"2019","value":null,"unit":"","obs_status":"","decimal":2},{"indicator":{"id":"SH.UHC.SRVS.CV.XD","value":"UHC service coverage index"},"country":{"id":"PS","value":"West Bank and Gaza"},"countryiso3code":"PSE","date":"2018","value":null,"unit":"","obs_status":"","decimal":2},{"indicator":{"id":"SH.UHC.SRVS.CV.XD","value":"UHC service coverage index"},"country":{"id":"PS","value":"West Bank and Gaza"},"countryiso3code":"PSE","date":"2017","value":null,"unit":"","obs_status":"","decimal":2},{"indicator":{"id":"SH.UHC.SRVS.CV.XD","value":"UHC service coverage index"},"country":{"id":"PS","value":"West Bank and Gaza"},"countryiso3code":"PSE","date":"2016","value":null,"unit":"","obs_status":"","decimal":2},{"indicator":{"id":"SH.UHC.SRVS.CV.XD","value":"UHC service coverage index"},"country":{"id":"PS","value":"West Bank and Gaza"},"countryiso3code":"PSE","date":"2015","value":null,"unit":"","obs_status":"","decimal":2},{"indicator":{"id":"SH.UHC.SRVS.CV.XD","value":"UHC service coverage index"},"country":{"id":"YE","value":"Yemen, Rep."},"countryiso3code":"YEM","date":"2019","value":null,"unit":"","obs_status":"","decimal":2},{"indicator":{"id":"SH.UHC.SRVS.CV.XD","value":"UHC service coverage index"},"country":{"id":"YE","value":"Yemen, Rep."},"countryiso3code":"YEM","date":"2018","value":null,"unit":"","obs_status":"","decimal":2},{"indicator":{"id":"SH.UHC.SRVS.CV.XD","value":"UHC service coverage index"},"country":{"id":"YE","value":"Yemen, Rep."},"countryiso3code":"YEM","date":"2017","value":42,"unit":"","obs_status":"","decimal":2},{"indicator":{"id":"SH.UHC.SRVS.CV.XD","value":"UHC service coverage index"},"country":{"id":"YE","value":"Yemen, Rep."},"countryiso3code":"YEM","date":"2016","value":null,"unit":"","obs_status":"","decimal":2},{"indicator":{"id":"SH.UHC.SRVS.CV.XD","value":"UHC service coverage index"},"country":{"id":"YE","value":"Yemen, Rep."},"countryiso3code":"YEM","date":"2015","value":40,"unit":"","obs_status":"","decimal":2},{"indicator":{"id":"SH.UHC.SRVS.CV.XD","value":"UHC service coverage index"},"country":{"id":"ZM","value":"Zambia"},"countryiso3code":"ZMB","date":"2019","value":null,"unit":"","obs_status":"","decimal":2},{"indicator":{"id":"SH.UHC.SRVS.CV.XD","value":"UHC service coverage index"},"country":{"id":"ZM","value":"Zambia"},"countryiso3code":"ZMB","date":"2018","value":null,"unit":"","obs_status":"","decimal":2},{"indicator":{"id":"SH.UHC.SRVS.CV.XD","value":"UHC service coverage index"},"country":{"id":"ZM","value":"Zambia"},"countryiso3code":"ZMB","date":"2017","value":53,"unit":"","obs_status":"","decimal":2},{"indicator":{"id":"SH.UHC.SRVS.CV.XD","value":"UHC service coverage index"},"country":{"id":"ZM","value":"Zambia"},"countryiso3code":"ZMB","date":"2016","value":null,"unit":"","obs_status":"","decimal":2},{"indicator":{"id":"SH.UHC.SRVS.CV.XD","value":"UHC service coverage index"},"country":{"id":"ZM","value":"Zambia"},"countryiso3code":"ZMB","date":"2015","value":54,"unit":"","obs_status":"","decimal":2},{"indicator":{"id":"SH.UHC.SRVS.CV.XD","value":"UHC service coverage index"},"country":{"id":"ZW","value":"Zimbabwe"},"countryiso3code":"ZWE","date":"2019","value":null,"unit":"","obs_status":"","decimal":2},{"indicator":{"id":"SH.UHC.SRVS.CV.XD","value":"UHC service coverage index"},"country":{"id":"ZW","value":"Zimbabwe"},"countryiso3code":"ZWE","date":"2018","value":null,"unit":"","obs_status":"","decimal":2},{"indicator":{"id":"SH.UHC.SRVS.CV.XD","value":"UHC service coverage index"},"country":{"id":"ZW","value":"Zimbabwe"},"countryiso3code":"ZWE","date":"2017","value":54,"unit":"","obs_status":"","decimal":2},{"indicator":{"id":"SH.UHC.SRVS.CV.XD","value":"UHC service coverage index"},"country":{"id":"ZW","value":"Zimbabwe"},"countryiso3code":"ZWE","date":"2016","value":null,"unit":"","obs_status":"","decimal":2},{"indicator":{"id":"SH.UHC.SRVS.CV.XD","value":"UHC service coverage index"},"country":{"id":"ZW","value":"Zimbabwe"},"countryiso3code":"ZWE","date":"2015","value":54,"unit":"","obs_status":"","decimal":2}]]