[{"page":7,"pages":7,"per_page":200,"total":1320,"sourceid":"2","lastupdated":"2020-05-19"},[{"indicator":{"id":"SH.XPD.OOPC.PC.CD","value":"Out-of-pocket expenditure per capita (current US$)"},"country":{"id":"TL","value":"Timor-Leste"},"countryiso3code":"TLS","date":"2019","value":null,"unit":"","obs_status":"","decimal":2},{"indicator":{"id":"SH.XPD.OOPC.PC.CD","value":"Out-of-pocket expenditure per capita (current US$)"},"country":{"id":"TL","value":"Timor-Leste"},"countryiso3code":"TLS","date":"2018","value":null,"unit":"","obs_status":"","decimal":2},{"indicator":{"id":"SH.XPD.OOPC.PC.CD","value":"Out-of-pocket expenditure per capita (current US$)"},"country":{"id":"TL","value":"Timor-Leste"},"countryiso3code":"TLS","date":"2017","value":6.94277858734131,"unit":"","obs_status":"","decimal":2},{"indicator":{"id":"SH.XPD.OOPC.PC.CD","value":"Out-of-pocket expenditure per capita (current US$)"},"country":{"id":"TL","value":"Timor-Leste"},"countryiso3code":"TLS","date":"2016","value":7.09403800964355,"unit":"","obs_status":"","decimal":2},{"indicator":{"id":"SH.XPD.OOPC.PC.CD","value":"Out-of-pocket expenditure per capita (current US$)"},"country":{"id":"TL","value":"Timor-Leste"},"countryiso3code":"TLS","date":"2015","value":7.25235033035278,"unit":"","obs_status":"","decimal":2},{"indicator":{"id":"SH.XPD.OOPC.PC.CD","value":"Out-of-pocket expenditure per capita (current US$)"},"country":{"id":"TG","value":"Togo"},"countryiso3code":"TGO","date":"2019","value":null,"unit":"","obs_status":"","decimal":2},{"indicator":{"id":"SH.XPD.OOPC.PC.CD","value":"Out-of-pocket expenditure per capita (current US$)"},"country":{"id":"TG","value":"Togo"},"countryiso3code":"TGO","date":"2018","value":null,"unit":"","obs_status":"","decimal":2},{"indicator":{"id":"SH.XPD.OOPC.PC.CD","value":"Out-of-pocket expenditure per capita (current US$)"},"country":{"id":"TG","value":"Togo"},"countryiso3code":"TGO","date":"2017","value":22.2281055450439,"unit":"","obs_status":"","decimal":2},{"indicator":{"id":"SH.XPD.OOPC.PC.CD","value":"Out-of-pocket expenditure per capita (current US$)"},"country":{"id":"TG","value":"Togo"},"countryiso3code":"TGO","date":"2016","value":19.5472278594971,"unit":"","obs_status":"","decimal":2},{"indicator":{"id":"SH.XPD.OOPC.PC.CD","value":"Out-of-pocket expenditure per capita (current US$)"},"country":{"id":"TG","value":"Togo"},"countryiso3code":"TGO","date":"2015","value":19.2036590576172,"unit":"","obs_status":"","decimal":2},{"indicator":{"id":"SH.XPD.OOPC.PC.CD","value":"Out-of-pocket expenditure per capita (current US$)"},"country":{"id":"TO","value":"Tonga"},"countryiso3code":"TON","date":"2019","value":null,"unit":"","obs_status":"","decimal":2},{"indicator":{"id":"SH.XPD.OOPC.PC.CD","value":"Out-of-pocket expenditure per capita (current US$)"},"country":{"id":"TO","value":"Tonga"},"countryiso3code":"TON","date":"2018","value":null,"unit":"","obs_status":"","decimal":2},{"indicator":{"id":"SH.XPD.OOPC.PC.CD","value":"Out-of-pocket expenditure per capita (current US$)"},"country":{"id":"TO","value":"Tonga"},"countryiso3code":"TON","date":"2017","value":23.6014728546143,"unit":"","obs_status":"","decimal":2},{"indicator":{"id":"SH.XPD.OOPC.PC.CD","value":"Out-of-pocket expenditure per capita (current US$)"},"country":{"id":"TO","value":"Tonga"},"countryiso3code":"TON","date":"2016","value":22.2973384857178,"unit":"","obs_status":"","decimal":2},{"indicator":{"id":"SH.XPD.OOPC.PC.CD","value":"Out-of-pocket expenditure per capita (current US$)"},"country":{"id":"TO","value":"Tonga"},"countryiso3code":"TON","date":"2015","value":22.6224937438965,"unit":"","obs_status":"","decimal":2},{"indicator":{"id":"SH.XPD.OOPC.PC.CD","value":"Out-of-pocket expenditure per capita (current US$)"},"country":{"id":"TT","value":"Trinidad and Tobago"},"countryiso3code":"TTO","date":"2019","value":null,"unit":"","obs_status":"","decimal":2},{"indicator":{"id":"SH.XPD.OOPC.PC.CD","value":"Out-of-pocket expenditure per capita (current US$)"},"country":{"id":"TT","value":"Trinidad and Tobago"},"countryiso3code":"TTO","date":"2018","value":null,"unit":"","obs_status":"","decimal":2},{"indicator":{"id":"SH.XPD.OOPC.PC.CD","value":"Out-of-pocket expenditure per capita (current US$)"},"country":{"id":"TT","value":"Trinidad and Tobago"},"countryiso3code":"TTO","date":"2017","value":447.134826660156,"unit":"","obs_status":"","decimal":2},{"indicator":{"id":"SH.XPD.OOPC.PC.CD","value":"Out-of-pocket expenditure per capita (current US$)"},"country":{"id":"TT","value":"Trinidad and Tobago"},"countryiso3code":"TTO","date":"2016","value":455.506072998047,"unit":"","obs_status":"","decimal":2},{"indicator":{"id":"SH.XPD.OOPC.PC.CD","value":"Out-of-pocket expenditure per capita (current US$)"},"country":{"id":"TT","value":"Trinidad and Tobago"},"countryiso3code":"TTO","date":"2015","value":460.776184082031,"unit":"","obs_status":"","decimal":2},{"indicator":{"id":"SH.XPD.OOPC.PC.CD","value":"Out-of-pocket expenditure per capita (current US$)"},"country":{"id":"TN","value":"Tunisia"},"countryiso3code":"TUN","date":"2019","value":null,"unit":"","obs_status":"","decimal":2},{"indicator":{"id":"SH.XPD.OOPC.PC.CD","value":"Out-of-pocket expenditure per capita (current US$)"},"country":{"id":"TN","value":"Tunisia"},"countryiso3code":"TUN","date":"2018","value":null,"unit":"","obs_status":"","decimal":2},{"indicator":{"id":"SH.XPD.OOPC.PC.CD","value":"Out-of-pocket expenditure per capita (current US$)"},"country":{"id":"TN","value":"Tunisia"},"countryiso3code":"TUN","date":"2017","value":98.0203475952148,"unit":"","obs_status":"","decimal":2},{"indicator":{"id":"SH.XPD.OOPC.PC.CD","value":"Out-of-pocket expenditure per capita (current US$)"},"country":{"id":"TN","value":"Tunisia"},"countryiso3code":"TUN","date":"2016","value":102.349273681641,"unit":"","obs_status":"","decimal":2},{"indicator":{"id":"SH.XPD.OOPC.PC.CD","value":"Out-of-pocket expenditure per capita (current US$)"},"country":{"id":"TN","value":"Tunisia"},"countryiso3code":"TUN","date":"2015","value":106.128524780273,"unit":"","obs_status":"","decimal":2},{"indicator":{"id":"SH.XPD.OOPC.PC.CD","value":"Out-of-pocket expenditure per capita (current US$)"},"country":{"id":"TR","value":"Turkey"},"countryiso3code":"TUR","date":"2019","value":null,"unit":"","obs_status":"","decimal":2},{"indicator":{"id":"SH.XPD.OOPC.PC.CD","value":"Out-of-pocket expenditure per capita (current US$)"},"country":{"id":"TR","value":"Turkey"},"countryiso3code":"TUR","date":"2018","value":null,"unit":"","obs_status":"","decimal":2},{"indicator":{"id":"SH.XPD.OOPC.PC.CD","value":"Out-of-pocket expenditure per capita (current US$)"},"country":{"id":"TR","value":"Turkey"},"countryiso3code":"TUR","date":"2017","value":77.2994918823242,"unit":"","obs_status":"","decimal":2},{"indicator":{"id":"SH.XPD.OOPC.PC.CD","value":"Out-of-pocket expenditure per capita (current US$)"},"country":{"id":"TR","value":"Turkey"},"countryiso3code":"TUR","date":"2016","value":77.1680450439453,"unit":"","obs_status":"","decimal":2},{"indicator":{"id":"SH.XPD.OOPC.PC.CD","value":"Out-of-pocket expenditure per capita (current US$)"},"country":{"id":"TR","value":"Turkey"},"countryiso3code":"TUR","date":"2015","value":77.0505828857422,"unit":"","obs_status":"","decimal":2},{"indicator":{"id":"SH.XPD.OOPC.PC.CD","value":"Out-of-pocket expenditure per capita (current US$)"},"country":{"id":"TM","value":"Turkmenistan"},"countryiso3code":"TKM","date":"2019","value":null,"unit":"","obs_status":"","decimal":2},{"indicator":{"id":"SH.XPD.OOPC.PC.CD","value":"Out-of-pocket expenditure per capita (current US$)"},"country":{"id":"TM","value":"Turkmenistan"},"countryiso3code":"TKM","date":"2018","value":null,"unit":"","obs_status":"","decimal":2},{"indicator":{"id":"SH.XPD.OOPC.PC.CD","value":"Out-of-pocket expenditure per capita (current US$)"},"country":{"id":"TM","value":"Turkmenistan"},"countryiso3code":"TKM","date":"2017","value":332.127777099609,"unit":"","obs_status":"","decimal":2},{"indicator":{"id":"SH.XPD.OOPC.PC.CD","value":"Out-of-pocket expenditure per capita (current US$)"},"country":{"id":"TM","value":"Turkmenistan"},"countryiso3code":"TKM","date":"2016","value":322.180450439453,"unit":"","obs_status":"","decimal":2},{"indicator":{"id":"SH.XPD.OOPC.PC.CD","value":"Out-of-pocket expenditure per capita (current US$)"},"country":{"id":"TM","value":"Turkmenistan"},"countryiso3code":"TKM","date":"2015","value":287.928894042969,"unit":"","obs_status":"","decimal":2},{"indicator":{"id":"SH.XPD.OOPC.PC.CD","value":"Out-of-pocket expenditure per capita (current US$)"},"country":{"id":"TC","value":"Turks and Caicos Islands"},"countryiso3code":"TCA","date":"2019","value":null,"unit":"","obs_status":"","decimal":2},{"indicator":{"id":"SH.XPD.OOPC.PC.CD","value":"Out-of-pocket expenditure per capita (current US$)"},"country":{"id":"TC","value":"Turks and Caicos Islands"},"countryiso3code":"TCA","date":"2018","value":null,"unit":"","obs_status":"","decimal":2},{"indicator":{"id":"SH.XPD.OOPC.PC.CD","value":"Out-of-pocket expenditure per capita (current US$)"},"country":{"id":"TC","value":"Turks and Caicos Islands"},"countryiso3code":"TCA","date":"2017","value":null,"unit":"","obs_status":"","decimal":2},{"indicator":{"id":"SH.XPD.OOPC.PC.CD","value":"Out-of-pocket expenditure per capita (current US$)"},"country":{"id":"TC","value":"Turks and Caicos Islands"},"countryiso3code":"TCA","date":"2016","value":null,"unit":"","obs_status":"","decimal":2},{"indicator":{"id":"SH.XPD.OOPC.PC.CD","value":"Out-of-pocket expenditure per capita (current US$)"},"country":{"id":"TC","value":"Turks and Caicos Islands"},"countryiso3code":"TCA","date":"2015","value":null,"unit":"","obs_status":"","decimal":2},{"indicator":{"id":"SH.XPD.OOPC.PC.CD","value":"Out-of-pocket expenditure per capita (current US$)"},"country":{"id":"TV","value":"Tuvalu"},"countryiso3code":"TUV","date":"2019","value":null,"unit":"","obs_status":"","decimal":2},{"indicator":{"id":"SH.XPD.OOPC.PC.CD","value":"Out-of-pocket expenditure per capita (current US$)"},"country":{"id":"TV","value":"Tuvalu"},"countryiso3code":"TUV","date":"2018","value":null,"unit":"","obs_status":"","decimal":2},{"indicator":{"id":"SH.XPD.OOPC.PC.CD","value":"Out-of-pocket expenditure per capita (current US$)"},"country":{"id":"TV","value":"Tuvalu"},"countryiso3code":"TUV","date":"2017","value":3.24888157844543,"unit":"","obs_status":"","decimal":2},{"indicator":{"id":"SH.XPD.OOPC.PC.CD","value":"Out-of-pocket expenditure per capita (current US$)"},"country":{"id":"TV","value":"Tuvalu"},"countryiso3code":"TUV","date":"2016","value":3.62258648872375,"unit":"","obs_status":"","decimal":2},{"indicator":{"id":"SH.XPD.OOPC.PC.CD","value":"Out-of-pocket expenditure per capita (current US$)"},"country":{"id":"TV","value":"Tuvalu"},"countryiso3code":"TUV","date":"2015","value":1.16014301776886,"unit":"","obs_status":"","decimal":2},{"indicator":{"id":"SH.XPD.OOPC.PC.CD","value":"Out-of-pocket expenditure per capita (current US$)"},"country":{"id":"UG","value":"Uganda"},"countryiso3code":"UGA","date":"2019","value":null,"unit":"","obs_status":"","decimal":2},{"indicator":{"id":"SH.XPD.OOPC.PC.CD","value":"Out-of-pocket expenditure per capita (current US$)"},"country":{"id":"UG","value":"Uganda"},"countryiso3code":"UGA","date":"2018","value":null,"unit":"","obs_status":"","decimal":2},{"indicator":{"id":"SH.XPD.OOPC.PC.CD","value":"Out-of-pocket expenditure per capita (current US$)"},"country":{"id":"UG","value":"Uganda"},"countryiso3code":"UGA","date":"2017","value":15.0137519836426,"unit":"","obs_status":"","decimal":2},{"indicator":{"id":"SH.XPD.OOPC.PC.CD","value":"Out-of-pocket expenditure per capita (current US$)"},"country":{"id":"UG","value":"Uganda"},"countryiso3code":"UGA","date":"2016","value":15.1629667282104,"unit":"","obs_status":"","decimal":2},{"indicator":{"id":"SH.XPD.OOPC.PC.CD","value":"Out-of-pocket expenditure per capita (current US$)"},"country":{"id":"UG","value":"Uganda"},"countryiso3code":"UGA","date":"2015","value":16.1881351470947,"unit":"","obs_status":"","decimal":2},{"indicator":{"id":"SH.XPD.OOPC.PC.CD","value":"Out-of-pocket expenditure per capita (current US$)"},"country":{"id":"UA","value":"Ukraine"},"countryiso3code":"UKR","date":"2019","value":null,"unit":"","obs_status":"","decimal":2},{"indicator":{"id":"SH.XPD.OOPC.PC.CD","value":"Out-of-pocket expenditure per capita (current US$)"},"country":{"id":"UA","value":"Ukraine"},"countryiso3code":"UKR","date":"2018","value":null,"unit":"","obs_status":"","decimal":2},{"indicator":{"id":"SH.XPD.OOPC.PC.CD","value":"Out-of-pocket expenditure per capita (current US$)"},"country":{"id":"UA","value":"Ukraine"},"countryiso3code":"UKR","date":"2017","value":92.8148727416992,"unit":"","obs_status":"","decimal":2},{"indicator":{"id":"SH.XPD.OOPC.PC.CD","value":"Out-of-pocket expenditure per capita (current US$)"},"country":{"id":"UA","value":"Ukraine"},"countryiso3code":"UKR","date":"2016","value":76.7210159301758,"unit":"","obs_status":"","decimal":2},{"indicator":{"id":"SH.XPD.OOPC.PC.CD","value":"Out-of-pocket expenditure per capita (current US$)"},"country":{"id":"UA","value":"Ukraine"},"countryiso3code":"UKR","date":"2015","value":76.5365295410156,"unit":"","obs_status":"","decimal":2},{"indicator":{"id":"SH.XPD.OOPC.PC.CD","value":"Out-of-pocket expenditure per capita (current US$)"},"country":{"id":"AE","value":"United Arab Emirates"},"countryiso3code":"ARE","date":"2019","value":null,"unit":"","obs_status":"","decimal":2},{"indicator":{"id":"SH.XPD.OOPC.PC.CD","value":"Out-of-pocket expenditure per capita (current US$)"},"country":{"id":"AE","value":"United Arab Emirates"},"countryiso3code":"ARE","date":"2018","value":null,"unit":"","obs_status":"","decimal":2},{"indicator":{"id":"SH.XPD.OOPC.PC.CD","value":"Out-of-pocket expenditure per capita (current US$)"},"country":{"id":"AE","value":"United Arab Emirates"},"countryiso3code":"ARE","date":"2017","value":256.034484863281,"unit":"","obs_status":"","decimal":2},{"indicator":{"id":"SH.XPD.OOPC.PC.CD","value":"Out-of-pocket expenditure per capita (current US$)"},"country":{"id":"AE","value":"United Arab Emirates"},"countryiso3code":"ARE","date":"2016","value":251.143218994141,"unit":"","obs_status":"","decimal":2},{"indicator":{"id":"SH.XPD.OOPC.PC.CD","value":"Out-of-pocket expenditure per capita (current US$)"},"country":{"id":"AE","value":"United Arab Emirates"},"countryiso3code":"ARE","date":"2015","value":249.406356811523,"unit":"","obs_status":"","decimal":2},{"indicator":{"id":"SH.XPD.OOPC.PC.CD","value":"Out-of-pocket expenditure per capita (current US$)"},"country":{"id":"GB","value":"United Kingdom"},"countryiso3code":"GBR","date":"2019","value":null,"unit":"","obs_status":"","decimal":2},{"indicator":{"id":"SH.XPD.OOPC.PC.CD","value":"Out-of-pocket expenditure per capita (current US$)"},"country":{"id":"GB","value":"United Kingdom"},"countryiso3code":"GBR","date":"2018","value":null,"unit":"","obs_status":"","decimal":2},{"indicator":{"id":"SH.XPD.OOPC.PC.CD","value":"Out-of-pocket expenditure per capita (current US$)"},"country":{"id":"GB","value":"United Kingdom"},"countryiso3code":"GBR","date":"2017","value":615.721801757813,"unit":"","obs_status":"","decimal":2},{"indicator":{"id":"SH.XPD.OOPC.PC.CD","value":"Out-of-pocket expenditure per capita (current US$)"},"country":{"id":"GB","value":"United Kingdom"},"countryiso3code":"GBR","date":"2016","value":611.210510253906,"unit":"","obs_status":"","decimal":2},{"indicator":{"id":"SH.XPD.OOPC.PC.CD","value":"Out-of-pocket expenditure per capita (current US$)"},"country":{"id":"GB","value":"United Kingdom"},"countryiso3code":"GBR","date":"2015","value":654.283935546875,"unit":"","obs_status":"","decimal":2},{"indicator":{"id":"SH.XPD.OOPC.PC.CD","value":"Out-of-pocket expenditure per capita (current US$)"},"country":{"id":"US","value":"United States"},"countryiso3code":"USA","date":"2019","value":null,"unit":"","obs_status":"","decimal":2},{"indicator":{"id":"SH.XPD.OOPC.PC.CD","value":"Out-of-pocket expenditure per capita (current US$)"},"country":{"id":"US","value":"United States"},"countryiso3code":"USA","date":"2018","value":null,"unit":"","obs_status":"","decimal":2},{"indicator":{"id":"SH.XPD.OOPC.PC.CD","value":"Out-of-pocket expenditure per capita (current US$)"},"country":{"id":"US","value":"United States"},"countryiso3code":"USA","date":"2017","value":1126.34997558594,"unit":"","obs_status":"","decimal":2},{"indicator":{"id":"SH.XPD.OOPC.PC.CD","value":"Out-of-pocket expenditure per capita (current US$)"},"country":{"id":"US","value":"United States"},"countryiso3code":"USA","date":"2016","value":1105.23840332031,"unit":"","obs_status":"","decimal":2},{"indicator":{"id":"SH.XPD.OOPC.PC.CD","value":"Out-of-pocket expenditure per capita (current US$)"},"country":{"id":"US","value":"United States"},"countryiso3code":"USA","date":"2015","value":1065.60021972656,"unit":"","obs_status":"","decimal":2},{"indicator":{"id":"SH.XPD.OOPC.PC.CD","value":"Out-of-pocket expenditure per capita (current US$)"},"country":{"id":"UY","value":"Uruguay"},"countryiso3code":"URY","date":"2019","value":null,"unit":"","obs_status":"","decimal":2},{"indicator":{"id":"SH.XPD.OOPC.PC.CD","value":"Out-of-pocket expenditure per capita (current US$)"},"country":{"id":"UY","value":"Uruguay"},"countryiso3code":"URY","date":"2018","value":null,"unit":"","obs_status":"","decimal":2},{"indicator":{"id":"SH.XPD.OOPC.PC.CD","value":"Out-of-pocket expenditure per capita (current US$)"},"country":{"id":"UY","value":"Uruguay"},"countryiso3code":"URY","date":"2017","value":279.305053710938,"unit":"","obs_status":"","decimal":2},{"indicator":{"id":"SH.XPD.OOPC.PC.CD","value":"Out-of-pocket expenditure per capita (current US$)"},"country":{"id":"UY","value":"Uruguay"},"countryiso3code":"URY","date":"2016","value":245.657180786133,"unit":"","obs_status":"","decimal":2},{"indicator":{"id":"SH.XPD.OOPC.PC.CD","value":"Out-of-pocket expenditure per capita (current US$)"},"country":{"id":"UY","value":"Uruguay"},"countryiso3code":"URY","date":"2015","value":236.644027709961,"unit":"","obs_status":"","decimal":2},{"indicator":{"id":"SH.XPD.OOPC.PC.CD","value":"Out-of-pocket expenditure per capita (current US$)"},"country":{"id":"UZ","value":"Uzbekistan"},"countryiso3code":"UZB","date":"2019","value":null,"unit":"","obs_status":"","decimal":2},{"indicator":{"id":"SH.XPD.OOPC.PC.CD","value":"Out-of-pocket expenditure per capita (current US$)"},"country":{"id":"UZ","value":"Uzbekistan"},"countryiso3code":"UZB","date":"2018","value":null,"unit":"","obs_status":"","decimal":2},{"indicator":{"id":"SH.XPD.OOPC.PC.CD","value":"Out-of-pocket expenditure per capita (current US$)"},"country":{"id":"UZ","value":"Uzbekistan"},"countryiso3code":"UZB","date":"2017","value":52.8033180236816,"unit":"","obs_status":"","decimal":2},{"indicator":{"id":"SH.XPD.OOPC.PC.CD","value":"Out-of-pocket expenditure per capita (current US$)"},"country":{"id":"UZ","value":"Uzbekistan"},"countryiso3code":"UZB","date":"2016","value":70.592643737793,"unit":"","obs_status":"","decimal":2},{"indicator":{"id":"SH.XPD.OOPC.PC.CD","value":"Out-of-pocket expenditure per capita (current US$)"},"country":{"id":"UZ","value":"Uzbekistan"},"countryiso3code":"UZB","date":"2015","value":63.7294960021973,"unit":"","obs_status":"","decimal":2},{"indicator":{"id":"SH.XPD.OOPC.PC.CD","value":"Out-of-pocket expenditure per capita (current US$)"},"country":{"id":"VU","value":"Vanuatu"},"countryiso3code":"VUT","date":"2019","value":null,"unit":"","obs_status":"","decimal":2},{"indicator":{"id":"SH.XPD.OOPC.PC.CD","value":"Out-of-pocket expenditure per capita (current US$)"},"country":{"id":"VU","value":"Vanuatu"},"countryiso3code":"VUT","date":"2018","value":null,"unit":"","obs_status":"","decimal":2},{"indicator":{"id":"SH.XPD.OOPC.PC.CD","value":"Out-of-pocket expenditure per capita (current US$)"},"country":{"id":"VU","value":"Vanuatu"},"countryiso3code":"VUT","date":"2017","value":9.46810150146484,"unit":"","obs_status":"","decimal":2},{"indicator":{"id":"SH.XPD.OOPC.PC.CD","value":"Out-of-pocket expenditure per capita (current US$)"},"country":{"id":"VU","value":"Vanuatu"},"countryiso3code":"VUT","date":"2016","value":9.34133052825928,"unit":"","obs_status":"","decimal":2},{"indicator":{"id":"SH.XPD.OOPC.PC.CD","value":"Out-of-pocket expenditure per capita (current US$)"},"country":{"id":"VU","value":"Vanuatu"},"countryiso3code":"VUT","date":"2015","value":9.1201229095459,"unit":"","obs_status":"","decimal":2},{"indicator":{"id":"SH.XPD.OOPC.PC.CD","value":"Out-of-pocket expenditure per capita (current US$)"},"country":{"id":"VE","value":"Venezuela, RB"},"countryiso3code":"VEN","date":"2019","value":null,"unit":"","obs_status":"","decimal":2},{"indicator":{"id":"SH.XPD.OOPC.PC.CD","value":"Out-of-pocket expenditure per capita (current US$)"},"country":{"id":"VE","value":"Venezuela, RB"},"countryiso3code":"VEN","date":"2018","value":null,"unit":"","obs_status":"","decimal":2},{"indicator":{"id":"SH.XPD.OOPC.PC.CD","value":"Out-of-pocket expenditure per capita (current US$)"},"country":{"id":"VE","value":"Venezuela, RB"},"countryiso3code":"VEN","date":"2017","value":59.353084564209,"unit":"","obs_status":"","decimal":2},{"indicator":{"id":"SH.XPD.OOPC.PC.CD","value":"Out-of-pocket expenditure per capita (current US$)"},"country":{"id":"VE","value":"Venezuela, RB"},"countryiso3code":"VEN","date":"2016","value":118.655754089355,"unit":"","obs_status":"","decimal":2},{"indicator":{"id":"SH.XPD.OOPC.PC.CD","value":"Out-of-pocket expenditure per capita (current US$)"},"country":{"id":"VE","value":"Venezuela, RB"},"countryiso3code":"VEN","date":"2015","value":160.12744140625,"unit":"","obs_status":"","decimal":2},{"indicator":{"id":"SH.XPD.OOPC.PC.CD","value":"Out-of-pocket expenditure per capita (current US$)"},"country":{"id":"VN","value":"Vietnam"},"countryiso3code":"VNM","date":"2019","value":null,"unit":"","obs_status":"","decimal":2},{"indicator":{"id":"SH.XPD.OOPC.PC.CD","value":"Out-of-pocket expenditure per capita (current US$)"},"country":{"id":"VN","value":"Vietnam"},"countryiso3code":"VNM","date":"2018","value":null,"unit":"","obs_status":"","decimal":2},{"indicator":{"id":"SH.XPD.OOPC.PC.CD","value":"Out-of-pocket expenditure per capita (current US$)"},"country":{"id":"VN","value":"Vietnam"},"countryiso3code":"VNM","date":"2017","value":58.6434097290039,"unit":"","obs_status":"","decimal":2},{"indicator":{"id":"SH.XPD.OOPC.PC.CD","value":"Out-of-pocket expenditure per capita (current US$)"},"country":{"id":"VN","value":"Vietnam"},"countryiso3code":"VNM","date":"2016","value":54.7537803649902,"unit":"","obs_status":"","decimal":2},{"indicator":{"id":"SH.XPD.OOPC.PC.CD","value":"Out-of-pocket expenditure per capita (current US$)"},"country":{"id":"VN","value":"Vietnam"},"countryiso3code":"VNM","date":"2015","value":50.756175994873,"unit":"","obs_status":"","decimal":2},{"indicator":{"id":"SH.XPD.OOPC.PC.CD","value":"Out-of-pocket expenditure per capita (current US$)"},"country":{"id":"VI","value":"Virgin Islands (U.S.)"},"countryiso3code":"VIR","date":"2019","value":null,"unit":"","obs_status":"","decimal":2},{"indicator":{"id":"SH.XPD.OOPC.PC.CD","value":"Out-of-pocket expenditure per capita (current US$)"},"country":{"id":"VI","value":"Virgin Islands (U.S.)"},"countryiso3code":"VIR","date":"2018","value":null,"unit":"","obs_status":"","decimal":2},{"indicator":{"id":"SH.XPD.OOPC.PC.CD","value":"Out-of-pocket expenditure per capita (current US$)"},"country":{"id":"VI","value":"Virgin Islands (U.S.)"},"countryiso3code":"VIR","date":"2017","value":null,"unit":"","obs_status":"","decimal":2},{"indicator":{"id":"SH.XPD.OOPC.PC.CD","value":"Out-of-pocket expenditure per capita (current US$)"},"country":{"id":"VI","value":"Virgin Islands (U.S.)"},"countryiso3code":"VIR","date":"2016","value":null,"unit":"","obs_status":"","decimal":2},{"indicator":{"id":"SH.XPD.OOPC.PC.CD","value":"Out-of-pocket expenditure per capita (current US$)"},"country":{"id":"VI","value":"Virgin Islands (U.S.)"},"countryiso3code":"VIR","date":"2015","value":null,"unit":"","obs_status":"","decimal":2},{"indicator":{"id":"SH.XPD.OOPC.PC.CD","value":"Out-of-pocket expenditure per capita (current US$)"},"country":{"id":"PS","value":"West Bank and Gaza"},"countryiso3code":"PSE","date":"2019","value":null,"unit":"","obs_status":"","decimal":2},{"indicator":{"id":"SH.XPD.OOPC.PC.CD","value":"Out-of-pocket expenditure per capita (current US$)"},"country":{"id":"PS","value":"West Bank and Gaza"},"countryiso3code":"PSE","date":"2018","value":null,"unit":"","obs_status":"","decimal":2},{"indicator":{"id":"SH.XPD.OOPC.PC.CD","value":"Out-of-pocket expenditure per capita (current US$)"},"country":{"id":"PS","value":"West Bank and Gaza"},"countryiso3code":"PSE","date":"2017","value":null,"unit":"","obs_status":"","decimal":2},{"indicator":{"id":"SH.XPD.OOPC.PC.CD","value":"Out-of-pocket expenditure per capita (current US$)"},"country":{"id":"PS","value":"West Bank and Gaza"},"countryiso3code":"PSE","date":"2016","value":null,"unit":"","obs_status":"","decimal":2},{"indicator":{"id":"SH.XPD.OOPC.PC.CD","value":"Out-of-pocket expenditure per capita (current US$)"},"country":{"id":"PS","value":"West Bank and Gaza"},"countryiso3code":"PSE","date":"2015","value":null,"unit":"","obs_status":"","decimal":2},{"indicator":{"id":"SH.XPD.OOPC.PC.CD","value":"Out-of-pocket expenditure per capita (current US$)"},"country":{"id":"YE","value":"Yemen, Rep."},"countryiso3code":"YEM","date":"2019","value":null,"unit":"","obs_status":"","decimal":2},{"indicator":{"id":"SH.XPD.OOPC.PC.CD","value":"Out-of-pocket expenditure per capita (current US$)"},"country":{"id":"YE","value":"Yemen, Rep."},"countryiso3code":"YEM","date":"2018","value":null,"unit":"","obs_status":"","decimal":2},{"indicator":{"id":"SH.XPD.OOPC.PC.CD","value":"Out-of-pocket expenditure per capita (current US$)"},"country":{"id":"YE","value":"Yemen, Rep."},"countryiso3code":"YEM","date":"2017","value":null,"unit":"","obs_status":"","decimal":2},{"indicator":{"id":"SH.XPD.OOPC.PC.CD","value":"Out-of-pocket expenditure per capita (current US$)"},"country":{"id":"YE","value":"Yemen, Rep."},"countryiso3code":"YEM","date":"2016","value":null,"unit":"","obs_status":"","decimal":2},{"indicator":{"id":"SH.XPD.OOPC.PC.CD","value":"Out-of-pocket expenditure per capita (current US$)"},"country":{"id":"YE","value":"Yemen, Rep."},"countryiso3code":"YEM","date":"2015","value":58.3211631774902,"unit":"","obs_status":"","decimal":2},{"indicator":{"id":"SH.XPD.OOPC.PC.CD","value":"Out-of-pocket expenditure per capita (current US$)"},"country":{"id":"ZM","value":"Zambia"},"countryiso3code":"ZMB","date":"2019","value":null,"unit":"","obs_status":"","decimal":2},{"indicator":{"id":"SH.XPD.OOPC.PC.CD","value":"Out-of-pocket expenditure per capita (current US$)"},"country":{"id":"ZM","value":"Zambia"},"countryiso3code":"ZMB","date":"2018","value":null,"unit":"","obs_status":"","decimal":2},{"indicator":{"id":"SH.XPD.OOPC.PC.CD","value":"Out-of-pocket expenditure per capita (current US$)"},"country":{"id":"ZM","value":"Zambia"},"countryiso3code":"ZMB","date":"2017","value":8.01577949523926,"unit":"","obs_status":"","decimal":2},{"indicator":{"id":"SH.XPD.OOPC.PC.CD","value":"Out-of-pocket expenditure per capita (current US$)"},"country":{"id":"ZM","value":"Zambia"},"countryiso3code":"ZMB","date":"2016","value":6.87617588043213,"unit":"","obs_status":"","decimal":2},{"indicator":{"id":"SH.XPD.OOPC.PC.CD","value":"Out-of-pocket expenditure per capita (current US$)"},"country":{"id":"ZM","value":"Zambia"},"countryiso3code":"ZMB","date":"2015","value":7.16775751113892,"unit":"","obs_status":"","decimal":2},{"indicator":{"id":"SH.XPD.OOPC.PC.CD","value":"Out-of-pocket expenditure per capita (current US$)"},"country":{"id":"ZW","value":"Zimbabwe"},"countryiso3code":"ZWE","date":"2019","value":null,"unit":"","obs_status":"","decimal":2},{"indicator":{"id":"SH.XPD.OOPC.PC.CD","value":"Out-of-pocket expenditure per capita (current US$)"},"country":{"id":"ZW","value":"Zimbabwe"},"countryiso3code":"ZWE","date":"2018","value":null,"unit":"","obs_status":"","decimal":2},{"indicator":{"id":"SH.XPD.OOPC.PC.CD","value":"Out-of-pocket expenditure per capita (current US$)"},"country":{"id":"ZW","value":"Zimbabwe"},"countryiso3code":"ZWE","date":"2017","value":22.7154312133789,"unit":"","obs_status":"","decimal":2},{"indicator":{"id":"SH.XPD.OOPC.PC.CD","value":"Out-of-pocket expenditure per capita (current US$)"},"country":{"id":"ZW","value":"Zimbabwe"},"countryiso3code":"ZWE","date":"2016","value":22.7644710540771,"unit":"","obs_status":"","decimal":2},{"indicator":{"id":"SH.XPD.OOPC.PC.CD","value":"Out-of-pocket expenditure per capita (current US$)"},"country":{"id":"ZW","value":"Zimbabwe"},"countryiso3code":"ZWE","date":"2015","value":24.3140163421631,"unit":"","obs_status":"","decimal":2}]]