[{"page":7,"pages":7,"per_page":200,"total":1320,"sourceid":"2","lastupdated":"2020-05-19"},[{"indicator":{"id":"SH.XPD.CHEX.GD.ZS","value":"Current health expenditure (% of GDP)"},"country":{"id":"TL","value":"Timor-Leste"},"countryiso3code":"TLS","date":"2019","value":null,"unit":"","obs_status":"","decimal":2},{"indicator":{"id":"SH.XPD.CHEX.GD.ZS","value":"Current health expenditure (% of GDP)"},"country":{"id":"TL","value":"Timor-Leste"},"countryiso3code":"TLS","date":"2018","value":null,"unit":"","obs_status":"","decimal":2},{"indicator":{"id":"SH.XPD.CHEX.GD.ZS","value":"Current health expenditure (% of GDP)"},"country":{"id":"TL","value":"Timor-Leste"},"countryiso3code":"TLS","date":"2017","value":3.88229340314865,"unit":"","obs_status":"","decimal":2},{"indicator":{"id":"SH.XPD.CHEX.GD.ZS","value":"Current health expenditure (% of GDP)"},"country":{"id":"TL","value":"Timor-Leste"},"countryiso3code":"TLS","date":"2016","value":4.02059182524681,"unit":"","obs_status":"","decimal":2},{"indicator":{"id":"SH.XPD.CHEX.GD.ZS","value":"Current health expenditure (% of GDP)"},"country":{"id":"TL","value":"Timor-Leste"},"countryiso3code":"TLS","date":"2015","value":3.49424369633198,"unit":"","obs_status":"","decimal":2},{"indicator":{"id":"SH.XPD.CHEX.GD.ZS","value":"Current health expenditure (% of GDP)"},"country":{"id":"TG","value":"Togo"},"countryiso3code":"TGO","date":"2019","value":null,"unit":"","obs_status":"","decimal":2},{"indicator":{"id":"SH.XPD.CHEX.GD.ZS","value":"Current health expenditure (% of GDP)"},"country":{"id":"TG","value":"Togo"},"countryiso3code":"TGO","date":"2018","value":null,"unit":"","obs_status":"","decimal":2},{"indicator":{"id":"SH.XPD.CHEX.GD.ZS","value":"Current health expenditure (% of GDP)"},"country":{"id":"TG","value":"Togo"},"countryiso3code":"TGO","date":"2017","value":6.19951225817204,"unit":"","obs_status":"","decimal":2},{"indicator":{"id":"SH.XPD.CHEX.GD.ZS","value":"Current health expenditure (% of GDP)"},"country":{"id":"TG","value":"Togo"},"countryiso3code":"TGO","date":"2016","value":6.57702684402466,"unit":"","obs_status":"","decimal":2},{"indicator":{"id":"SH.XPD.CHEX.GD.ZS","value":"Current health expenditure (% of GDP)"},"country":{"id":"TG","value":"Togo"},"countryiso3code":"TGO","date":"2015","value":6.24937415122986,"unit":"","obs_status":"","decimal":2},{"indicator":{"id":"SH.XPD.CHEX.GD.ZS","value":"Current health expenditure (% of GDP)"},"country":{"id":"TO","value":"Tonga"},"countryiso3code":"TON","date":"2019","value":null,"unit":"","obs_status":"","decimal":2},{"indicator":{"id":"SH.XPD.CHEX.GD.ZS","value":"Current health expenditure (% of GDP)"},"country":{"id":"TO","value":"Tonga"},"countryiso3code":"TON","date":"2018","value":null,"unit":"","obs_status":"","decimal":2},{"indicator":{"id":"SH.XPD.CHEX.GD.ZS","value":"Current health expenditure (% of GDP)"},"country":{"id":"TO","value":"Tonga"},"countryiso3code":"TON","date":"2017","value":5.26931136846542,"unit":"","obs_status":"","decimal":2},{"indicator":{"id":"SH.XPD.CHEX.GD.ZS","value":"Current health expenditure (% of GDP)"},"country":{"id":"TO","value":"Tonga"},"countryiso3code":"TON","date":"2016","value":5.1782488822937,"unit":"","obs_status":"","decimal":2},{"indicator":{"id":"SH.XPD.CHEX.GD.ZS","value":"Current health expenditure (% of GDP)"},"country":{"id":"TO","value":"Tonga"},"countryiso3code":"TON","date":"2015","value":4.65201437473297,"unit":"","obs_status":"","decimal":2},{"indicator":{"id":"SH.XPD.CHEX.GD.ZS","value":"Current health expenditure (% of GDP)"},"country":{"id":"TT","value":"Trinidad and Tobago"},"countryiso3code":"TTO","date":"2019","value":null,"unit":"","obs_status":"","decimal":2},{"indicator":{"id":"SH.XPD.CHEX.GD.ZS","value":"Current health expenditure (% of GDP)"},"country":{"id":"TT","value":"Trinidad and Tobago"},"countryiso3code":"TTO","date":"2018","value":null,"unit":"","obs_status":"","decimal":2},{"indicator":{"id":"SH.XPD.CHEX.GD.ZS","value":"Current health expenditure (% of GDP)"},"country":{"id":"TT","value":"Trinidad and Tobago"},"countryiso3code":"TTO","date":"2017","value":6.97873532772064,"unit":"","obs_status":"","decimal":2},{"indicator":{"id":"SH.XPD.CHEX.GD.ZS","value":"Current health expenditure (% of GDP)"},"country":{"id":"TT","value":"Trinidad and Tobago"},"countryiso3code":"TTO","date":"2016","value":6.87025934457779,"unit":"","obs_status":"","decimal":2},{"indicator":{"id":"SH.XPD.CHEX.GD.ZS","value":"Current health expenditure (% of GDP)"},"country":{"id":"TT","value":"Trinidad and Tobago"},"countryiso3code":"TTO","date":"2015","value":6.03951178491116,"unit":"","obs_status":"","decimal":2},{"indicator":{"id":"SH.XPD.CHEX.GD.ZS","value":"Current health expenditure (% of GDP)"},"country":{"id":"TN","value":"Tunisia"},"countryiso3code":"TUN","date":"2019","value":null,"unit":"","obs_status":"","decimal":2},{"indicator":{"id":"SH.XPD.CHEX.GD.ZS","value":"Current health expenditure (% of GDP)"},"country":{"id":"TN","value":"Tunisia"},"countryiso3code":"TUN","date":"2018","value":null,"unit":"","obs_status":"","decimal":2},{"indicator":{"id":"SH.XPD.CHEX.GD.ZS","value":"Current health expenditure (% of GDP)"},"country":{"id":"TN","value":"Tunisia"},"countryiso3code":"TUN","date":"2017","value":7.23245739936829,"unit":"","obs_status":"","decimal":2},{"indicator":{"id":"SH.XPD.CHEX.GD.ZS","value":"Current health expenditure (% of GDP)"},"country":{"id":"TN","value":"Tunisia"},"countryiso3code":"TUN","date":"2016","value":6.99615702033043,"unit":"","obs_status":"","decimal":2},{"indicator":{"id":"SH.XPD.CHEX.GD.ZS","value":"Current health expenditure (% of GDP)"},"country":{"id":"TN","value":"Tunisia"},"countryiso3code":"TUN","date":"2015","value":7.0074126124382,"unit":"","obs_status":"","decimal":2},{"indicator":{"id":"SH.XPD.CHEX.GD.ZS","value":"Current health expenditure (% of GDP)"},"country":{"id":"TR","value":"Turkey"},"countryiso3code":"TUR","date":"2019","value":null,"unit":"","obs_status":"","decimal":2},{"indicator":{"id":"SH.XPD.CHEX.GD.ZS","value":"Current health expenditure (% of GDP)"},"country":{"id":"TR","value":"Turkey"},"countryiso3code":"TUR","date":"2018","value":null,"unit":"","obs_status":"","decimal":2},{"indicator":{"id":"SH.XPD.CHEX.GD.ZS","value":"Current health expenditure (% of GDP)"},"country":{"id":"TR","value":"Turkey"},"countryiso3code":"TUR","date":"2017","value":4.21630293130875,"unit":"","obs_status":"","decimal":2},{"indicator":{"id":"SH.XPD.CHEX.GD.ZS","value":"Current health expenditure (% of GDP)"},"country":{"id":"TR","value":"Turkey"},"countryiso3code":"TUR","date":"2016","value":4.31431420147419,"unit":"","obs_status":"","decimal":2},{"indicator":{"id":"SH.XPD.CHEX.GD.ZS","value":"Current health expenditure (% of GDP)"},"country":{"id":"TR","value":"Turkey"},"countryiso3code":"TUR","date":"2015","value":4.13854606449604,"unit":"","obs_status":"","decimal":2},{"indicator":{"id":"SH.XPD.CHEX.GD.ZS","value":"Current health expenditure (% of GDP)"},"country":{"id":"TM","value":"Turkmenistan"},"countryiso3code":"TKM","date":"2019","value":null,"unit":"","obs_status":"","decimal":2},{"indicator":{"id":"SH.XPD.CHEX.GD.ZS","value":"Current health expenditure (% of GDP)"},"country":{"id":"TM","value":"Turkmenistan"},"countryiso3code":"TKM","date":"2018","value":null,"unit":"","obs_status":"","decimal":2},{"indicator":{"id":"SH.XPD.CHEX.GD.ZS","value":"Current health expenditure (% of GDP)"},"country":{"id":"TM","value":"Turkmenistan"},"countryiso3code":"TKM","date":"2017","value":6.93044811487198,"unit":"","obs_status":"","decimal":2},{"indicator":{"id":"SH.XPD.CHEX.GD.ZS","value":"Current health expenditure (% of GDP)"},"country":{"id":"TM","value":"Turkmenistan"},"countryiso3code":"TKM","date":"2016","value":6.62111788988113,"unit":"","obs_status":"","decimal":2},{"indicator":{"id":"SH.XPD.CHEX.GD.ZS","value":"Current health expenditure (% of GDP)"},"country":{"id":"TM","value":"Turkmenistan"},"countryiso3code":"TKM","date":"2015","value":6.29793629050255,"unit":"","obs_status":"","decimal":2},{"indicator":{"id":"SH.XPD.CHEX.GD.ZS","value":"Current health expenditure (% of GDP)"},"country":{"id":"TC","value":"Turks and Caicos Islands"},"countryiso3code":"TCA","date":"2019","value":null,"unit":"","obs_status":"","decimal":2},{"indicator":{"id":"SH.XPD.CHEX.GD.ZS","value":"Current health expenditure (% of GDP)"},"country":{"id":"TC","value":"Turks and Caicos Islands"},"countryiso3code":"TCA","date":"2018","value":null,"unit":"","obs_status":"","decimal":2},{"indicator":{"id":"SH.XPD.CHEX.GD.ZS","value":"Current health expenditure (% of GDP)"},"country":{"id":"TC","value":"Turks and Caicos Islands"},"countryiso3code":"TCA","date":"2017","value":null,"unit":"","obs_status":"","decimal":2},{"indicator":{"id":"SH.XPD.CHEX.GD.ZS","value":"Current health expenditure (% of GDP)"},"country":{"id":"TC","value":"Turks and Caicos Islands"},"countryiso3code":"TCA","date":"2016","value":null,"unit":"","obs_status":"","decimal":2},{"indicator":{"id":"SH.XPD.CHEX.GD.ZS","value":"Current health expenditure (% of GDP)"},"country":{"id":"TC","value":"Turks and Caicos Islands"},"countryiso3code":"TCA","date":"2015","value":null,"unit":"","obs_status":"","decimal":2},{"indicator":{"id":"SH.XPD.CHEX.GD.ZS","value":"Current health expenditure (% of GDP)"},"country":{"id":"TV","value":"Tuvalu"},"countryiso3code":"TUV","date":"2019","value":null,"unit":"","obs_status":"","decimal":2},{"indicator":{"id":"SH.XPD.CHEX.GD.ZS","value":"Current health expenditure (% of GDP)"},"country":{"id":"TV","value":"Tuvalu"},"countryiso3code":"TUV","date":"2018","value":null,"unit":"","obs_status":"","decimal":2},{"indicator":{"id":"SH.XPD.CHEX.GD.ZS","value":"Current health expenditure (% of GDP)"},"country":{"id":"TV","value":"Tuvalu"},"countryiso3code":"TUV","date":"2017","value":17.1425551176071,"unit":"","obs_status":"","decimal":2},{"indicator":{"id":"SH.XPD.CHEX.GD.ZS","value":"Current health expenditure (% of GDP)"},"country":{"id":"TV","value":"Tuvalu"},"countryiso3code":"TUV","date":"2016","value":16.8842479586601,"unit":"","obs_status":"","decimal":2},{"indicator":{"id":"SH.XPD.CHEX.GD.ZS","value":"Current health expenditure (% of GDP)"},"country":{"id":"TV","value":"Tuvalu"},"countryiso3code":"TUV","date":"2015","value":16.699592769146,"unit":"","obs_status":"","decimal":2},{"indicator":{"id":"SH.XPD.CHEX.GD.ZS","value":"Current health expenditure (% of GDP)"},"country":{"id":"UG","value":"Uganda"},"countryiso3code":"UGA","date":"2019","value":null,"unit":"","obs_status":"","decimal":2},{"indicator":{"id":"SH.XPD.CHEX.GD.ZS","value":"Current health expenditure (% of GDP)"},"country":{"id":"UG","value":"Uganda"},"countryiso3code":"UGA","date":"2018","value":null,"unit":"","obs_status":"","decimal":2},{"indicator":{"id":"SH.XPD.CHEX.GD.ZS","value":"Current health expenditure (% of GDP)"},"country":{"id":"UG","value":"Uganda"},"countryiso3code":"UGA","date":"2017","value":6.18775598704815,"unit":"","obs_status":"","decimal":2},{"indicator":{"id":"SH.XPD.CHEX.GD.ZS","value":"Current health expenditure (% of GDP)"},"country":{"id":"UG","value":"Uganda"},"countryiso3code":"UGA","date":"2016","value":6.32594227790833,"unit":"","obs_status":"","decimal":2},{"indicator":{"id":"SH.XPD.CHEX.GD.ZS","value":"Current health expenditure (% of GDP)"},"country":{"id":"UG","value":"Uganda"},"countryiso3code":"UGA","date":"2015","value":6.48346096277237,"unit":"","obs_status":"","decimal":2},{"indicator":{"id":"SH.XPD.CHEX.GD.ZS","value":"Current health expenditure (% of GDP)"},"country":{"id":"UA","value":"Ukraine"},"countryiso3code":"UKR","date":"2019","value":null,"unit":"","obs_status":"","decimal":2},{"indicator":{"id":"SH.XPD.CHEX.GD.ZS","value":"Current health expenditure (% of GDP)"},"country":{"id":"UA","value":"Ukraine"},"countryiso3code":"UKR","date":"2018","value":null,"unit":"","obs_status":"","decimal":2},{"indicator":{"id":"SH.XPD.CHEX.GD.ZS","value":"Current health expenditure (% of GDP)"},"country":{"id":"UA","value":"Ukraine"},"countryiso3code":"UKR","date":"2017","value":6.99532032012939,"unit":"","obs_status":"","decimal":2},{"indicator":{"id":"SH.XPD.CHEX.GD.ZS","value":"Current health expenditure (% of GDP)"},"country":{"id":"UA","value":"Ukraine"},"countryiso3code":"UKR","date":"2016","value":6.75629153847694,"unit":"","obs_status":"","decimal":2},{"indicator":{"id":"SH.XPD.CHEX.GD.ZS","value":"Current health expenditure (% of GDP)"},"country":{"id":"UA","value":"Ukraine"},"countryiso3code":"UKR","date":"2015","value":6.9453552365303,"unit":"","obs_status":"","decimal":2},{"indicator":{"id":"SH.XPD.CHEX.GD.ZS","value":"Current health expenditure (% of GDP)"},"country":{"id":"AE","value":"United Arab Emirates"},"countryiso3code":"ARE","date":"2019","value":null,"unit":"","obs_status":"","decimal":2},{"indicator":{"id":"SH.XPD.CHEX.GD.ZS","value":"Current health expenditure (% of GDP)"},"country":{"id":"AE","value":"United Arab Emirates"},"countryiso3code":"ARE","date":"2018","value":null,"unit":"","obs_status":"","decimal":2},{"indicator":{"id":"SH.XPD.CHEX.GD.ZS","value":"Current health expenditure (% of GDP)"},"country":{"id":"AE","value":"United Arab Emirates"},"countryiso3code":"ARE","date":"2017","value":3.33428233861923,"unit":"","obs_status":"","decimal":2},{"indicator":{"id":"SH.XPD.CHEX.GD.ZS","value":"Current health expenditure (% of GDP)"},"country":{"id":"AE","value":"United Arab Emirates"},"countryiso3code":"ARE","date":"2016","value":3.40341627597809,"unit":"","obs_status":"","decimal":2},{"indicator":{"id":"SH.XPD.CHEX.GD.ZS","value":"Current health expenditure (% of GDP)"},"country":{"id":"AE","value":"United Arab Emirates"},"countryiso3code":"ARE","date":"2015","value":3.58359441161156,"unit":"","obs_status":"","decimal":2},{"indicator":{"id":"SH.XPD.CHEX.GD.ZS","value":"Current health expenditure (% of GDP)"},"country":{"id":"GB","value":"United Kingdom"},"countryiso3code":"GBR","date":"2019","value":null,"unit":"","obs_status":"","decimal":2},{"indicator":{"id":"SH.XPD.CHEX.GD.ZS","value":"Current health expenditure (% of GDP)"},"country":{"id":"GB","value":"United Kingdom"},"countryiso3code":"GBR","date":"2018","value":null,"unit":"","obs_status":"","decimal":2},{"indicator":{"id":"SH.XPD.CHEX.GD.ZS","value":"Current health expenditure (% of GDP)"},"country":{"id":"GB","value":"United Kingdom"},"countryiso3code":"GBR","date":"2017","value":9.63169410824776,"unit":"","obs_status":"","decimal":2},{"indicator":{"id":"SH.XPD.CHEX.GD.ZS","value":"Current health expenditure (% of GDP)"},"country":{"id":"GB","value":"United Kingdom"},"countryiso3code":"GBR","date":"2016","value":9.69904437661171,"unit":"","obs_status":"","decimal":2},{"indicator":{"id":"SH.XPD.CHEX.GD.ZS","value":"Current health expenditure (% of GDP)"},"country":{"id":"GB","value":"United Kingdom"},"countryiso3code":"GBR","date":"2015","value":9.68684554100037,"unit":"","obs_status":"","decimal":2},{"indicator":{"id":"SH.XPD.CHEX.GD.ZS","value":"Current health expenditure (% of GDP)"},"country":{"id":"US","value":"United States"},"countryiso3code":"USA","date":"2019","value":null,"unit":"","obs_status":"","decimal":2},{"indicator":{"id":"SH.XPD.CHEX.GD.ZS","value":"Current health expenditure (% of GDP)"},"country":{"id":"US","value":"United States"},"countryiso3code":"USA","date":"2018","value":null,"unit":"","obs_status":"","decimal":2},{"indicator":{"id":"SH.XPD.CHEX.GD.ZS","value":"Current health expenditure (% of GDP)"},"country":{"id":"US","value":"United States"},"countryiso3code":"USA","date":"2017","value":17.0612692832947,"unit":"","obs_status":"","decimal":2},{"indicator":{"id":"SH.XPD.CHEX.GD.ZS","value":"Current health expenditure (% of GDP)"},"country":{"id":"US","value":"United States"},"countryiso3code":"USA","date":"2016","value":17.197260260582,"unit":"","obs_status":"","decimal":2},{"indicator":{"id":"SH.XPD.CHEX.GD.ZS","value":"Current health expenditure (% of GDP)"},"country":{"id":"US","value":"United States"},"countryiso3code":"USA","date":"2015","value":16.8398812413216,"unit":"","obs_status":"","decimal":2},{"indicator":{"id":"SH.XPD.CHEX.GD.ZS","value":"Current health expenditure (% of GDP)"},"country":{"id":"UY","value":"Uruguay"},"countryiso3code":"URY","date":"2019","value":null,"unit":"","obs_status":"","decimal":2},{"indicator":{"id":"SH.XPD.CHEX.GD.ZS","value":"Current health expenditure (% of GDP)"},"country":{"id":"UY","value":"Uruguay"},"countryiso3code":"URY","date":"2018","value":null,"unit":"","obs_status":"","decimal":2},{"indicator":{"id":"SH.XPD.CHEX.GD.ZS","value":"Current health expenditure (% of GDP)"},"country":{"id":"UY","value":"Uruguay"},"countryiso3code":"URY","date":"2017","value":9.29621160030365,"unit":"","obs_status":"","decimal":2},{"indicator":{"id":"SH.XPD.CHEX.GD.ZS","value":"Current health expenditure (% of GDP)"},"country":{"id":"UY","value":"Uruguay"},"countryiso3code":"URY","date":"2016","value":9.15589556097984,"unit":"","obs_status":"","decimal":2},{"indicator":{"id":"SH.XPD.CHEX.GD.ZS","value":"Current health expenditure (% of GDP)"},"country":{"id":"UY","value":"Uruguay"},"countryiso3code":"URY","date":"2015","value":9.00819897651672,"unit":"","obs_status":"","decimal":2},{"indicator":{"id":"SH.XPD.CHEX.GD.ZS","value":"Current health expenditure (% of GDP)"},"country":{"id":"UZ","value":"Uzbekistan"},"countryiso3code":"UZB","date":"2019","value":null,"unit":"","obs_status":"","decimal":2},{"indicator":{"id":"SH.XPD.CHEX.GD.ZS","value":"Current health expenditure (% of GDP)"},"country":{"id":"UZ","value":"Uzbekistan"},"countryiso3code":"UZB","date":"2018","value":null,"unit":"","obs_status":"","decimal":2},{"indicator":{"id":"SH.XPD.CHEX.GD.ZS","value":"Current health expenditure (% of GDP)"},"country":{"id":"UZ","value":"Uzbekistan"},"countryiso3code":"UZB","date":"2017","value":6.41438513994217,"unit":"","obs_status":"","decimal":2},{"indicator":{"id":"SH.XPD.CHEX.GD.ZS","value":"Current health expenditure (% of GDP)"},"country":{"id":"UZ","value":"Uzbekistan"},"countryiso3code":"UZB","date":"2016","value":6.31497353315353,"unit":"","obs_status":"","decimal":2},{"indicator":{"id":"SH.XPD.CHEX.GD.ZS","value":"Current health expenditure (% of GDP)"},"country":{"id":"UZ","value":"Uzbekistan"},"countryiso3code":"UZB","date":"2015","value":6.10162690281868,"unit":"","obs_status":"","decimal":2},{"indicator":{"id":"SH.XPD.CHEX.GD.ZS","value":"Current health expenditure (% of GDP)"},"country":{"id":"VU","value":"Vanuatu"},"countryiso3code":"VUT","date":"2019","value":null,"unit":"","obs_status":"","decimal":2},{"indicator":{"id":"SH.XPD.CHEX.GD.ZS","value":"Current health expenditure (% of GDP)"},"country":{"id":"VU","value":"Vanuatu"},"countryiso3code":"VUT","date":"2018","value":null,"unit":"","obs_status":"","decimal":2},{"indicator":{"id":"SH.XPD.CHEX.GD.ZS","value":"Current health expenditure (% of GDP)"},"country":{"id":"VU","value":"Vanuatu"},"countryiso3code":"VUT","date":"2017","value":3.31685319542885,"unit":"","obs_status":"","decimal":2},{"indicator":{"id":"SH.XPD.CHEX.GD.ZS","value":"Current health expenditure (% of GDP)"},"country":{"id":"VU","value":"Vanuatu"},"countryiso3code":"VUT","date":"2016","value":3.69615219533443,"unit":"","obs_status":"","decimal":2},{"indicator":{"id":"SH.XPD.CHEX.GD.ZS","value":"Current health expenditure (% of GDP)"},"country":{"id":"VU","value":"Vanuatu"},"countryiso3code":"VUT","date":"2015","value":4.1577372699976,"unit":"","obs_status":"","decimal":2},{"indicator":{"id":"SH.XPD.CHEX.GD.ZS","value":"Current health expenditure (% of GDP)"},"country":{"id":"VE","value":"Venezuela, RB"},"countryiso3code":"VEN","date":"2019","value":null,"unit":"","obs_status":"","decimal":2},{"indicator":{"id":"SH.XPD.CHEX.GD.ZS","value":"Current health expenditure (% of GDP)"},"country":{"id":"VE","value":"Venezuela, RB"},"countryiso3code":"VEN","date":"2018","value":null,"unit":"","obs_status":"","decimal":2},{"indicator":{"id":"SH.XPD.CHEX.GD.ZS","value":"Current health expenditure (% of GDP)"},"country":{"id":"VE","value":"Venezuela, RB"},"countryiso3code":"VEN","date":"2017","value":1.18121011182666,"unit":"","obs_status":"","decimal":2},{"indicator":{"id":"SH.XPD.CHEX.GD.ZS","value":"Current health expenditure (% of GDP)"},"country":{"id":"VE","value":"Venezuela, RB"},"countryiso3code":"VEN","date":"2016","value":3.21708433330059,"unit":"","obs_status":"","decimal":2},{"indicator":{"id":"SH.XPD.CHEX.GD.ZS","value":"Current health expenditure (% of GDP)"},"country":{"id":"VE","value":"Venezuela, RB"},"countryiso3code":"VEN","date":"2015","value":5.12893199920654,"unit":"","obs_status":"","decimal":2},{"indicator":{"id":"SH.XPD.CHEX.GD.ZS","value":"Current health expenditure (% of GDP)"},"country":{"id":"VN","value":"Vietnam"},"countryiso3code":"VNM","date":"2019","value":null,"unit":"","obs_status":"","decimal":2},{"indicator":{"id":"SH.XPD.CHEX.GD.ZS","value":"Current health expenditure (% of GDP)"},"country":{"id":"VN","value":"Vietnam"},"countryiso3code":"VNM","date":"2018","value":null,"unit":"","obs_status":"","decimal":2},{"indicator":{"id":"SH.XPD.CHEX.GD.ZS","value":"Current health expenditure (% of GDP)"},"country":{"id":"VN","value":"Vietnam"},"countryiso3code":"VNM","date":"2017","value":5.53212836384773,"unit":"","obs_status":"","decimal":2},{"indicator":{"id":"SH.XPD.CHEX.GD.ZS","value":"Current health expenditure (% of GDP)"},"country":{"id":"VN","value":"Vietnam"},"countryiso3code":"VNM","date":"2016","value":5.65919354557991,"unit":"","obs_status":"","decimal":2},{"indicator":{"id":"SH.XPD.CHEX.GD.ZS","value":"Current health expenditure (% of GDP)"},"country":{"id":"VN","value":"Vietnam"},"countryiso3code":"VNM","date":"2015","value":5.65262101590633,"unit":"","obs_status":"","decimal":2},{"indicator":{"id":"SH.XPD.CHEX.GD.ZS","value":"Current health expenditure (% of GDP)"},"country":{"id":"VI","value":"Virgin Islands (U.S.)"},"countryiso3code":"VIR","date":"2019","value":null,"unit":"","obs_status":"","decimal":2},{"indicator":{"id":"SH.XPD.CHEX.GD.ZS","value":"Current health expenditure (% of GDP)"},"country":{"id":"VI","value":"Virgin Islands (U.S.)"},"countryiso3code":"VIR","date":"2018","value":null,"unit":"","obs_status":"","decimal":2},{"indicator":{"id":"SH.XPD.CHEX.GD.ZS","value":"Current health expenditure (% of GDP)"},"country":{"id":"VI","value":"Virgin Islands (U.S.)"},"countryiso3code":"VIR","date":"2017","value":null,"unit":"","obs_status":"","decimal":2},{"indicator":{"id":"SH.XPD.CHEX.GD.ZS","value":"Current health expenditure (% of GDP)"},"country":{"id":"VI","value":"Virgin Islands (U.S.)"},"countryiso3code":"VIR","date":"2016","value":null,"unit":"","obs_status":"","decimal":2},{"indicator":{"id":"SH.XPD.CHEX.GD.ZS","value":"Current health expenditure (% of GDP)"},"country":{"id":"VI","value":"Virgin Islands (U.S.)"},"countryiso3code":"VIR","date":"2015","value":null,"unit":"","obs_status":"","decimal":2},{"indicator":{"id":"SH.XPD.CHEX.GD.ZS","value":"Current health expenditure (% of GDP)"},"country":{"id":"PS","value":"West Bank and Gaza"},"countryiso3code":"PSE","date":"2019","value":null,"unit":"","obs_status":"","decimal":2},{"indicator":{"id":"SH.XPD.CHEX.GD.ZS","value":"Current health expenditure (% of GDP)"},"country":{"id":"PS","value":"West Bank and Gaza"},"countryiso3code":"PSE","date":"2018","value":null,"unit":"","obs_status":"","decimal":2},{"indicator":{"id":"SH.XPD.CHEX.GD.ZS","value":"Current health expenditure (% of GDP)"},"country":{"id":"PS","value":"West Bank and Gaza"},"countryiso3code":"PSE","date":"2017","value":null,"unit":"","obs_status":"","decimal":2},{"indicator":{"id":"SH.XPD.CHEX.GD.ZS","value":"Current health expenditure (% of GDP)"},"country":{"id":"PS","value":"West Bank and Gaza"},"countryiso3code":"PSE","date":"2016","value":null,"unit":"","obs_status":"","decimal":2},{"indicator":{"id":"SH.XPD.CHEX.GD.ZS","value":"Current health expenditure (% of GDP)"},"country":{"id":"PS","value":"West Bank and Gaza"},"countryiso3code":"PSE","date":"2015","value":null,"unit":"","obs_status":"","decimal":2},{"indicator":{"id":"SH.XPD.CHEX.GD.ZS","value":"Current health expenditure (% of GDP)"},"country":{"id":"YE","value":"Yemen, Rep."},"countryiso3code":"YEM","date":"2019","value":null,"unit":"","obs_status":"","decimal":2},{"indicator":{"id":"SH.XPD.CHEX.GD.ZS","value":"Current health expenditure (% of GDP)"},"country":{"id":"YE","value":"Yemen, Rep."},"countryiso3code":"YEM","date":"2018","value":null,"unit":"","obs_status":"","decimal":2},{"indicator":{"id":"SH.XPD.CHEX.GD.ZS","value":"Current health expenditure (% of GDP)"},"country":{"id":"YE","value":"Yemen, Rep."},"countryiso3code":"YEM","date":"2017","value":null,"unit":"","obs_status":"","decimal":2},{"indicator":{"id":"SH.XPD.CHEX.GD.ZS","value":"Current health expenditure (% of GDP)"},"country":{"id":"YE","value":"Yemen, Rep."},"countryiso3code":"YEM","date":"2016","value":null,"unit":"","obs_status":"","decimal":2},{"indicator":{"id":"SH.XPD.CHEX.GD.ZS","value":"Current health expenditure (% of GDP)"},"country":{"id":"YE","value":"Yemen, Rep."},"countryiso3code":"YEM","date":"2015","value":4.2345754802227,"unit":"","obs_status":"","decimal":2},{"indicator":{"id":"SH.XPD.CHEX.GD.ZS","value":"Current health expenditure (% of GDP)"},"country":{"id":"ZM","value":"Zambia"},"countryiso3code":"ZMB","date":"2019","value":null,"unit":"","obs_status":"","decimal":2},{"indicator":{"id":"SH.XPD.CHEX.GD.ZS","value":"Current health expenditure (% of GDP)"},"country":{"id":"ZM","value":"Zambia"},"countryiso3code":"ZMB","date":"2018","value":null,"unit":"","obs_status":"","decimal":2},{"indicator":{"id":"SH.XPD.CHEX.GD.ZS","value":"Current health expenditure (% of GDP)"},"country":{"id":"ZM","value":"Zambia"},"countryiso3code":"ZMB","date":"2017","value":4.47034128010273,"unit":"","obs_status":"","decimal":2},{"indicator":{"id":"SH.XPD.CHEX.GD.ZS","value":"Current health expenditure (% of GDP)"},"country":{"id":"ZM","value":"Zambia"},"countryiso3code":"ZMB","date":"2016","value":4.47720736265183,"unit":"","obs_status":"","decimal":2},{"indicator":{"id":"SH.XPD.CHEX.GD.ZS","value":"Current health expenditure (% of GDP)"},"country":{"id":"ZM","value":"Zambia"},"countryiso3code":"ZMB","date":"2015","value":4.43510226905346,"unit":"","obs_status":"","decimal":2},{"indicator":{"id":"SH.XPD.CHEX.GD.ZS","value":"Current health expenditure (% of GDP)"},"country":{"id":"ZW","value":"Zimbabwe"},"countryiso3code":"ZWE","date":"2019","value":null,"unit":"","obs_status":"","decimal":2},{"indicator":{"id":"SH.XPD.CHEX.GD.ZS","value":"Current health expenditure (% of GDP)"},"country":{"id":"ZW","value":"Zimbabwe"},"countryiso3code":"ZWE","date":"2018","value":null,"unit":"","obs_status":"","decimal":2},{"indicator":{"id":"SH.XPD.CHEX.GD.ZS","value":"Current health expenditure (% of GDP)"},"country":{"id":"ZW","value":"Zimbabwe"},"countryiso3code":"ZWE","date":"2017","value":6.63591623306274,"unit":"","obs_status":"","decimal":2},{"indicator":{"id":"SH.XPD.CHEX.GD.ZS","value":"Current health expenditure (% of GDP)"},"country":{"id":"ZW","value":"Zimbabwe"},"countryiso3code":"ZWE","date":"2016","value":7.65210464596748,"unit":"","obs_status":"","decimal":2},{"indicator":{"id":"SH.XPD.CHEX.GD.ZS","value":"Current health expenditure (% of GDP)"},"country":{"id":"ZW","value":"Zimbabwe"},"countryiso3code":"ZWE","date":"2015","value":7.45206624269485,"unit":"","obs_status":"","decimal":2}]]