[{"page":7,"pages":7,"per_page":200,"total":1320,"sourceid":"2","lastupdated":"2020-05-19"},[{"indicator":{"id":"SH.XPD.CHEX.PC.CD","value":"Current health expenditure per capita (current US$)"},"country":{"id":"TL","value":"Timor-Leste"},"countryiso3code":"TLS","date":"2019","value":null,"unit":"","obs_status":"","decimal":2},{"indicator":{"id":"SH.XPD.CHEX.PC.CD","value":"Current health expenditure per capita (current US$)"},"country":{"id":"TL","value":"Timor-Leste"},"countryiso3code":"TLS","date":"2018","value":null,"unit":"","obs_status":"","decimal":2},{"indicator":{"id":"SH.XPD.CHEX.PC.CD","value":"Current health expenditure per capita (current US$)"},"country":{"id":"TL","value":"Timor-Leste"},"countryiso3code":"TLS","date":"2017","value":83.1977081298828,"unit":"","obs_status":"","decimal":2},{"indicator":{"id":"SH.XPD.CHEX.PC.CD","value":"Current health expenditure per capita (current US$)"},"country":{"id":"TL","value":"Timor-Leste"},"countryiso3code":"TLS","date":"2016","value":79.8939361572266,"unit":"","obs_status":"","decimal":2},{"indicator":{"id":"SH.XPD.CHEX.PC.CD","value":"Current health expenditure per capita (current US$)"},"country":{"id":"TL","value":"Timor-Leste"},"countryiso3code":"TLS","date":"2015","value":87.3999404907227,"unit":"","obs_status":"","decimal":2},{"indicator":{"id":"SH.XPD.CHEX.PC.CD","value":"Current health expenditure per capita (current US$)"},"country":{"id":"TG","value":"Togo"},"countryiso3code":"TGO","date":"2019","value":null,"unit":"","obs_status":"","decimal":2},{"indicator":{"id":"SH.XPD.CHEX.PC.CD","value":"Current health expenditure per capita (current US$)"},"country":{"id":"TG","value":"Togo"},"countryiso3code":"TGO","date":"2018","value":null,"unit":"","obs_status":"","decimal":2},{"indicator":{"id":"SH.XPD.CHEX.PC.CD","value":"Current health expenditure per capita (current US$)"},"country":{"id":"TG","value":"Togo"},"countryiso3code":"TGO","date":"2017","value":38.048713684082,"unit":"","obs_status":"","decimal":2},{"indicator":{"id":"SH.XPD.CHEX.PC.CD","value":"Current health expenditure per capita (current US$)"},"country":{"id":"TG","value":"Togo"},"countryiso3code":"TGO","date":"2016","value":38.7713737487793,"unit":"","obs_status":"","decimal":2},{"indicator":{"id":"SH.XPD.CHEX.PC.CD","value":"Current health expenditure per capita (current US$)"},"country":{"id":"TG","value":"Togo"},"countryiso3code":"TGO","date":"2015","value":35.2137222290039,"unit":"","obs_status":"","decimal":2},{"indicator":{"id":"SH.XPD.CHEX.PC.CD","value":"Current health expenditure per capita (current US$)"},"country":{"id":"TO","value":"Tonga"},"countryiso3code":"TON","date":"2019","value":null,"unit":"","obs_status":"","decimal":2},{"indicator":{"id":"SH.XPD.CHEX.PC.CD","value":"Current health expenditure per capita (current US$)"},"country":{"id":"TO","value":"Tonga"},"countryiso3code":"TON","date":"2018","value":null,"unit":"","obs_status":"","decimal":2},{"indicator":{"id":"SH.XPD.CHEX.PC.CD","value":"Current health expenditure per capita (current US$)"},"country":{"id":"TO","value":"Tonga"},"countryiso3code":"TON","date":"2017","value":222.015487670898,"unit":"","obs_status":"","decimal":2},{"indicator":{"id":"SH.XPD.CHEX.PC.CD","value":"Current health expenditure per capita (current US$)"},"country":{"id":"TO","value":"Tonga"},"countryiso3code":"TON","date":"2016","value":206.609786987305,"unit":"","obs_status":"","decimal":2},{"indicator":{"id":"SH.XPD.CHEX.PC.CD","value":"Current health expenditure per capita (current US$)"},"country":{"id":"TO","value":"Tonga"},"countryiso3code":"TON","date":"2015","value":180.906860351563,"unit":"","obs_status":"","decimal":2},{"indicator":{"id":"SH.XPD.CHEX.PC.CD","value":"Current health expenditure per capita (current US$)"},"country":{"id":"TT","value":"Trinidad and Tobago"},"countryiso3code":"TTO","date":"2019","value":null,"unit":"","obs_status":"","decimal":2},{"indicator":{"id":"SH.XPD.CHEX.PC.CD","value":"Current health expenditure per capita (current US$)"},"country":{"id":"TT","value":"Trinidad and Tobago"},"countryiso3code":"TTO","date":"2018","value":null,"unit":"","obs_status":"","decimal":2},{"indicator":{"id":"SH.XPD.CHEX.PC.CD","value":"Current health expenditure per capita (current US$)"},"country":{"id":"TT","value":"Trinidad and Tobago"},"countryiso3code":"TTO","date":"2017","value":1124.09167480469,"unit":"","obs_status":"","decimal":2},{"indicator":{"id":"SH.XPD.CHEX.PC.CD","value":"Current health expenditure per capita (current US$)"},"country":{"id":"TT","value":"Trinidad and Tobago"},"countryiso3code":"TTO","date":"2016","value":1092.94567871094,"unit":"","obs_status":"","decimal":2},{"indicator":{"id":"SH.XPD.CHEX.PC.CD","value":"Current health expenditure per capita (current US$)"},"country":{"id":"TT","value":"Trinidad and Tobago"},"countryiso3code":"TTO","date":"2015","value":1115.51818847656,"unit":"","obs_status":"","decimal":2},{"indicator":{"id":"SH.XPD.CHEX.PC.CD","value":"Current health expenditure per capita (current US$)"},"country":{"id":"TN","value":"Tunisia"},"countryiso3code":"TUN","date":"2019","value":null,"unit":"","obs_status":"","decimal":2},{"indicator":{"id":"SH.XPD.CHEX.PC.CD","value":"Current health expenditure per capita (current US$)"},"country":{"id":"TN","value":"Tunisia"},"countryiso3code":"TUN","date":"2018","value":null,"unit":"","obs_status":"","decimal":2},{"indicator":{"id":"SH.XPD.CHEX.PC.CD","value":"Current health expenditure per capita (current US$)"},"country":{"id":"TN","value":"Tunisia"},"countryiso3code":"TUN","date":"2017","value":250.562225341797,"unit":"","obs_status":"","decimal":2},{"indicator":{"id":"SH.XPD.CHEX.PC.CD","value":"Current health expenditure per capita (current US$)"},"country":{"id":"TN","value":"Tunisia"},"countryiso3code":"TUN","date":"2016","value":256.501831054688,"unit":"","obs_status":"","decimal":2},{"indicator":{"id":"SH.XPD.CHEX.PC.CD","value":"Current health expenditure per capita (current US$)"},"country":{"id":"TN","value":"Tunisia"},"countryiso3code":"TUN","date":"2015","value":268.221435546875,"unit":"","obs_status":"","decimal":2},{"indicator":{"id":"SH.XPD.CHEX.PC.CD","value":"Current health expenditure per capita (current US$)"},"country":{"id":"TR","value":"Turkey"},"countryiso3code":"TUR","date":"2019","value":null,"unit":"","obs_status":"","decimal":2},{"indicator":{"id":"SH.XPD.CHEX.PC.CD","value":"Current health expenditure per capita (current US$)"},"country":{"id":"TR","value":"Turkey"},"countryiso3code":"TUR","date":"2018","value":null,"unit":"","obs_status":"","decimal":2},{"indicator":{"id":"SH.XPD.CHEX.PC.CD","value":"Current health expenditure per capita (current US$)"},"country":{"id":"TR","value":"Turkey"},"countryiso3code":"TUR","date":"2017","value":444.653686523438,"unit":"","obs_status":"","decimal":2},{"indicator":{"id":"SH.XPD.CHEX.PC.CD","value":"Current health expenditure per capita (current US$)"},"country":{"id":"TR","value":"Turkey"},"countryiso3code":"TUR","date":"2016","value":468.646667480469,"unit":"","obs_status":"","decimal":2},{"indicator":{"id":"SH.XPD.CHEX.PC.CD","value":"Current health expenditure per capita (current US$)"},"country":{"id":"TR","value":"Turkey"},"countryiso3code":"TUR","date":"2015","value":454.609680175781,"unit":"","obs_status":"","decimal":2},{"indicator":{"id":"SH.XPD.CHEX.PC.CD","value":"Current health expenditure per capita (current US$)"},"country":{"id":"TM","value":"Turkmenistan"},"countryiso3code":"TKM","date":"2019","value":null,"unit":"","obs_status":"","decimal":2},{"indicator":{"id":"SH.XPD.CHEX.PC.CD","value":"Current health expenditure per capita (current US$)"},"country":{"id":"TM","value":"Turkmenistan"},"countryiso3code":"TKM","date":"2018","value":null,"unit":"","obs_status":"","decimal":2},{"indicator":{"id":"SH.XPD.CHEX.PC.CD","value":"Current health expenditure per capita (current US$)"},"country":{"id":"TM","value":"Turkmenistan"},"countryiso3code":"TKM","date":"2017","value":456.482666015625,"unit":"","obs_status":"","decimal":2},{"indicator":{"id":"SH.XPD.CHEX.PC.CD","value":"Current health expenditure per capita (current US$)"},"country":{"id":"TM","value":"Turkmenistan"},"countryiso3code":"TKM","date":"2016","value":423.046722412109,"unit":"","obs_status":"","decimal":2},{"indicator":{"id":"SH.XPD.CHEX.PC.CD","value":"Current health expenditure per capita (current US$)"},"country":{"id":"TM","value":"Turkmenistan"},"countryiso3code":"TKM","date":"2015","value":405.126312255859,"unit":"","obs_status":"","decimal":2},{"indicator":{"id":"SH.XPD.CHEX.PC.CD","value":"Current health expenditure per capita (current US$)"},"country":{"id":"TC","value":"Turks and Caicos Islands"},"countryiso3code":"TCA","date":"2019","value":null,"unit":"","obs_status":"","decimal":2},{"indicator":{"id":"SH.XPD.CHEX.PC.CD","value":"Current health expenditure per capita (current US$)"},"country":{"id":"TC","value":"Turks and Caicos Islands"},"countryiso3code":"TCA","date":"2018","value":null,"unit":"","obs_status":"","decimal":2},{"indicator":{"id":"SH.XPD.CHEX.PC.CD","value":"Current health expenditure per capita (current US$)"},"country":{"id":"TC","value":"Turks and Caicos Islands"},"countryiso3code":"TCA","date":"2017","value":null,"unit":"","obs_status":"","decimal":2},{"indicator":{"id":"SH.XPD.CHEX.PC.CD","value":"Current health expenditure per capita (current US$)"},"country":{"id":"TC","value":"Turks and Caicos Islands"},"countryiso3code":"TCA","date":"2016","value":null,"unit":"","obs_status":"","decimal":2},{"indicator":{"id":"SH.XPD.CHEX.PC.CD","value":"Current health expenditure per capita (current US$)"},"country":{"id":"TC","value":"Turks and Caicos Islands"},"countryiso3code":"TCA","date":"2015","value":null,"unit":"","obs_status":"","decimal":2},{"indicator":{"id":"SH.XPD.CHEX.PC.CD","value":"Current health expenditure per capita (current US$)"},"country":{"id":"TV","value":"Tuvalu"},"countryiso3code":"TUV","date":"2019","value":null,"unit":"","obs_status":"","decimal":2},{"indicator":{"id":"SH.XPD.CHEX.PC.CD","value":"Current health expenditure per capita (current US$)"},"country":{"id":"TV","value":"Tuvalu"},"countryiso3code":"TUV","date":"2018","value":null,"unit":"","obs_status":"","decimal":2},{"indicator":{"id":"SH.XPD.CHEX.PC.CD","value":"Current health expenditure per capita (current US$)"},"country":{"id":"TV","value":"Tuvalu"},"countryiso3code":"TUV","date":"2017","value":622.176696777344,"unit":"","obs_status":"","decimal":2},{"indicator":{"id":"SH.XPD.CHEX.PC.CD","value":"Current health expenditure per capita (current US$)"},"country":{"id":"TV","value":"Tuvalu"},"countryiso3code":"TUV","date":"2016","value":554.21826171875,"unit":"","obs_status":"","decimal":2},{"indicator":{"id":"SH.XPD.CHEX.PC.CD","value":"Current health expenditure per capita (current US$)"},"country":{"id":"TV","value":"Tuvalu"},"countryiso3code":"TUV","date":"2015","value":535.999145507813,"unit":"","obs_status":"","decimal":2},{"indicator":{"id":"SH.XPD.CHEX.PC.CD","value":"Current health expenditure per capita (current US$)"},"country":{"id":"UG","value":"Uganda"},"countryiso3code":"UGA","date":"2019","value":null,"unit":"","obs_status":"","decimal":2},{"indicator":{"id":"SH.XPD.CHEX.PC.CD","value":"Current health expenditure per capita (current US$)"},"country":{"id":"UG","value":"Uganda"},"countryiso3code":"UGA","date":"2018","value":null,"unit":"","obs_status":"","decimal":2},{"indicator":{"id":"SH.XPD.CHEX.PC.CD","value":"Current health expenditure per capita (current US$)"},"country":{"id":"UG","value":"Uganda"},"countryiso3code":"UGA","date":"2017","value":38.426441192627,"unit":"","obs_status":"","decimal":2},{"indicator":{"id":"SH.XPD.CHEX.PC.CD","value":"Current health expenditure per capita (current US$)"},"country":{"id":"UG","value":"Uganda"},"countryiso3code":"UGA","date":"2016","value":38.9672241210938,"unit":"","obs_status":"","decimal":2},{"indicator":{"id":"SH.XPD.CHEX.PC.CD","value":"Current health expenditure per capita (current US$)"},"country":{"id":"UG","value":"Uganda"},"countryiso3code":"UGA","date":"2015","value":39.7712936401367,"unit":"","obs_status":"","decimal":2},{"indicator":{"id":"SH.XPD.CHEX.PC.CD","value":"Current health expenditure per capita (current US$)"},"country":{"id":"UA","value":"Ukraine"},"countryiso3code":"UKR","date":"2019","value":null,"unit":"","obs_status":"","decimal":2},{"indicator":{"id":"SH.XPD.CHEX.PC.CD","value":"Current health expenditure per capita (current US$)"},"country":{"id":"UA","value":"Ukraine"},"countryiso3code":"UKR","date":"2018","value":null,"unit":"","obs_status":"","decimal":2},{"indicator":{"id":"SH.XPD.CHEX.PC.CD","value":"Current health expenditure per capita (current US$)"},"country":{"id":"UA","value":"Ukraine"},"countryiso3code":"UKR","date":"2017","value":177.408889770508,"unit":"","obs_status":"","decimal":2},{"indicator":{"id":"SH.XPD.CHEX.PC.CD","value":"Current health expenditure per capita (current US$)"},"country":{"id":"UA","value":"Ukraine"},"countryiso3code":"UKR","date":"2016","value":141.935348510742,"unit":"","obs_status":"","decimal":2},{"indicator":{"id":"SH.XPD.CHEX.PC.CD","value":"Current health expenditure per capita (current US$)"},"country":{"id":"UA","value":"Ukraine"},"countryiso3code":"UKR","date":"2015","value":141.574920654297,"unit":"","obs_status":"","decimal":2},{"indicator":{"id":"SH.XPD.CHEX.PC.CD","value":"Current health expenditure per capita (current US$)"},"country":{"id":"AE","value":"United Arab Emirates"},"countryiso3code":"ARE","date":"2019","value":null,"unit":"","obs_status":"","decimal":2},{"indicator":{"id":"SH.XPD.CHEX.PC.CD","value":"Current health expenditure per capita (current US$)"},"country":{"id":"AE","value":"United Arab Emirates"},"countryiso3code":"ARE","date":"2018","value":null,"unit":"","obs_status":"","decimal":2},{"indicator":{"id":"SH.XPD.CHEX.PC.CD","value":"Current health expenditure per capita (current US$)"},"country":{"id":"AE","value":"United Arab Emirates"},"countryiso3code":"ARE","date":"2017","value":1357.01745605469,"unit":"","obs_status":"","decimal":2},{"indicator":{"id":"SH.XPD.CHEX.PC.CD","value":"Current health expenditure per capita (current US$)"},"country":{"id":"AE","value":"United Arab Emirates"},"countryiso3code":"ARE","date":"2016","value":1310.92309570313,"unit":"","obs_status":"","decimal":2},{"indicator":{"id":"SH.XPD.CHEX.PC.CD","value":"Current health expenditure per capita (current US$)"},"country":{"id":"AE","value":"United Arab Emirates"},"countryiso3code":"ARE","date":"2015","value":1401.97448730469,"unit":"","obs_status":"","decimal":2},{"indicator":{"id":"SH.XPD.CHEX.PC.CD","value":"Current health expenditure per capita (current US$)"},"country":{"id":"GB","value":"United Kingdom"},"countryiso3code":"GBR","date":"2019","value":null,"unit":"","obs_status":"","decimal":2},{"indicator":{"id":"SH.XPD.CHEX.PC.CD","value":"Current health expenditure per capita (current US$)"},"country":{"id":"GB","value":"United Kingdom"},"countryiso3code":"GBR","date":"2018","value":null,"unit":"","obs_status":"","decimal":2},{"indicator":{"id":"SH.XPD.CHEX.PC.CD","value":"Current health expenditure per capita (current US$)"},"country":{"id":"GB","value":"United Kingdom"},"countryiso3code":"GBR","date":"2017","value":3858.67431640625,"unit":"","obs_status":"","decimal":2},{"indicator":{"id":"SH.XPD.CHEX.PC.CD","value":"Current health expenditure per capita (current US$)"},"country":{"id":"GB","value":"United Kingdom"},"countryiso3code":"GBR","date":"2016","value":3945.00903320313,"unit":"","obs_status":"","decimal":2},{"indicator":{"id":"SH.XPD.CHEX.PC.CD","value":"Current health expenditure per capita (current US$)"},"country":{"id":"GB","value":"United Kingdom"},"countryiso3code":"GBR","date":"2015","value":4326.25,"unit":"","obs_status":"","decimal":2},{"indicator":{"id":"SH.XPD.CHEX.PC.CD","value":"Current health expenditure per capita (current US$)"},"country":{"id":"US","value":"United States"},"countryiso3code":"USA","date":"2019","value":null,"unit":"","obs_status":"","decimal":2},{"indicator":{"id":"SH.XPD.CHEX.PC.CD","value":"Current health expenditure per capita (current US$)"},"country":{"id":"US","value":"United States"},"countryiso3code":"USA","date":"2018","value":null,"unit":"","obs_status":"","decimal":2},{"indicator":{"id":"SH.XPD.CHEX.PC.CD","value":"Current health expenditure per capita (current US$)"},"country":{"id":"US","value":"United States"},"countryiso3code":"USA","date":"2017","value":10246.138671875,"unit":"","obs_status":"","decimal":2},{"indicator":{"id":"SH.XPD.CHEX.PC.CD","value":"Current health expenditure per capita (current US$)"},"country":{"id":"US","value":"United States"},"countryiso3code":"USA","date":"2016","value":9941.34765625,"unit":"","obs_status":"","decimal":2},{"indicator":{"id":"SH.XPD.CHEX.PC.CD","value":"Current health expenditure per capita (current US$)"},"country":{"id":"US","value":"United States"},"countryiso3code":"USA","date":"2015","value":9538.0703125,"unit":"","obs_status":"","decimal":2},{"indicator":{"id":"SH.XPD.CHEX.PC.CD","value":"Current health expenditure per capita (current US$)"},"country":{"id":"UY","value":"Uruguay"},"countryiso3code":"URY","date":"2019","value":null,"unit":"","obs_status":"","decimal":2},{"indicator":{"id":"SH.XPD.CHEX.PC.CD","value":"Current health expenditure per capita (current US$)"},"country":{"id":"UY","value":"Uruguay"},"countryiso3code":"URY","date":"2018","value":null,"unit":"","obs_status":"","decimal":2},{"indicator":{"id":"SH.XPD.CHEX.PC.CD","value":"Current health expenditure per capita (current US$)"},"country":{"id":"UY","value":"Uruguay"},"countryiso3code":"URY","date":"2017","value":1591.533203125,"unit":"","obs_status":"","decimal":2},{"indicator":{"id":"SH.XPD.CHEX.PC.CD","value":"Current health expenditure per capita (current US$)"},"country":{"id":"UY","value":"Uruguay"},"countryiso3code":"URY","date":"2016","value":1400.705078125,"unit":"","obs_status":"","decimal":2},{"indicator":{"id":"SH.XPD.CHEX.PC.CD","value":"Current health expenditure per capita (current US$)"},"country":{"id":"UY","value":"Uruguay"},"countryiso3code":"URY","date":"2015","value":1398.51208496094,"unit":"","obs_status":"","decimal":2},{"indicator":{"id":"SH.XPD.CHEX.PC.CD","value":"Current health expenditure per capita (current US$)"},"country":{"id":"UZ","value":"Uzbekistan"},"countryiso3code":"UZB","date":"2019","value":null,"unit":"","obs_status":"","decimal":2},{"indicator":{"id":"SH.XPD.CHEX.PC.CD","value":"Current health expenditure per capita (current US$)"},"country":{"id":"UZ","value":"Uzbekistan"},"countryiso3code":"UZB","date":"2018","value":null,"unit":"","obs_status":"","decimal":2},{"indicator":{"id":"SH.XPD.CHEX.PC.CD","value":"Current health expenditure per capita (current US$)"},"country":{"id":"UZ","value":"Uzbekistan"},"countryiso3code":"UZB","date":"2017","value":98.824577331543,"unit":"","obs_status":"","decimal":2},{"indicator":{"id":"SH.XPD.CHEX.PC.CD","value":"Current health expenditure per capita (current US$)"},"country":{"id":"UZ","value":"Uzbekistan"},"countryiso3code":"UZB","date":"2016","value":135.43928527832,"unit":"","obs_status":"","decimal":2},{"indicator":{"id":"SH.XPD.CHEX.PC.CD","value":"Current health expenditure per capita (current US$)"},"country":{"id":"UZ","value":"Uzbekistan"},"countryiso3code":"UZB","date":"2015","value":131.635284423828,"unit":"","obs_status":"","decimal":2},{"indicator":{"id":"SH.XPD.CHEX.PC.CD","value":"Current health expenditure per capita (current US$)"},"country":{"id":"VU","value":"Vanuatu"},"countryiso3code":"VUT","date":"2019","value":null,"unit":"","obs_status":"","decimal":2},{"indicator":{"id":"SH.XPD.CHEX.PC.CD","value":"Current health expenditure per capita (current US$)"},"country":{"id":"VU","value":"Vanuatu"},"countryiso3code":"VUT","date":"2018","value":null,"unit":"","obs_status":"","decimal":2},{"indicator":{"id":"SH.XPD.CHEX.PC.CD","value":"Current health expenditure per capita (current US$)"},"country":{"id":"VU","value":"Vanuatu"},"countryiso3code":"VUT","date":"2017","value":105.666526794434,"unit":"","obs_status":"","decimal":2},{"indicator":{"id":"SH.XPD.CHEX.PC.CD","value":"Current health expenditure per capita (current US$)"},"country":{"id":"VU","value":"Vanuatu"},"countryiso3code":"VUT","date":"2016","value":109.94506072998,"unit":"","obs_status":"","decimal":2},{"indicator":{"id":"SH.XPD.CHEX.PC.CD","value":"Current health expenditure per capita (current US$)"},"country":{"id":"VU","value":"Vanuatu"},"countryiso3code":"VUT","date":"2015","value":119.370986938477,"unit":"","obs_status":"","decimal":2},{"indicator":{"id":"SH.XPD.CHEX.PC.CD","value":"Current health expenditure per capita (current US$)"},"country":{"id":"VE","value":"Venezuela, RB"},"countryiso3code":"VEN","date":"2019","value":null,"unit":"","obs_status":"","decimal":2},{"indicator":{"id":"SH.XPD.CHEX.PC.CD","value":"Current health expenditure per capita (current US$)"},"country":{"id":"VE","value":"Venezuela, RB"},"countryiso3code":"VEN","date":"2018","value":null,"unit":"","obs_status":"","decimal":2},{"indicator":{"id":"SH.XPD.CHEX.PC.CD","value":"Current health expenditure per capita (current US$)"},"country":{"id":"VE","value":"Venezuela, RB"},"countryiso3code":"VEN","date":"2017","value":94.229377746582,"unit":"","obs_status":"","decimal":2},{"indicator":{"id":"SH.XPD.CHEX.PC.CD","value":"Current health expenditure per capita (current US$)"},"country":{"id":"VE","value":"Venezuela, RB"},"countryiso3code":"VEN","date":"2016","value":296.938903808594,"unit":"","obs_status":"","decimal":2},{"indicator":{"id":"SH.XPD.CHEX.PC.CD","value":"Current health expenditure per capita (current US$)"},"country":{"id":"VE","value":"Venezuela, RB"},"countryiso3code":"VEN","date":"2015","value":566.929321289063,"unit":"","obs_status":"","decimal":2},{"indicator":{"id":"SH.XPD.CHEX.PC.CD","value":"Current health expenditure per capita (current US$)"},"country":{"id":"VN","value":"Vietnam"},"countryiso3code":"VNM","date":"2019","value":null,"unit":"","obs_status":"","decimal":2},{"indicator":{"id":"SH.XPD.CHEX.PC.CD","value":"Current health expenditure per capita (current US$)"},"country":{"id":"VN","value":"Vietnam"},"countryiso3code":"VNM","date":"2018","value":null,"unit":"","obs_status":"","decimal":2},{"indicator":{"id":"SH.XPD.CHEX.PC.CD","value":"Current health expenditure per capita (current US$)"},"country":{"id":"VN","value":"Vietnam"},"countryiso3code":"VNM","date":"2017","value":129.575958251953,"unit":"","obs_status":"","decimal":2},{"indicator":{"id":"SH.XPD.CHEX.PC.CD","value":"Current health expenditure per capita (current US$)"},"country":{"id":"VN","value":"Vietnam"},"countryiso3code":"VNM","date":"2016","value":122.841171264648,"unit":"","obs_status":"","decimal":2},{"indicator":{"id":"SH.XPD.CHEX.PC.CD","value":"Current health expenditure per capita (current US$)"},"country":{"id":"VN","value":"Vietnam"},"countryiso3code":"VNM","date":"2015","value":116.736190795898,"unit":"","obs_status":"","decimal":2},{"indicator":{"id":"SH.XPD.CHEX.PC.CD","value":"Current health expenditure per capita (current US$)"},"country":{"id":"VI","value":"Virgin Islands (U.S.)"},"countryiso3code":"VIR","date":"2019","value":null,"unit":"","obs_status":"","decimal":2},{"indicator":{"id":"SH.XPD.CHEX.PC.CD","value":"Current health expenditure per capita (current US$)"},"country":{"id":"VI","value":"Virgin Islands (U.S.)"},"countryiso3code":"VIR","date":"2018","value":null,"unit":"","obs_status":"","decimal":2},{"indicator":{"id":"SH.XPD.CHEX.PC.CD","value":"Current health expenditure per capita (current US$)"},"country":{"id":"VI","value":"Virgin Islands (U.S.)"},"countryiso3code":"VIR","date":"2017","value":null,"unit":"","obs_status":"","decimal":2},{"indicator":{"id":"SH.XPD.CHEX.PC.CD","value":"Current health expenditure per capita (current US$)"},"country":{"id":"VI","value":"Virgin Islands (U.S.)"},"countryiso3code":"VIR","date":"2016","value":null,"unit":"","obs_status":"","decimal":2},{"indicator":{"id":"SH.XPD.CHEX.PC.CD","value":"Current health expenditure per capita (current US$)"},"country":{"id":"VI","value":"Virgin Islands (U.S.)"},"countryiso3code":"VIR","date":"2015","value":null,"unit":"","obs_status":"","decimal":2},{"indicator":{"id":"SH.XPD.CHEX.PC.CD","value":"Current health expenditure per capita (current US$)"},"country":{"id":"PS","value":"West Bank and Gaza"},"countryiso3code":"PSE","date":"2019","value":null,"unit":"","obs_status":"","decimal":2},{"indicator":{"id":"SH.XPD.CHEX.PC.CD","value":"Current health expenditure per capita (current US$)"},"country":{"id":"PS","value":"West Bank and Gaza"},"countryiso3code":"PSE","date":"2018","value":null,"unit":"","obs_status":"","decimal":2},{"indicator":{"id":"SH.XPD.CHEX.PC.CD","value":"Current health expenditure per capita (current US$)"},"country":{"id":"PS","value":"West Bank and Gaza"},"countryiso3code":"PSE","date":"2017","value":null,"unit":"","obs_status":"","decimal":2},{"indicator":{"id":"SH.XPD.CHEX.PC.CD","value":"Current health expenditure per capita (current US$)"},"country":{"id":"PS","value":"West Bank and Gaza"},"countryiso3code":"PSE","date":"2016","value":null,"unit":"","obs_status":"","decimal":2},{"indicator":{"id":"SH.XPD.CHEX.PC.CD","value":"Current health expenditure per capita (current US$)"},"country":{"id":"PS","value":"West Bank and Gaza"},"countryiso3code":"PSE","date":"2015","value":null,"unit":"","obs_status":"","decimal":2},{"indicator":{"id":"SH.XPD.CHEX.PC.CD","value":"Current health expenditure per capita (current US$)"},"country":{"id":"YE","value":"Yemen, Rep."},"countryiso3code":"YEM","date":"2019","value":null,"unit":"","obs_status":"","decimal":2},{"indicator":{"id":"SH.XPD.CHEX.PC.CD","value":"Current health expenditure per capita (current US$)"},"country":{"id":"YE","value":"Yemen, Rep."},"countryiso3code":"YEM","date":"2018","value":null,"unit":"","obs_status":"","decimal":2},{"indicator":{"id":"SH.XPD.CHEX.PC.CD","value":"Current health expenditure per capita (current US$)"},"country":{"id":"YE","value":"Yemen, Rep."},"countryiso3code":"YEM","date":"2017","value":null,"unit":"","obs_status":"","decimal":2},{"indicator":{"id":"SH.XPD.CHEX.PC.CD","value":"Current health expenditure per capita (current US$)"},"country":{"id":"YE","value":"Yemen, Rep."},"countryiso3code":"YEM","date":"2016","value":null,"unit":"","obs_status":"","decimal":2},{"indicator":{"id":"SH.XPD.CHEX.PC.CD","value":"Current health expenditure per capita (current US$)"},"country":{"id":"YE","value":"Yemen, Rep."},"countryiso3code":"YEM","date":"2015","value":72.0394668579102,"unit":"","obs_status":"","decimal":2},{"indicator":{"id":"SH.XPD.CHEX.PC.CD","value":"Current health expenditure per capita (current US$)"},"country":{"id":"ZM","value":"Zambia"},"countryiso3code":"ZMB","date":"2019","value":null,"unit":"","obs_status":"","decimal":2},{"indicator":{"id":"SH.XPD.CHEX.PC.CD","value":"Current health expenditure per capita (current US$)"},"country":{"id":"ZM","value":"Zambia"},"countryiso3code":"ZMB","date":"2018","value":null,"unit":"","obs_status":"","decimal":2},{"indicator":{"id":"SH.XPD.CHEX.PC.CD","value":"Current health expenditure per capita (current US$)"},"country":{"id":"ZM","value":"Zambia"},"countryiso3code":"ZMB","date":"2017","value":67.6486663818359,"unit":"","obs_status":"","decimal":2},{"indicator":{"id":"SH.XPD.CHEX.PC.CD","value":"Current health expenditure per capita (current US$)"},"country":{"id":"ZM","value":"Zambia"},"countryiso3code":"ZMB","date":"2016","value":56.5441818237305,"unit":"","obs_status":"","decimal":2},{"indicator":{"id":"SH.XPD.CHEX.PC.CD","value":"Current health expenditure per capita (current US$)"},"country":{"id":"ZM","value":"Zambia"},"countryiso3code":"ZMB","date":"2015","value":58.5176544189453,"unit":"","obs_status":"","decimal":2},{"indicator":{"id":"SH.XPD.CHEX.PC.CD","value":"Current health expenditure per capita (current US$)"},"country":{"id":"ZW","value":"Zimbabwe"},"countryiso3code":"ZWE","date":"2019","value":null,"unit":"","obs_status":"","decimal":2},{"indicator":{"id":"SH.XPD.CHEX.PC.CD","value":"Current health expenditure per capita (current US$)"},"country":{"id":"ZW","value":"Zimbabwe"},"countryiso3code":"ZWE","date":"2018","value":null,"unit":"","obs_status":"","decimal":2},{"indicator":{"id":"SH.XPD.CHEX.PC.CD","value":"Current health expenditure per capita (current US$)"},"country":{"id":"ZW","value":"Zimbabwe"},"countryiso3code":"ZWE","date":"2017","value":110.149620056152,"unit":"","obs_status":"","decimal":2},{"indicator":{"id":"SH.XPD.CHEX.PC.CD","value":"Current health expenditure per capita (current US$)"},"country":{"id":"ZW","value":"Zimbabwe"},"countryiso3code":"ZWE","date":"2016","value":98.5796356201172,"unit":"","obs_status":"","decimal":2},{"indicator":{"id":"SH.XPD.CHEX.PC.CD","value":"Current health expenditure per capita (current US$)"},"country":{"id":"ZW","value":"Zimbabwe"},"countryiso3code":"ZWE","date":"2015","value":94.2900085449219,"unit":"","obs_status":"","decimal":2}]]