[{"page":7,"pages":7,"per_page":200,"total":1320,"sourceid":"2","lastupdated":"2020-05-19"},[{"indicator":{"id":"SP.DYN.LE00.IN","value":"Life expectancy at birth, total (years)"},"country":{"id":"TL","value":"Timor-Leste"},"countryiso3code":"TLS","date":"2019","value":null,"unit":"","obs_status":"","decimal":0},{"indicator":{"id":"SP.DYN.LE00.IN","value":"Life expectancy at birth, total (years)"},"country":{"id":"TL","value":"Timor-Leste"},"countryiso3code":"TLS","date":"2018","value":69.26,"unit":"","obs_status":"","decimal":0},{"indicator":{"id":"SP.DYN.LE00.IN","value":"Life expectancy at birth, total (years)"},"country":{"id":"TL","value":"Timor-Leste"},"countryiso3code":"TLS","date":"2017","value":69.007,"unit":"","obs_status":"","decimal":0},{"indicator":{"id":"SP.DYN.LE00.IN","value":"Life expectancy at birth, total (years)"},"country":{"id":"TL","value":"Timor-Leste"},"countryiso3code":"TLS","date":"2016","value":68.735,"unit":"","obs_status":"","decimal":0},{"indicator":{"id":"SP.DYN.LE00.IN","value":"Life expectancy at birth, total (years)"},"country":{"id":"TL","value":"Timor-Leste"},"countryiso3code":"TLS","date":"2015","value":68.459,"unit":"","obs_status":"","decimal":0},{"indicator":{"id":"SP.DYN.LE00.IN","value":"Life expectancy at birth, total (years)"},"country":{"id":"TG","value":"Togo"},"countryiso3code":"TGO","date":"2019","value":null,"unit":"","obs_status":"","decimal":0},{"indicator":{"id":"SP.DYN.LE00.IN","value":"Life expectancy at birth, total (years)"},"country":{"id":"TG","value":"Togo"},"countryiso3code":"TGO","date":"2018","value":60.76,"unit":"","obs_status":"","decimal":0},{"indicator":{"id":"SP.DYN.LE00.IN","value":"Life expectancy at birth, total (years)"},"country":{"id":"TG","value":"Togo"},"countryiso3code":"TGO","date":"2017","value":60.489,"unit":"","obs_status":"","decimal":0},{"indicator":{"id":"SP.DYN.LE00.IN","value":"Life expectancy at birth, total (years)"},"country":{"id":"TG","value":"Togo"},"countryiso3code":"TGO","date":"2016","value":60.22,"unit":"","obs_status":"","decimal":0},{"indicator":{"id":"SP.DYN.LE00.IN","value":"Life expectancy at birth, total (years)"},"country":{"id":"TG","value":"Togo"},"countryiso3code":"TGO","date":"2015","value":59.927,"unit":"","obs_status":"","decimal":0},{"indicator":{"id":"SP.DYN.LE00.IN","value":"Life expectancy at birth, total (years)"},"country":{"id":"TO","value":"Tonga"},"countryiso3code":"TON","date":"2019","value":null,"unit":"","obs_status":"","decimal":0},{"indicator":{"id":"SP.DYN.LE00.IN","value":"Life expectancy at birth, total (years)"},"country":{"id":"TO","value":"Tonga"},"countryiso3code":"TON","date":"2018","value":70.801,"unit":"","obs_status":"","decimal":0},{"indicator":{"id":"SP.DYN.LE00.IN","value":"Life expectancy at birth, total (years)"},"country":{"id":"TO","value":"Tonga"},"countryiso3code":"TON","date":"2017","value":70.701,"unit":"","obs_status":"","decimal":0},{"indicator":{"id":"SP.DYN.LE00.IN","value":"Life expectancy at birth, total (years)"},"country":{"id":"TO","value":"Tonga"},"countryiso3code":"TON","date":"2016","value":70.607,"unit":"","obs_status":"","decimal":0},{"indicator":{"id":"SP.DYN.LE00.IN","value":"Life expectancy at birth, total (years)"},"country":{"id":"TO","value":"Tonga"},"countryiso3code":"TON","date":"2015","value":70.517,"unit":"","obs_status":"","decimal":0},{"indicator":{"id":"SP.DYN.LE00.IN","value":"Life expectancy at birth, total (years)"},"country":{"id":"TT","value":"Trinidad and Tobago"},"countryiso3code":"TTO","date":"2019","value":null,"unit":"","obs_status":"","decimal":0},{"indicator":{"id":"SP.DYN.LE00.IN","value":"Life expectancy at birth, total (years)"},"country":{"id":"TT","value":"Trinidad and Tobago"},"countryiso3code":"TTO","date":"2018","value":73.38,"unit":"","obs_status":"","decimal":0},{"indicator":{"id":"SP.DYN.LE00.IN","value":"Life expectancy at birth, total (years)"},"country":{"id":"TT","value":"Trinidad and Tobago"},"countryiso3code":"TTO","date":"2017","value":73.245,"unit":"","obs_status":"","decimal":0},{"indicator":{"id":"SP.DYN.LE00.IN","value":"Life expectancy at birth, total (years)"},"country":{"id":"TT","value":"Trinidad and Tobago"},"countryiso3code":"TTO","date":"2016","value":73.1,"unit":"","obs_status":"","decimal":0},{"indicator":{"id":"SP.DYN.LE00.IN","value":"Life expectancy at birth, total (years)"},"country":{"id":"TT","value":"Trinidad and Tobago"},"countryiso3code":"TTO","date":"2015","value":72.941,"unit":"","obs_status":"","decimal":0},{"indicator":{"id":"SP.DYN.LE00.IN","value":"Life expectancy at birth, total (years)"},"country":{"id":"TN","value":"Tunisia"},"countryiso3code":"TUN","date":"2019","value":null,"unit":"","obs_status":"","decimal":0},{"indicator":{"id":"SP.DYN.LE00.IN","value":"Life expectancy at birth, total (years)"},"country":{"id":"TN","value":"Tunisia"},"countryiso3code":"TUN","date":"2018","value":76.505,"unit":"","obs_status":"","decimal":0},{"indicator":{"id":"SP.DYN.LE00.IN","value":"Life expectancy at birth, total (years)"},"country":{"id":"TN","value":"Tunisia"},"countryiso3code":"TUN","date":"2017","value":76.31,"unit":"","obs_status":"","decimal":0},{"indicator":{"id":"SP.DYN.LE00.IN","value":"Life expectancy at birth, total (years)"},"country":{"id":"TN","value":"Tunisia"},"countryiso3code":"TUN","date":"2016","value":76.115,"unit":"","obs_status":"","decimal":0},{"indicator":{"id":"SP.DYN.LE00.IN","value":"Life expectancy at birth, total (years)"},"country":{"id":"TN","value":"Tunisia"},"countryiso3code":"TUN","date":"2015","value":75.922,"unit":"","obs_status":"","decimal":0},{"indicator":{"id":"SP.DYN.LE00.IN","value":"Life expectancy at birth, total (years)"},"country":{"id":"TR","value":"Turkey"},"countryiso3code":"TUR","date":"2019","value":null,"unit":"","obs_status":"","decimal":0},{"indicator":{"id":"SP.DYN.LE00.IN","value":"Life expectancy at birth, total (years)"},"country":{"id":"TR","value":"Turkey"},"countryiso3code":"TUR","date":"2018","value":77.437,"unit":"","obs_status":"","decimal":0},{"indicator":{"id":"SP.DYN.LE00.IN","value":"Life expectancy at birth, total (years)"},"country":{"id":"TR","value":"Turkey"},"countryiso3code":"TUR","date":"2017","value":77.161,"unit":"","obs_status":"","decimal":0},{"indicator":{"id":"SP.DYN.LE00.IN","value":"Life expectancy at birth, total (years)"},"country":{"id":"TR","value":"Turkey"},"countryiso3code":"TUR","date":"2016","value":76.86,"unit":"","obs_status":"","decimal":0},{"indicator":{"id":"SP.DYN.LE00.IN","value":"Life expectancy at birth, total (years)"},"country":{"id":"TR","value":"Turkey"},"countryiso3code":"TUR","date":"2015","value":76.532,"unit":"","obs_status":"","decimal":0},{"indicator":{"id":"SP.DYN.LE00.IN","value":"Life expectancy at birth, total (years)"},"country":{"id":"TM","value":"Turkmenistan"},"countryiso3code":"TKM","date":"2019","value":null,"unit":"","obs_status":"","decimal":0},{"indicator":{"id":"SP.DYN.LE00.IN","value":"Life expectancy at birth, total (years)"},"country":{"id":"TM","value":"Turkmenistan"},"countryiso3code":"TKM","date":"2018","value":68.073,"unit":"","obs_status":"","decimal":0},{"indicator":{"id":"SP.DYN.LE00.IN","value":"Life expectancy at birth, total (years)"},"country":{"id":"TM","value":"Turkmenistan"},"countryiso3code":"TKM","date":"2017","value":67.956,"unit":"","obs_status":"","decimal":0},{"indicator":{"id":"SP.DYN.LE00.IN","value":"Life expectancy at birth, total (years)"},"country":{"id":"TM","value":"Turkmenistan"},"countryiso3code":"TKM","date":"2016","value":67.835,"unit":"","obs_status":"","decimal":0},{"indicator":{"id":"SP.DYN.LE00.IN","value":"Life expectancy at birth, total (years)"},"country":{"id":"TM","value":"Turkmenistan"},"countryiso3code":"TKM","date":"2015","value":67.704,"unit":"","obs_status":"","decimal":0},{"indicator":{"id":"SP.DYN.LE00.IN","value":"Life expectancy at birth, total (years)"},"country":{"id":"TC","value":"Turks and Caicos Islands"},"countryiso3code":"TCA","date":"2019","value":null,"unit":"","obs_status":"","decimal":0},{"indicator":{"id":"SP.DYN.LE00.IN","value":"Life expectancy at birth, total (years)"},"country":{"id":"TC","value":"Turks and Caicos Islands"},"countryiso3code":"TCA","date":"2018","value":null,"unit":"","obs_status":"","decimal":0},{"indicator":{"id":"SP.DYN.LE00.IN","value":"Life expectancy at birth, total (years)"},"country":{"id":"TC","value":"Turks and Caicos Islands"},"countryiso3code":"TCA","date":"2017","value":null,"unit":"","obs_status":"","decimal":0},{"indicator":{"id":"SP.DYN.LE00.IN","value":"Life expectancy at birth, total (years)"},"country":{"id":"TC","value":"Turks and Caicos Islands"},"countryiso3code":"TCA","date":"2016","value":null,"unit":"","obs_status":"","decimal":0},{"indicator":{"id":"SP.DYN.LE00.IN","value":"Life expectancy at birth, total (years)"},"country":{"id":"TC","value":"Turks and Caicos Islands"},"countryiso3code":"TCA","date":"2015","value":null,"unit":"","obs_status":"","decimal":0},{"indicator":{"id":"SP.DYN.LE00.IN","value":"Life expectancy at birth, total (years)"},"country":{"id":"TV","value":"Tuvalu"},"countryiso3code":"TUV","date":"2019","value":null,"unit":"","obs_status":"","decimal":0},{"indicator":{"id":"SP.DYN.LE00.IN","value":"Life expectancy at birth, total (years)"},"country":{"id":"TV","value":"Tuvalu"},"countryiso3code":"TUV","date":"2018","value":null,"unit":"","obs_status":"","decimal":0},{"indicator":{"id":"SP.DYN.LE00.IN","value":"Life expectancy at birth, total (years)"},"country":{"id":"TV","value":"Tuvalu"},"countryiso3code":"TUV","date":"2017","value":null,"unit":"","obs_status":"","decimal":0},{"indicator":{"id":"SP.DYN.LE00.IN","value":"Life expectancy at birth, total (years)"},"country":{"id":"TV","value":"Tuvalu"},"countryiso3code":"TUV","date":"2016","value":null,"unit":"","obs_status":"","decimal":0},{"indicator":{"id":"SP.DYN.LE00.IN","value":"Life expectancy at birth, total (years)"},"country":{"id":"TV","value":"Tuvalu"},"countryiso3code":"TUV","date":"2015","value":null,"unit":"","obs_status":"","decimal":0},{"indicator":{"id":"SP.DYN.LE00.IN","value":"Life expectancy at birth, total (years)"},"country":{"id":"UG","value":"Uganda"},"countryiso3code":"UGA","date":"2019","value":null,"unit":"","obs_status":"","decimal":0},{"indicator":{"id":"SP.DYN.LE00.IN","value":"Life expectancy at birth, total (years)"},"country":{"id":"UG","value":"Uganda"},"countryiso3code":"UGA","date":"2018","value":62.973,"unit":"","obs_status":"","decimal":0},{"indicator":{"id":"SP.DYN.LE00.IN","value":"Life expectancy at birth, total (years)"},"country":{"id":"UG","value":"Uganda"},"countryiso3code":"UGA","date":"2017","value":62.516,"unit":"","obs_status":"","decimal":0},{"indicator":{"id":"SP.DYN.LE00.IN","value":"Life expectancy at birth, total (years)"},"country":{"id":"UG","value":"Uganda"},"countryiso3code":"UGA","date":"2016","value":61.986,"unit":"","obs_status":"","decimal":0},{"indicator":{"id":"SP.DYN.LE00.IN","value":"Life expectancy at birth, total (years)"},"country":{"id":"UG","value":"Uganda"},"countryiso3code":"UGA","date":"2015","value":61.373,"unit":"","obs_status":"","decimal":0},{"indicator":{"id":"SP.DYN.LE00.IN","value":"Life expectancy at birth, total (years)"},"country":{"id":"UA","value":"Ukraine"},"countryiso3code":"UKR","date":"2019","value":null,"unit":"","obs_status":"","decimal":0},{"indicator":{"id":"SP.DYN.LE00.IN","value":"Life expectancy at birth, total (years)"},"country":{"id":"UA","value":"Ukraine"},"countryiso3code":"UKR","date":"2018","value":71.5826829268293,"unit":"","obs_status":"","decimal":0},{"indicator":{"id":"SP.DYN.LE00.IN","value":"Life expectancy at birth, total (years)"},"country":{"id":"UA","value":"Ukraine"},"countryiso3code":"UKR","date":"2017","value":71.7809756097561,"unit":"","obs_status":"","decimal":0},{"indicator":{"id":"SP.DYN.LE00.IN","value":"Life expectancy at birth, total (years)"},"country":{"id":"UA","value":"Ukraine"},"countryiso3code":"UKR","date":"2016","value":71.4763414634146,"unit":"","obs_status":"","decimal":0},{"indicator":{"id":"SP.DYN.LE00.IN","value":"Life expectancy at birth, total (years)"},"country":{"id":"UA","value":"Ukraine"},"countryiso3code":"UKR","date":"2015","value":71.189512195122,"unit":"","obs_status":"","decimal":0},{"indicator":{"id":"SP.DYN.LE00.IN","value":"Life expectancy at birth, total (years)"},"country":{"id":"AE","value":"United Arab Emirates"},"countryiso3code":"ARE","date":"2019","value":null,"unit":"","obs_status":"","decimal":0},{"indicator":{"id":"SP.DYN.LE00.IN","value":"Life expectancy at birth, total (years)"},"country":{"id":"AE","value":"United Arab Emirates"},"countryiso3code":"ARE","date":"2018","value":77.814,"unit":"","obs_status":"","decimal":0},{"indicator":{"id":"SP.DYN.LE00.IN","value":"Life expectancy at birth, total (years)"},"country":{"id":"AE","value":"United Arab Emirates"},"countryiso3code":"ARE","date":"2017","value":77.647,"unit":"","obs_status":"","decimal":0},{"indicator":{"id":"SP.DYN.LE00.IN","value":"Life expectancy at birth, total (years)"},"country":{"id":"AE","value":"United Arab Emirates"},"countryiso3code":"ARE","date":"2016","value":77.47,"unit":"","obs_status":"","decimal":0},{"indicator":{"id":"SP.DYN.LE00.IN","value":"Life expectancy at birth, total (years)"},"country":{"id":"AE","value":"United Arab Emirates"},"countryiso3code":"ARE","date":"2015","value":77.285,"unit":"","obs_status":"","decimal":0},{"indicator":{"id":"SP.DYN.LE00.IN","value":"Life expectancy at birth, total (years)"},"country":{"id":"GB","value":"United Kingdom"},"countryiso3code":"GBR","date":"2019","value":null,"unit":"","obs_status":"","decimal":0},{"indicator":{"id":"SP.DYN.LE00.IN","value":"Life expectancy at birth, total (years)"},"country":{"id":"GB","value":"United Kingdom"},"countryiso3code":"GBR","date":"2018","value":81.3560975609756,"unit":"","obs_status":"","decimal":0},{"indicator":{"id":"SP.DYN.LE00.IN","value":"Life expectancy at birth, total (years)"},"country":{"id":"GB","value":"United Kingdom"},"countryiso3code":"GBR","date":"2017","value":81.2560975609756,"unit":"","obs_status":"","decimal":0},{"indicator":{"id":"SP.DYN.LE00.IN","value":"Life expectancy at birth, total (years)"},"country":{"id":"GB","value":"United Kingdom"},"countryiso3code":"GBR","date":"2016","value":81.1560975609756,"unit":"","obs_status":"","decimal":0},{"indicator":{"id":"SP.DYN.LE00.IN","value":"Life expectancy at birth, total (years)"},"country":{"id":"GB","value":"United Kingdom"},"countryiso3code":"GBR","date":"2015","value":80.9560975609756,"unit":"","obs_status":"","decimal":0},{"indicator":{"id":"SP.DYN.LE00.IN","value":"Life expectancy at birth, total (years)"},"country":{"id":"US","value":"United States"},"countryiso3code":"USA","date":"2019","value":null,"unit":"","obs_status":"","decimal":0},{"indicator":{"id":"SP.DYN.LE00.IN","value":"Life expectancy at birth, total (years)"},"country":{"id":"US","value":"United States"},"countryiso3code":"USA","date":"2018","value":78.5390243902439,"unit":"","obs_status":"","decimal":0},{"indicator":{"id":"SP.DYN.LE00.IN","value":"Life expectancy at birth, total (years)"},"country":{"id":"US","value":"United States"},"countryiso3code":"USA","date":"2017","value":78.5390243902439,"unit":"","obs_status":"","decimal":0},{"indicator":{"id":"SP.DYN.LE00.IN","value":"Life expectancy at birth, total (years)"},"country":{"id":"US","value":"United States"},"countryiso3code":"USA","date":"2016","value":78.5390243902439,"unit":"","obs_status":"","decimal":0},{"indicator":{"id":"SP.DYN.LE00.IN","value":"Life expectancy at birth, total (years)"},"country":{"id":"US","value":"United States"},"countryiso3code":"USA","date":"2015","value":78.690243902439,"unit":"","obs_status":"","decimal":0},{"indicator":{"id":"SP.DYN.LE00.IN","value":"Life expectancy at birth, total (years)"},"country":{"id":"UY","value":"Uruguay"},"countryiso3code":"URY","date":"2019","value":null,"unit":"","obs_status":"","decimal":0},{"indicator":{"id":"SP.DYN.LE00.IN","value":"Life expectancy at birth, total (years)"},"country":{"id":"UY","value":"Uruguay"},"countryiso3code":"URY","date":"2018","value":77.77,"unit":"","obs_status":"","decimal":0},{"indicator":{"id":"SP.DYN.LE00.IN","value":"Life expectancy at birth, total (years)"},"country":{"id":"UY","value":"Uruguay"},"countryiso3code":"URY","date":"2017","value":77.632,"unit":"","obs_status":"","decimal":0},{"indicator":{"id":"SP.DYN.LE00.IN","value":"Life expectancy at birth, total (years)"},"country":{"id":"UY","value":"Uruguay"},"countryiso3code":"URY","date":"2016","value":77.498,"unit":"","obs_status":"","decimal":0},{"indicator":{"id":"SP.DYN.LE00.IN","value":"Life expectancy at birth, total (years)"},"country":{"id":"UY","value":"Uruguay"},"countryiso3code":"URY","date":"2015","value":77.369,"unit":"","obs_status":"","decimal":0},{"indicator":{"id":"SP.DYN.LE00.IN","value":"Life expectancy at birth, total (years)"},"country":{"id":"UZ","value":"Uzbekistan"},"countryiso3code":"UZB","date":"2019","value":null,"unit":"","obs_status":"","decimal":0},{"indicator":{"id":"SP.DYN.LE00.IN","value":"Life expectancy at birth, total (years)"},"country":{"id":"UZ","value":"Uzbekistan"},"countryiso3code":"UZB","date":"2018","value":71.573,"unit":"","obs_status":"","decimal":0},{"indicator":{"id":"SP.DYN.LE00.IN","value":"Life expectancy at birth, total (years)"},"country":{"id":"UZ","value":"Uzbekistan"},"countryiso3code":"UZB","date":"2017","value":71.388,"unit":"","obs_status":"","decimal":0},{"indicator":{"id":"SP.DYN.LE00.IN","value":"Life expectancy at birth, total (years)"},"country":{"id":"UZ","value":"Uzbekistan"},"countryiso3code":"UZB","date":"2016","value":71.171,"unit":"","obs_status":"","decimal":0},{"indicator":{"id":"SP.DYN.LE00.IN","value":"Life expectancy at birth, total (years)"},"country":{"id":"UZ","value":"Uzbekistan"},"countryiso3code":"UZB","date":"2015","value":70.928,"unit":"","obs_status":"","decimal":0},{"indicator":{"id":"SP.DYN.LE00.IN","value":"Life expectancy at birth, total (years)"},"country":{"id":"VU","value":"Vanuatu"},"countryiso3code":"VUT","date":"2019","value":null,"unit":"","obs_status":"","decimal":0},{"indicator":{"id":"SP.DYN.LE00.IN","value":"Life expectancy at birth, total (years)"},"country":{"id":"VU","value":"Vanuatu"},"countryiso3code":"VUT","date":"2018","value":70.323,"unit":"","obs_status":"","decimal":0},{"indicator":{"id":"SP.DYN.LE00.IN","value":"Life expectancy at birth, total (years)"},"country":{"id":"VU","value":"Vanuatu"},"countryiso3code":"VUT","date":"2017","value":70.172,"unit":"","obs_status":"","decimal":0},{"indicator":{"id":"SP.DYN.LE00.IN","value":"Life expectancy at birth, total (years)"},"country":{"id":"VU","value":"Vanuatu"},"countryiso3code":"VUT","date":"2016","value":70.021,"unit":"","obs_status":"","decimal":0},{"indicator":{"id":"SP.DYN.LE00.IN","value":"Life expectancy at birth, total (years)"},"country":{"id":"VU","value":"Vanuatu"},"countryiso3code":"VUT","date":"2015","value":69.869,"unit":"","obs_status":"","decimal":0},{"indicator":{"id":"SP.DYN.LE00.IN","value":"Life expectancy at birth, total (years)"},"country":{"id":"VE","value":"Venezuela, RB"},"countryiso3code":"VEN","date":"2019","value":null,"unit":"","obs_status":"","decimal":0},{"indicator":{"id":"SP.DYN.LE00.IN","value":"Life expectancy at birth, total (years)"},"country":{"id":"VE","value":"Venezuela, RB"},"countryiso3code":"VEN","date":"2018","value":72.128,"unit":"","obs_status":"","decimal":0},{"indicator":{"id":"SP.DYN.LE00.IN","value":"Life expectancy at birth, total (years)"},"country":{"id":"VE","value":"Venezuela, RB"},"countryiso3code":"VEN","date":"2017","value":72.246,"unit":"","obs_status":"","decimal":0},{"indicator":{"id":"SP.DYN.LE00.IN","value":"Life expectancy at birth, total (years)"},"country":{"id":"VE","value":"Venezuela, RB"},"countryiso3code":"VEN","date":"2016","value":72.405,"unit":"","obs_status":"","decimal":0},{"indicator":{"id":"SP.DYN.LE00.IN","value":"Life expectancy at birth, total (years)"},"country":{"id":"VE","value":"Venezuela, RB"},"countryiso3code":"VEN","date":"2015","value":72.584,"unit":"","obs_status":"","decimal":0},{"indicator":{"id":"SP.DYN.LE00.IN","value":"Life expectancy at birth, total (years)"},"country":{"id":"VN","value":"Vietnam"},"countryiso3code":"VNM","date":"2019","value":null,"unit":"","obs_status":"","decimal":0},{"indicator":{"id":"SP.DYN.LE00.IN","value":"Life expectancy at birth, total (years)"},"country":{"id":"VN","value":"Vietnam"},"countryiso3code":"VNM","date":"2018","value":75.317,"unit":"","obs_status":"","decimal":0},{"indicator":{"id":"SP.DYN.LE00.IN","value":"Life expectancy at birth, total (years)"},"country":{"id":"VN","value":"Vietnam"},"countryiso3code":"VNM","date":"2017","value":75.241,"unit":"","obs_status":"","decimal":0},{"indicator":{"id":"SP.DYN.LE00.IN","value":"Life expectancy at birth, total (years)"},"country":{"id":"VN","value":"Vietnam"},"countryiso3code":"VNM","date":"2016","value":75.172,"unit":"","obs_status":"","decimal":0},{"indicator":{"id":"SP.DYN.LE00.IN","value":"Life expectancy at birth, total (years)"},"country":{"id":"VN","value":"Vietnam"},"countryiso3code":"VNM","date":"2015","value":75.11,"unit":"","obs_status":"","decimal":0},{"indicator":{"id":"SP.DYN.LE00.IN","value":"Life expectancy at birth, total (years)"},"country":{"id":"VI","value":"Virgin Islands (U.S.)"},"countryiso3code":"VIR","date":"2019","value":null,"unit":"","obs_status":"","decimal":0},{"indicator":{"id":"SP.DYN.LE00.IN","value":"Life expectancy at birth, total (years)"},"country":{"id":"VI","value":"Virgin Islands (U.S.)"},"countryiso3code":"VIR","date":"2018","value":79.5682926829268,"unit":"","obs_status":"","decimal":0},{"indicator":{"id":"SP.DYN.LE00.IN","value":"Life expectancy at birth, total (years)"},"country":{"id":"VI","value":"Virgin Islands (U.S.)"},"countryiso3code":"VIR","date":"2017","value":79.419512195122,"unit":"","obs_status":"","decimal":0},{"indicator":{"id":"SP.DYN.LE00.IN","value":"Life expectancy at birth, total (years)"},"country":{"id":"VI","value":"Virgin Islands (U.S.)"},"countryiso3code":"VIR","date":"2016","value":79.2682926829268,"unit":"","obs_status":"","decimal":0},{"indicator":{"id":"SP.DYN.LE00.IN","value":"Life expectancy at birth, total (years)"},"country":{"id":"VI","value":"Virgin Islands (U.S.)"},"countryiso3code":"VIR","date":"2015","value":79.1682926829268,"unit":"","obs_status":"","decimal":0},{"indicator":{"id":"SP.DYN.LE00.IN","value":"Life expectancy at birth, total (years)"},"country":{"id":"PS","value":"West Bank and Gaza"},"countryiso3code":"PSE","date":"2019","value":null,"unit":"","obs_status":"","decimal":0},{"indicator":{"id":"SP.DYN.LE00.IN","value":"Life expectancy at birth, total (years)"},"country":{"id":"PS","value":"West Bank and Gaza"},"countryiso3code":"PSE","date":"2018","value":73.895,"unit":"","obs_status":"","decimal":0},{"indicator":{"id":"SP.DYN.LE00.IN","value":"Life expectancy at birth, total (years)"},"country":{"id":"PS","value":"West Bank and Gaza"},"countryiso3code":"PSE","date":"2017","value":73.74,"unit":"","obs_status":"","decimal":0},{"indicator":{"id":"SP.DYN.LE00.IN","value":"Life expectancy at birth, total (years)"},"country":{"id":"PS","value":"West Bank and Gaza"},"countryiso3code":"PSE","date":"2016","value":73.589,"unit":"","obs_status":"","decimal":0},{"indicator":{"id":"SP.DYN.LE00.IN","value":"Life expectancy at birth, total (years)"},"country":{"id":"PS","value":"West Bank and Gaza"},"countryiso3code":"PSE","date":"2015","value":73.442,"unit":"","obs_status":"","decimal":0},{"indicator":{"id":"SP.DYN.LE00.IN","value":"Life expectancy at birth, total (years)"},"country":{"id":"YE","value":"Yemen, Rep."},"countryiso3code":"YEM","date":"2019","value":null,"unit":"","obs_status":"","decimal":0},{"indicator":{"id":"SP.DYN.LE00.IN","value":"Life expectancy at birth, total (years)"},"country":{"id":"YE","value":"Yemen, Rep."},"countryiso3code":"YEM","date":"2018","value":66.096,"unit":"","obs_status":"","decimal":0},{"indicator":{"id":"SP.DYN.LE00.IN","value":"Life expectancy at birth, total (years)"},"country":{"id":"YE","value":"Yemen, Rep."},"countryiso3code":"YEM","date":"2017","value":66.086,"unit":"","obs_status":"","decimal":0},{"indicator":{"id":"SP.DYN.LE00.IN","value":"Life expectancy at birth, total (years)"},"country":{"id":"YE","value":"Yemen, Rep."},"countryiso3code":"YEM","date":"2016","value":66.087,"unit":"","obs_status":"","decimal":0},{"indicator":{"id":"SP.DYN.LE00.IN","value":"Life expectancy at birth, total (years)"},"country":{"id":"YE","value":"Yemen, Rep."},"countryiso3code":"YEM","date":"2015","value":66.085,"unit":"","obs_status":"","decimal":0},{"indicator":{"id":"SP.DYN.LE00.IN","value":"Life expectancy at birth, total (years)"},"country":{"id":"ZM","value":"Zambia"},"countryiso3code":"ZMB","date":"2019","value":null,"unit":"","obs_status":"","decimal":0},{"indicator":{"id":"SP.DYN.LE00.IN","value":"Life expectancy at birth, total (years)"},"country":{"id":"ZM","value":"Zambia"},"countryiso3code":"ZMB","date":"2018","value":63.51,"unit":"","obs_status":"","decimal":0},{"indicator":{"id":"SP.DYN.LE00.IN","value":"Life expectancy at birth, total (years)"},"country":{"id":"ZM","value":"Zambia"},"countryiso3code":"ZMB","date":"2017","value":63.043,"unit":"","obs_status":"","decimal":0},{"indicator":{"id":"SP.DYN.LE00.IN","value":"Life expectancy at birth, total (years)"},"country":{"id":"ZM","value":"Zambia"},"countryiso3code":"ZMB","date":"2016","value":62.464,"unit":"","obs_status":"","decimal":0},{"indicator":{"id":"SP.DYN.LE00.IN","value":"Life expectancy at birth, total (years)"},"country":{"id":"ZM","value":"Zambia"},"countryiso3code":"ZMB","date":"2015","value":61.737,"unit":"","obs_status":"","decimal":0},{"indicator":{"id":"SP.DYN.LE00.IN","value":"Life expectancy at birth, total (years)"},"country":{"id":"ZW","value":"Zimbabwe"},"countryiso3code":"ZWE","date":"2019","value":null,"unit":"","obs_status":"","decimal":0},{"indicator":{"id":"SP.DYN.LE00.IN","value":"Life expectancy at birth, total (years)"},"country":{"id":"ZW","value":"Zimbabwe"},"countryiso3code":"ZWE","date":"2018","value":61.195,"unit":"","obs_status":"","decimal":0},{"indicator":{"id":"SP.DYN.LE00.IN","value":"Life expectancy at birth, total (years)"},"country":{"id":"ZW","value":"Zimbabwe"},"countryiso3code":"ZWE","date":"2017","value":60.812,"unit":"","obs_status":"","decimal":0},{"indicator":{"id":"SP.DYN.LE00.IN","value":"Life expectancy at birth, total (years)"},"country":{"id":"ZW","value":"Zimbabwe"},"countryiso3code":"ZWE","date":"2016","value":60.294,"unit":"","obs_status":"","decimal":0},{"indicator":{"id":"SP.DYN.LE00.IN","value":"Life expectancy at birth, total (years)"},"country":{"id":"ZW","value":"Zimbabwe"},"countryiso3code":"ZWE","date":"2015","value":59.534,"unit":"","obs_status":"","decimal":0}]]