[{"page":7,"pages":7,"per_page":200,"total":1320,"sourceid":"15","lastupdated":"2020-05-19"},[{"indicator":{"id":"SP.DYN.AMRT.FE","value":"Mortality rate, adult, female (per 1,000 female adults)"},"country":{"id":"TL","value":"Timor-Leste"},"countryiso3code":"TLS","date":"2019","value":null,"unit":"","obs_status":"","decimal":0},{"indicator":{"id":"SP.DYN.AMRT.FE","value":"Mortality rate, adult, female (per 1,000 female adults)"},"country":{"id":"TL","value":"Timor-Leste"},"countryiso3code":"TLS","date":"2018","value":117.478,"unit":"","obs_status":"","decimal":0},{"indicator":{"id":"SP.DYN.AMRT.FE","value":"Mortality rate, adult, female (per 1,000 female adults)"},"country":{"id":"TL","value":"Timor-Leste"},"countryiso3code":"TLS","date":"2017","value":118.981,"unit":"","obs_status":"","decimal":0},{"indicator":{"id":"SP.DYN.AMRT.FE","value":"Mortality rate, adult, female (per 1,000 female adults)"},"country":{"id":"TL","value":"Timor-Leste"},"countryiso3code":"TLS","date":"2016","value":121.955,"unit":"","obs_status":"","decimal":0},{"indicator":{"id":"SP.DYN.AMRT.FE","value":"Mortality rate, adult, female (per 1,000 female adults)"},"country":{"id":"TL","value":"Timor-Leste"},"countryiso3code":"TLS","date":"2015","value":124.929,"unit":"","obs_status":"","decimal":0},{"indicator":{"id":"SP.DYN.AMRT.FE","value":"Mortality rate, adult, female (per 1,000 female adults)"},"country":{"id":"TG","value":"Togo"},"countryiso3code":"TGO","date":"2019","value":null,"unit":"","obs_status":"","decimal":0},{"indicator":{"id":"SP.DYN.AMRT.FE","value":"Mortality rate, adult, female (per 1,000 female adults)"},"country":{"id":"TG","value":"Togo"},"countryiso3code":"TGO","date":"2018","value":244.396,"unit":"","obs_status":"","decimal":0},{"indicator":{"id":"SP.DYN.AMRT.FE","value":"Mortality rate, adult, female (per 1,000 female adults)"},"country":{"id":"TG","value":"Togo"},"countryiso3code":"TGO","date":"2017","value":248.346,"unit":"","obs_status":"","decimal":0},{"indicator":{"id":"SP.DYN.AMRT.FE","value":"Mortality rate, adult, female (per 1,000 female adults)"},"country":{"id":"TG","value":"Togo"},"countryiso3code":"TGO","date":"2016","value":251.88,"unit":"","obs_status":"","decimal":0},{"indicator":{"id":"SP.DYN.AMRT.FE","value":"Mortality rate, adult, female (per 1,000 female adults)"},"country":{"id":"TG","value":"Togo"},"countryiso3code":"TGO","date":"2015","value":255.415,"unit":"","obs_status":"","decimal":0},{"indicator":{"id":"SP.DYN.AMRT.FE","value":"Mortality rate, adult, female (per 1,000 female adults)"},"country":{"id":"TO","value":"Tonga"},"countryiso3code":"TON","date":"2019","value":null,"unit":"","obs_status":"","decimal":0},{"indicator":{"id":"SP.DYN.AMRT.FE","value":"Mortality rate, adult, female (per 1,000 female adults)"},"country":{"id":"TO","value":"Tonga"},"countryiso3code":"TON","date":"2018","value":120.542,"unit":"","obs_status":"","decimal":0},{"indicator":{"id":"SP.DYN.AMRT.FE","value":"Mortality rate, adult, female (per 1,000 female adults)"},"country":{"id":"TO","value":"Tonga"},"countryiso3code":"TON","date":"2017","value":98.14,"unit":"","obs_status":"","decimal":0},{"indicator":{"id":"SP.DYN.AMRT.FE","value":"Mortality rate, adult, female (per 1,000 female adults)"},"country":{"id":"TO","value":"Tonga"},"countryiso3code":"TON","date":"2016","value":99.538,"unit":"","obs_status":"","decimal":0},{"indicator":{"id":"SP.DYN.AMRT.FE","value":"Mortality rate, adult, female (per 1,000 female adults)"},"country":{"id":"TO","value":"Tonga"},"countryiso3code":"TON","date":"2015","value":100.936,"unit":"","obs_status":"","decimal":0},{"indicator":{"id":"SP.DYN.AMRT.FE","value":"Mortality rate, adult, female (per 1,000 female adults)"},"country":{"id":"TT","value":"Trinidad and Tobago"},"countryiso3code":"TTO","date":"2019","value":null,"unit":"","obs_status":"","decimal":0},{"indicator":{"id":"SP.DYN.AMRT.FE","value":"Mortality rate, adult, female (per 1,000 female adults)"},"country":{"id":"TT","value":"Trinidad and Tobago"},"countryiso3code":"TTO","date":"2018","value":108.616,"unit":"","obs_status":"","decimal":0},{"indicator":{"id":"SP.DYN.AMRT.FE","value":"Mortality rate, adult, female (per 1,000 female adults)"},"country":{"id":"TT","value":"Trinidad and Tobago"},"countryiso3code":"TTO","date":"2017","value":119.505,"unit":"","obs_status":"","decimal":0},{"indicator":{"id":"SP.DYN.AMRT.FE","value":"Mortality rate, adult, female (per 1,000 female adults)"},"country":{"id":"TT","value":"Trinidad and Tobago"},"countryiso3code":"TTO","date":"2016","value":120.809,"unit":"","obs_status":"","decimal":0},{"indicator":{"id":"SP.DYN.AMRT.FE","value":"Mortality rate, adult, female (per 1,000 female adults)"},"country":{"id":"TT","value":"Trinidad and Tobago"},"countryiso3code":"TTO","date":"2015","value":122.114,"unit":"","obs_status":"","decimal":0},{"indicator":{"id":"SP.DYN.AMRT.FE","value":"Mortality rate, adult, female (per 1,000 female adults)"},"country":{"id":"TN","value":"Tunisia"},"countryiso3code":"TUN","date":"2019","value":null,"unit":"","obs_status":"","decimal":0},{"indicator":{"id":"SP.DYN.AMRT.FE","value":"Mortality rate, adult, female (per 1,000 female adults)"},"country":{"id":"TN","value":"Tunisia"},"countryiso3code":"TUN","date":"2018","value":67.321,"unit":"","obs_status":"","decimal":0},{"indicator":{"id":"SP.DYN.AMRT.FE","value":"Mortality rate, adult, female (per 1,000 female adults)"},"country":{"id":"TN","value":"Tunisia"},"countryiso3code":"TUN","date":"2017","value":68.392,"unit":"","obs_status":"","decimal":0},{"indicator":{"id":"SP.DYN.AMRT.FE","value":"Mortality rate, adult, female (per 1,000 female adults)"},"country":{"id":"TN","value":"Tunisia"},"countryiso3code":"TUN","date":"2016","value":69.521,"unit":"","obs_status":"","decimal":0},{"indicator":{"id":"SP.DYN.AMRT.FE","value":"Mortality rate, adult, female (per 1,000 female adults)"},"country":{"id":"TN","value":"Tunisia"},"countryiso3code":"TUN","date":"2015","value":70.65,"unit":"","obs_status":"","decimal":0},{"indicator":{"id":"SP.DYN.AMRT.FE","value":"Mortality rate, adult, female (per 1,000 female adults)"},"country":{"id":"TR","value":"Turkey"},"countryiso3code":"TUR","date":"2019","value":null,"unit":"","obs_status":"","decimal":0},{"indicator":{"id":"SP.DYN.AMRT.FE","value":"Mortality rate, adult, female (per 1,000 female adults)"},"country":{"id":"TR","value":"Turkey"},"countryiso3code":"TUR","date":"2018","value":62.33,"unit":"","obs_status":"","decimal":0},{"indicator":{"id":"SP.DYN.AMRT.FE","value":"Mortality rate, adult, female (per 1,000 female adults)"},"country":{"id":"TR","value":"Turkey"},"countryiso3code":"TUR","date":"2017","value":68.731,"unit":"","obs_status":"","decimal":0},{"indicator":{"id":"SP.DYN.AMRT.FE","value":"Mortality rate, adult, female (per 1,000 female adults)"},"country":{"id":"TR","value":"Turkey"},"countryiso3code":"TUR","date":"2016","value":70.13,"unit":"","obs_status":"","decimal":0},{"indicator":{"id":"SP.DYN.AMRT.FE","value":"Mortality rate, adult, female (per 1,000 female adults)"},"country":{"id":"TR","value":"Turkey"},"countryiso3code":"TUR","date":"2015","value":71.53,"unit":"","obs_status":"","decimal":0},{"indicator":{"id":"SP.DYN.AMRT.FE","value":"Mortality rate, adult, female (per 1,000 female adults)"},"country":{"id":"TM","value":"Turkmenistan"},"countryiso3code":"TKM","date":"2019","value":null,"unit":"","obs_status":"","decimal":0},{"indicator":{"id":"SP.DYN.AMRT.FE","value":"Mortality rate, adult, female (per 1,000 female adults)"},"country":{"id":"TM","value":"Turkmenistan"},"countryiso3code":"TKM","date":"2018","value":128.231,"unit":"","obs_status":"","decimal":0},{"indicator":{"id":"SP.DYN.AMRT.FE","value":"Mortality rate, adult, female (per 1,000 female adults)"},"country":{"id":"TM","value":"Turkmenistan"},"countryiso3code":"TKM","date":"2017","value":129.364,"unit":"","obs_status":"","decimal":0},{"indicator":{"id":"SP.DYN.AMRT.FE","value":"Mortality rate, adult, female (per 1,000 female adults)"},"country":{"id":"TM","value":"Turkmenistan"},"countryiso3code":"TKM","date":"2016","value":130.663,"unit":"","obs_status":"","decimal":0},{"indicator":{"id":"SP.DYN.AMRT.FE","value":"Mortality rate, adult, female (per 1,000 female adults)"},"country":{"id":"TM","value":"Turkmenistan"},"countryiso3code":"TKM","date":"2015","value":131.963,"unit":"","obs_status":"","decimal":0},{"indicator":{"id":"SP.DYN.AMRT.FE","value":"Mortality rate, adult, female (per 1,000 female adults)"},"country":{"id":"TC","value":"Turks and Caicos Islands"},"countryiso3code":"TCA","date":"2019","value":null,"unit":"","obs_status":"","decimal":0},{"indicator":{"id":"SP.DYN.AMRT.FE","value":"Mortality rate, adult, female (per 1,000 female adults)"},"country":{"id":"TC","value":"Turks and Caicos Islands"},"countryiso3code":"TCA","date":"2018","value":null,"unit":"","obs_status":"","decimal":0},{"indicator":{"id":"SP.DYN.AMRT.FE","value":"Mortality rate, adult, female (per 1,000 female adults)"},"country":{"id":"TC","value":"Turks and Caicos Islands"},"countryiso3code":"TCA","date":"2017","value":null,"unit":"","obs_status":"","decimal":0},{"indicator":{"id":"SP.DYN.AMRT.FE","value":"Mortality rate, adult, female (per 1,000 female adults)"},"country":{"id":"TC","value":"Turks and Caicos Islands"},"countryiso3code":"TCA","date":"2016","value":null,"unit":"","obs_status":"","decimal":0},{"indicator":{"id":"SP.DYN.AMRT.FE","value":"Mortality rate, adult, female (per 1,000 female adults)"},"country":{"id":"TC","value":"Turks and Caicos Islands"},"countryiso3code":"TCA","date":"2015","value":null,"unit":"","obs_status":"","decimal":0},{"indicator":{"id":"SP.DYN.AMRT.FE","value":"Mortality rate, adult, female (per 1,000 female adults)"},"country":{"id":"TV","value":"Tuvalu"},"countryiso3code":"TUV","date":"2019","value":null,"unit":"","obs_status":"","decimal":0},{"indicator":{"id":"SP.DYN.AMRT.FE","value":"Mortality rate, adult, female (per 1,000 female adults)"},"country":{"id":"TV","value":"Tuvalu"},"countryiso3code":"TUV","date":"2018","value":null,"unit":"","obs_status":"","decimal":0},{"indicator":{"id":"SP.DYN.AMRT.FE","value":"Mortality rate, adult, female (per 1,000 female adults)"},"country":{"id":"TV","value":"Tuvalu"},"countryiso3code":"TUV","date":"2017","value":null,"unit":"","obs_status":"","decimal":0},{"indicator":{"id":"SP.DYN.AMRT.FE","value":"Mortality rate, adult, female (per 1,000 female adults)"},"country":{"id":"TV","value":"Tuvalu"},"countryiso3code":"TUV","date":"2016","value":null,"unit":"","obs_status":"","decimal":0},{"indicator":{"id":"SP.DYN.AMRT.FE","value":"Mortality rate, adult, female (per 1,000 female adults)"},"country":{"id":"TV","value":"Tuvalu"},"countryiso3code":"TUV","date":"2015","value":null,"unit":"","obs_status":"","decimal":0},{"indicator":{"id":"SP.DYN.AMRT.FE","value":"Mortality rate, adult, female (per 1,000 female adults)"},"country":{"id":"UG","value":"Uganda"},"countryiso3code":"UGA","date":"2019","value":null,"unit":"","obs_status":"","decimal":0},{"indicator":{"id":"SP.DYN.AMRT.FE","value":"Mortality rate, adult, female (per 1,000 female adults)"},"country":{"id":"UG","value":"Uganda"},"countryiso3code":"UGA","date":"2018","value":233.267,"unit":"","obs_status":"","decimal":0},{"indicator":{"id":"SP.DYN.AMRT.FE","value":"Mortality rate, adult, female (per 1,000 female adults)"},"country":{"id":"UG","value":"Uganda"},"countryiso3code":"UGA","date":"2017","value":263.675,"unit":"","obs_status":"","decimal":0},{"indicator":{"id":"SP.DYN.AMRT.FE","value":"Mortality rate, adult, female (per 1,000 female adults)"},"country":{"id":"UG","value":"Uganda"},"countryiso3code":"UGA","date":"2016","value":267.758,"unit":"","obs_status":"","decimal":0},{"indicator":{"id":"SP.DYN.AMRT.FE","value":"Mortality rate, adult, female (per 1,000 female adults)"},"country":{"id":"UG","value":"Uganda"},"countryiso3code":"UGA","date":"2015","value":271.842,"unit":"","obs_status":"","decimal":0},{"indicator":{"id":"SP.DYN.AMRT.FE","value":"Mortality rate, adult, female (per 1,000 female adults)"},"country":{"id":"UA","value":"Ukraine"},"countryiso3code":"UKR","date":"2019","value":null,"unit":"","obs_status":"","decimal":0},{"indicator":{"id":"SP.DYN.AMRT.FE","value":"Mortality rate, adult, female (per 1,000 female adults)"},"country":{"id":"UA","value":"Ukraine"},"countryiso3code":"UKR","date":"2018","value":null,"unit":"","obs_status":"","decimal":0},{"indicator":{"id":"SP.DYN.AMRT.FE","value":"Mortality rate, adult, female (per 1,000 female adults)"},"country":{"id":"UA","value":"Ukraine"},"countryiso3code":"UKR","date":"2017","value":null,"unit":"","obs_status":"","decimal":0},{"indicator":{"id":"SP.DYN.AMRT.FE","value":"Mortality rate, adult, female (per 1,000 female adults)"},"country":{"id":"UA","value":"Ukraine"},"countryiso3code":"UKR","date":"2016","value":null,"unit":"","obs_status":"","decimal":0},{"indicator":{"id":"SP.DYN.AMRT.FE","value":"Mortality rate, adult, female (per 1,000 female adults)"},"country":{"id":"UA","value":"Ukraine"},"countryiso3code":"UKR","date":"2015","value":null,"unit":"","obs_status":"","decimal":0},{"indicator":{"id":"SP.DYN.AMRT.FE","value":"Mortality rate, adult, female (per 1,000 female adults)"},"country":{"id":"AE","value":"United Arab Emirates"},"countryiso3code":"ARE","date":"2019","value":null,"unit":"","obs_status":"","decimal":0},{"indicator":{"id":"SP.DYN.AMRT.FE","value":"Mortality rate, adult, female (per 1,000 female adults)"},"country":{"id":"AE","value":"United Arab Emirates"},"countryiso3code":"ARE","date":"2018","value":44.863,"unit":"","obs_status":"","decimal":0},{"indicator":{"id":"SP.DYN.AMRT.FE","value":"Mortality rate, adult, female (per 1,000 female adults)"},"country":{"id":"AE","value":"United Arab Emirates"},"countryiso3code":"ARE","date":"2017","value":54.933,"unit":"","obs_status":"","decimal":0},{"indicator":{"id":"SP.DYN.AMRT.FE","value":"Mortality rate, adult, female (per 1,000 female adults)"},"country":{"id":"AE","value":"United Arab Emirates"},"countryiso3code":"ARE","date":"2016","value":55.786,"unit":"","obs_status":"","decimal":0},{"indicator":{"id":"SP.DYN.AMRT.FE","value":"Mortality rate, adult, female (per 1,000 female adults)"},"country":{"id":"AE","value":"United Arab Emirates"},"countryiso3code":"ARE","date":"2015","value":56.639,"unit":"","obs_status":"","decimal":0},{"indicator":{"id":"SP.DYN.AMRT.FE","value":"Mortality rate, adult, female (per 1,000 female adults)"},"country":{"id":"GB","value":"United Kingdom"},"countryiso3code":"GBR","date":"2019","value":null,"unit":"","obs_status":"","decimal":0},{"indicator":{"id":"SP.DYN.AMRT.FE","value":"Mortality rate, adult, female (per 1,000 female adults)"},"country":{"id":"GB","value":"United Kingdom"},"countryiso3code":"GBR","date":"2018","value":null,"unit":"","obs_status":"","decimal":0},{"indicator":{"id":"SP.DYN.AMRT.FE","value":"Mortality rate, adult, female (per 1,000 female adults)"},"country":{"id":"GB","value":"United Kingdom"},"countryiso3code":"GBR","date":"2017","value":null,"unit":"","obs_status":"","decimal":0},{"indicator":{"id":"SP.DYN.AMRT.FE","value":"Mortality rate, adult, female (per 1,000 female adults)"},"country":{"id":"GB","value":"United Kingdom"},"countryiso3code":"GBR","date":"2016","value":55.36,"unit":"","obs_status":"","decimal":0},{"indicator":{"id":"SP.DYN.AMRT.FE","value":"Mortality rate, adult, female (per 1,000 female adults)"},"country":{"id":"GB","value":"United Kingdom"},"countryiso3code":"GBR","date":"2015","value":54.153,"unit":"","obs_status":"","decimal":0},{"indicator":{"id":"SP.DYN.AMRT.FE","value":"Mortality rate, adult, female (per 1,000 female adults)"},"country":{"id":"US","value":"United States"},"countryiso3code":"USA","date":"2019","value":null,"unit":"","obs_status":"","decimal":0},{"indicator":{"id":"SP.DYN.AMRT.FE","value":"Mortality rate, adult, female (per 1,000 female adults)"},"country":{"id":"US","value":"United States"},"countryiso3code":"USA","date":"2018","value":null,"unit":"","obs_status":"","decimal":0},{"indicator":{"id":"SP.DYN.AMRT.FE","value":"Mortality rate, adult, female (per 1,000 female adults)"},"country":{"id":"US","value":"United States"},"countryiso3code":"USA","date":"2017","value":81.935,"unit":"","obs_status":"","decimal":0},{"indicator":{"id":"SP.DYN.AMRT.FE","value":"Mortality rate, adult, female (per 1,000 female adults)"},"country":{"id":"US","value":"United States"},"countryiso3code":"USA","date":"2016","value":82.066,"unit":"","obs_status":"","decimal":0},{"indicator":{"id":"SP.DYN.AMRT.FE","value":"Mortality rate, adult, female (per 1,000 female adults)"},"country":{"id":"US","value":"United States"},"countryiso3code":"USA","date":"2015","value":80.389,"unit":"","obs_status":"","decimal":0},{"indicator":{"id":"SP.DYN.AMRT.FE","value":"Mortality rate, adult, female (per 1,000 female adults)"},"country":{"id":"UY","value":"Uruguay"},"countryiso3code":"URY","date":"2019","value":null,"unit":"","obs_status":"","decimal":0},{"indicator":{"id":"SP.DYN.AMRT.FE","value":"Mortality rate, adult, female (per 1,000 female adults)"},"country":{"id":"UY","value":"Uruguay"},"countryiso3code":"URY","date":"2018","value":76.015,"unit":"","obs_status":"","decimal":0},{"indicator":{"id":"SP.DYN.AMRT.FE","value":"Mortality rate, adult, female (per 1,000 female adults)"},"country":{"id":"UY","value":"Uruguay"},"countryiso3code":"URY","date":"2017","value":75.028,"unit":"","obs_status":"","decimal":0},{"indicator":{"id":"SP.DYN.AMRT.FE","value":"Mortality rate, adult, female (per 1,000 female adults)"},"country":{"id":"UY","value":"Uruguay"},"countryiso3code":"URY","date":"2016","value":75.696,"unit":"","obs_status":"","decimal":0},{"indicator":{"id":"SP.DYN.AMRT.FE","value":"Mortality rate, adult, female (per 1,000 female adults)"},"country":{"id":"UY","value":"Uruguay"},"countryiso3code":"URY","date":"2015","value":76.364,"unit":"","obs_status":"","decimal":0},{"indicator":{"id":"SP.DYN.AMRT.FE","value":"Mortality rate, adult, female (per 1,000 female adults)"},"country":{"id":"UZ","value":"Uzbekistan"},"countryiso3code":"UZB","date":"2019","value":null,"unit":"","obs_status":"","decimal":0},{"indicator":{"id":"SP.DYN.AMRT.FE","value":"Mortality rate, adult, female (per 1,000 female adults)"},"country":{"id":"UZ","value":"Uzbekistan"},"countryiso3code":"UZB","date":"2018","value":100.911,"unit":"","obs_status":"","decimal":0},{"indicator":{"id":"SP.DYN.AMRT.FE","value":"Mortality rate, adult, female (per 1,000 female adults)"},"country":{"id":"UZ","value":"Uzbekistan"},"countryiso3code":"UZB","date":"2017","value":101.845,"unit":"","obs_status":"","decimal":0},{"indicator":{"id":"SP.DYN.AMRT.FE","value":"Mortality rate, adult, female (per 1,000 female adults)"},"country":{"id":"UZ","value":"Uzbekistan"},"countryiso3code":"UZB","date":"2016","value":103.598,"unit":"","obs_status":"","decimal":0},{"indicator":{"id":"SP.DYN.AMRT.FE","value":"Mortality rate, adult, female (per 1,000 female adults)"},"country":{"id":"UZ","value":"Uzbekistan"},"countryiso3code":"UZB","date":"2015","value":105.351,"unit":"","obs_status":"","decimal":0},{"indicator":{"id":"SP.DYN.AMRT.FE","value":"Mortality rate, adult, female (per 1,000 female adults)"},"country":{"id":"VU","value":"Vanuatu"},"countryiso3code":"VUT","date":"2019","value":null,"unit":"","obs_status":"","decimal":0},{"indicator":{"id":"SP.DYN.AMRT.FE","value":"Mortality rate, adult, female (per 1,000 female adults)"},"country":{"id":"VU","value":"Vanuatu"},"countryiso3code":"VUT","date":"2018","value":102.42,"unit":"","obs_status":"","decimal":0},{"indicator":{"id":"SP.DYN.AMRT.FE","value":"Mortality rate, adult, female (per 1,000 female adults)"},"country":{"id":"VU","value":"Vanuatu"},"countryiso3code":"VUT","date":"2017","value":101.027,"unit":"","obs_status":"","decimal":0},{"indicator":{"id":"SP.DYN.AMRT.FE","value":"Mortality rate, adult, female (per 1,000 female adults)"},"country":{"id":"VU","value":"Vanuatu"},"countryiso3code":"VUT","date":"2016","value":103.355,"unit":"","obs_status":"","decimal":0},{"indicator":{"id":"SP.DYN.AMRT.FE","value":"Mortality rate, adult, female (per 1,000 female adults)"},"country":{"id":"VU","value":"Vanuatu"},"countryiso3code":"VUT","date":"2015","value":105.683,"unit":"","obs_status":"","decimal":0},{"indicator":{"id":"SP.DYN.AMRT.FE","value":"Mortality rate, adult, female (per 1,000 female adults)"},"country":{"id":"VE","value":"Venezuela, RB"},"countryiso3code":"VEN","date":"2019","value":null,"unit":"","obs_status":"","decimal":0},{"indicator":{"id":"SP.DYN.AMRT.FE","value":"Mortality rate, adult, female (per 1,000 female adults)"},"country":{"id":"VE","value":"Venezuela, RB"},"countryiso3code":"VEN","date":"2018","value":94.804,"unit":"","obs_status":"","decimal":0},{"indicator":{"id":"SP.DYN.AMRT.FE","value":"Mortality rate, adult, female (per 1,000 female adults)"},"country":{"id":"VE","value":"Venezuela, RB"},"countryiso3code":"VEN","date":"2017","value":88.069,"unit":"","obs_status":"","decimal":0},{"indicator":{"id":"SP.DYN.AMRT.FE","value":"Mortality rate, adult, female (per 1,000 female adults)"},"country":{"id":"VE","value":"Venezuela, RB"},"countryiso3code":"VEN","date":"2016","value":89.034,"unit":"","obs_status":"","decimal":0},{"indicator":{"id":"SP.DYN.AMRT.FE","value":"Mortality rate, adult, female (per 1,000 female adults)"},"country":{"id":"VE","value":"Venezuela, RB"},"countryiso3code":"VEN","date":"2015","value":89.998,"unit":"","obs_status":"","decimal":0},{"indicator":{"id":"SP.DYN.AMRT.FE","value":"Mortality rate, adult, female (per 1,000 female adults)"},"country":{"id":"VN","value":"Vietnam"},"countryiso3code":"VNM","date":"2019","value":null,"unit":"","obs_status":"","decimal":0},{"indicator":{"id":"SP.DYN.AMRT.FE","value":"Mortality rate, adult, female (per 1,000 female adults)"},"country":{"id":"VN","value":"Vietnam"},"countryiso3code":"VNM","date":"2018","value":76.363,"unit":"","obs_status":"","decimal":0},{"indicator":{"id":"SP.DYN.AMRT.FE","value":"Mortality rate, adult, female (per 1,000 female adults)"},"country":{"id":"VN","value":"Vietnam"},"countryiso3code":"VNM","date":"2017","value":64.966,"unit":"","obs_status":"","decimal":0},{"indicator":{"id":"SP.DYN.AMRT.FE","value":"Mortality rate, adult, female (per 1,000 female adults)"},"country":{"id":"VN","value":"Vietnam"},"countryiso3code":"VNM","date":"2016","value":65.7,"unit":"","obs_status":"","decimal":0},{"indicator":{"id":"SP.DYN.AMRT.FE","value":"Mortality rate, adult, female (per 1,000 female adults)"},"country":{"id":"VN","value":"Vietnam"},"countryiso3code":"VNM","date":"2015","value":66.435,"unit":"","obs_status":"","decimal":0},{"indicator":{"id":"SP.DYN.AMRT.FE","value":"Mortality rate, adult, female (per 1,000 female adults)"},"country":{"id":"VI","value":"Virgin Islands (U.S.)"},"countryiso3code":"VIR","date":"2019","value":null,"unit":"","obs_status":"","decimal":0},{"indicator":{"id":"SP.DYN.AMRT.FE","value":"Mortality rate, adult, female (per 1,000 female adults)"},"country":{"id":"VI","value":"Virgin Islands (U.S.)"},"countryiso3code":"VIR","date":"2018","value":41.141,"unit":"","obs_status":"","decimal":0},{"indicator":{"id":"SP.DYN.AMRT.FE","value":"Mortality rate, adult, female (per 1,000 female adults)"},"country":{"id":"VI","value":"Virgin Islands (U.S.)"},"countryiso3code":"VIR","date":"2017","value":41.773,"unit":"","obs_status":"","decimal":0},{"indicator":{"id":"SP.DYN.AMRT.FE","value":"Mortality rate, adult, female (per 1,000 female adults)"},"country":{"id":"VI","value":"Virgin Islands (U.S.)"},"countryiso3code":"VIR","date":"2016","value":42.519,"unit":"","obs_status":"","decimal":0},{"indicator":{"id":"SP.DYN.AMRT.FE","value":"Mortality rate, adult, female (per 1,000 female adults)"},"country":{"id":"VI","value":"Virgin Islands (U.S.)"},"countryiso3code":"VIR","date":"2015","value":43.265,"unit":"","obs_status":"","decimal":0},{"indicator":{"id":"SP.DYN.AMRT.FE","value":"Mortality rate, adult, female (per 1,000 female adults)"},"country":{"id":"PS","value":"West Bank and Gaza"},"countryiso3code":"PSE","date":"2019","value":null,"unit":"","obs_status":"","decimal":0},{"indicator":{"id":"SP.DYN.AMRT.FE","value":"Mortality rate, adult, female (per 1,000 female adults)"},"country":{"id":"PS","value":"West Bank and Gaza"},"countryiso3code":"PSE","date":"2018","value":92.308,"unit":"","obs_status":"","decimal":0},{"indicator":{"id":"SP.DYN.AMRT.FE","value":"Mortality rate, adult, female (per 1,000 female adults)"},"country":{"id":"PS","value":"West Bank and Gaza"},"countryiso3code":"PSE","date":"2017","value":93.882,"unit":"","obs_status":"","decimal":0},{"indicator":{"id":"SP.DYN.AMRT.FE","value":"Mortality rate, adult, female (per 1,000 female adults)"},"country":{"id":"PS","value":"West Bank and Gaza"},"countryiso3code":"PSE","date":"2016","value":95.049,"unit":"","obs_status":"","decimal":0},{"indicator":{"id":"SP.DYN.AMRT.FE","value":"Mortality rate, adult, female (per 1,000 female adults)"},"country":{"id":"PS","value":"West Bank and Gaza"},"countryiso3code":"PSE","date":"2015","value":96.217,"unit":"","obs_status":"","decimal":0},{"indicator":{"id":"SP.DYN.AMRT.FE","value":"Mortality rate, adult, female (per 1,000 female adults)"},"country":{"id":"YE","value":"Yemen, Rep."},"countryiso3code":"YEM","date":"2019","value":null,"unit":"","obs_status":"","decimal":0},{"indicator":{"id":"SP.DYN.AMRT.FE","value":"Mortality rate, adult, female (per 1,000 female adults)"},"country":{"id":"YE","value":"Yemen, Rep."},"countryiso3code":"YEM","date":"2018","value":174.558,"unit":"","obs_status":"","decimal":0},{"indicator":{"id":"SP.DYN.AMRT.FE","value":"Mortality rate, adult, female (per 1,000 female adults)"},"country":{"id":"YE","value":"Yemen, Rep."},"countryiso3code":"YEM","date":"2017","value":192.885,"unit":"","obs_status":"","decimal":0},{"indicator":{"id":"SP.DYN.AMRT.FE","value":"Mortality rate, adult, female (per 1,000 female adults)"},"country":{"id":"YE","value":"Yemen, Rep."},"countryiso3code":"YEM","date":"2016","value":195.478,"unit":"","obs_status":"","decimal":0},{"indicator":{"id":"SP.DYN.AMRT.FE","value":"Mortality rate, adult, female (per 1,000 female adults)"},"country":{"id":"YE","value":"Yemen, Rep."},"countryiso3code":"YEM","date":"2015","value":198.071,"unit":"","obs_status":"","decimal":0},{"indicator":{"id":"SP.DYN.AMRT.FE","value":"Mortality rate, adult, female (per 1,000 female adults)"},"country":{"id":"ZM","value":"Zambia"},"countryiso3code":"ZMB","date":"2019","value":null,"unit":"","obs_status":"","decimal":0},{"indicator":{"id":"SP.DYN.AMRT.FE","value":"Mortality rate, adult, female (per 1,000 female adults)"},"country":{"id":"ZM","value":"Zambia"},"countryiso3code":"ZMB","date":"2018","value":221.573,"unit":"","obs_status":"","decimal":0},{"indicator":{"id":"SP.DYN.AMRT.FE","value":"Mortality rate, adult, female (per 1,000 female adults)"},"country":{"id":"ZM","value":"Zambia"},"countryiso3code":"ZMB","date":"2017","value":236.931,"unit":"","obs_status":"","decimal":0},{"indicator":{"id":"SP.DYN.AMRT.FE","value":"Mortality rate, adult, female (per 1,000 female adults)"},"country":{"id":"ZM","value":"Zambia"},"countryiso3code":"ZMB","date":"2016","value":246.121,"unit":"","obs_status":"","decimal":0},{"indicator":{"id":"SP.DYN.AMRT.FE","value":"Mortality rate, adult, female (per 1,000 female adults)"},"country":{"id":"ZM","value":"Zambia"},"countryiso3code":"ZMB","date":"2015","value":255.312,"unit":"","obs_status":"","decimal":0},{"indicator":{"id":"SP.DYN.AMRT.FE","value":"Mortality rate, adult, female (per 1,000 female adults)"},"country":{"id":"ZW","value":"Zimbabwe"},"countryiso3code":"ZWE","date":"2019","value":null,"unit":"","obs_status":"","decimal":0},{"indicator":{"id":"SP.DYN.AMRT.FE","value":"Mortality rate, adult, female (per 1,000 female adults)"},"country":{"id":"ZW","value":"Zimbabwe"},"countryiso3code":"ZWE","date":"2018","value":337.702,"unit":"","obs_status":"","decimal":0},{"indicator":{"id":"SP.DYN.AMRT.FE","value":"Mortality rate, adult, female (per 1,000 female adults)"},"country":{"id":"ZW","value":"Zimbabwe"},"countryiso3code":"ZWE","date":"2017","value":300.101,"unit":"","obs_status":"","decimal":0},{"indicator":{"id":"SP.DYN.AMRT.FE","value":"Mortality rate, adult, female (per 1,000 female adults)"},"country":{"id":"ZW","value":"Zimbabwe"},"countryiso3code":"ZWE","date":"2016","value":319.797,"unit":"","obs_status":"","decimal":0},{"indicator":{"id":"SP.DYN.AMRT.FE","value":"Mortality rate, adult, female (per 1,000 female adults)"},"country":{"id":"ZW","value":"Zimbabwe"},"countryiso3code":"ZWE","date":"2015","value":339.493,"unit":"","obs_status":"","decimal":0}]]