[{"page":7,"pages":7,"per_page":200,"total":1320,"sourceid":"2","lastupdated":"2020-05-19"},[{"indicator":{"id":"SP.DYN.LE00.FE.IN","value":"Life expectancy at birth, female (years)"},"country":{"id":"TL","value":"Timor-Leste"},"countryiso3code":"TLS","date":"2019","value":null,"unit":"","obs_status":"","decimal":0},{"indicator":{"id":"SP.DYN.LE00.FE.IN","value":"Life expectancy at birth, female (years)"},"country":{"id":"TL","value":"Timor-Leste"},"countryiso3code":"TLS","date":"2018","value":71.376,"unit":"","obs_status":"","decimal":0},{"indicator":{"id":"SP.DYN.LE00.FE.IN","value":"Life expectancy at birth, female (years)"},"country":{"id":"TL","value":"Timor-Leste"},"countryiso3code":"TLS","date":"2017","value":71.092,"unit":"","obs_status":"","decimal":0},{"indicator":{"id":"SP.DYN.LE00.FE.IN","value":"Life expectancy at birth, female (years)"},"country":{"id":"TL","value":"Timor-Leste"},"countryiso3code":"TLS","date":"2016","value":70.781,"unit":"","obs_status":"","decimal":0},{"indicator":{"id":"SP.DYN.LE00.FE.IN","value":"Life expectancy at birth, female (years)"},"country":{"id":"TL","value":"Timor-Leste"},"countryiso3code":"TLS","date":"2015","value":70.454,"unit":"","obs_status":"","decimal":0},{"indicator":{"id":"SP.DYN.LE00.FE.IN","value":"Life expectancy at birth, female (years)"},"country":{"id":"TG","value":"Togo"},"countryiso3code":"TGO","date":"2019","value":null,"unit":"","obs_status":"","decimal":0},{"indicator":{"id":"SP.DYN.LE00.FE.IN","value":"Life expectancy at birth, female (years)"},"country":{"id":"TG","value":"Togo"},"countryiso3code":"TGO","date":"2018","value":61.612,"unit":"","obs_status":"","decimal":0},{"indicator":{"id":"SP.DYN.LE00.FE.IN","value":"Life expectancy at birth, female (years)"},"country":{"id":"TG","value":"Togo"},"countryiso3code":"TGO","date":"2017","value":61.317,"unit":"","obs_status":"","decimal":0},{"indicator":{"id":"SP.DYN.LE00.FE.IN","value":"Life expectancy at birth, female (years)"},"country":{"id":"TG","value":"Togo"},"countryiso3code":"TGO","date":"2016","value":61.023,"unit":"","obs_status":"","decimal":0},{"indicator":{"id":"SP.DYN.LE00.FE.IN","value":"Life expectancy at birth, female (years)"},"country":{"id":"TG","value":"Togo"},"countryiso3code":"TGO","date":"2015","value":60.706,"unit":"","obs_status":"","decimal":0},{"indicator":{"id":"SP.DYN.LE00.FE.IN","value":"Life expectancy at birth, female (years)"},"country":{"id":"TO","value":"Tonga"},"countryiso3code":"TON","date":"2019","value":null,"unit":"","obs_status":"","decimal":0},{"indicator":{"id":"SP.DYN.LE00.FE.IN","value":"Life expectancy at birth, female (years)"},"country":{"id":"TO","value":"Tonga"},"countryiso3code":"TON","date":"2018","value":72.763,"unit":"","obs_status":"","decimal":0},{"indicator":{"id":"SP.DYN.LE00.FE.IN","value":"Life expectancy at birth, female (years)"},"country":{"id":"TO","value":"Tonga"},"countryiso3code":"TON","date":"2017","value":72.648,"unit":"","obs_status":"","decimal":0},{"indicator":{"id":"SP.DYN.LE00.FE.IN","value":"Life expectancy at birth, female (years)"},"country":{"id":"TO","value":"Tonga"},"countryiso3code":"TON","date":"2016","value":72.544,"unit":"","obs_status":"","decimal":0},{"indicator":{"id":"SP.DYN.LE00.FE.IN","value":"Life expectancy at birth, female (years)"},"country":{"id":"TO","value":"Tonga"},"countryiso3code":"TON","date":"2015","value":72.449,"unit":"","obs_status":"","decimal":0},{"indicator":{"id":"SP.DYN.LE00.FE.IN","value":"Life expectancy at birth, female (years)"},"country":{"id":"TT","value":"Trinidad and Tobago"},"countryiso3code":"TTO","date":"2019","value":null,"unit":"","obs_status":"","decimal":0},{"indicator":{"id":"SP.DYN.LE00.FE.IN","value":"Life expectancy at birth, female (years)"},"country":{"id":"TT","value":"Trinidad and Tobago"},"countryiso3code":"TTO","date":"2018","value":76.092,"unit":"","obs_status":"","decimal":0},{"indicator":{"id":"SP.DYN.LE00.FE.IN","value":"Life expectancy at birth, female (years)"},"country":{"id":"TT","value":"Trinidad and Tobago"},"countryiso3code":"TTO","date":"2017","value":75.955,"unit":"","obs_status":"","decimal":0},{"indicator":{"id":"SP.DYN.LE00.FE.IN","value":"Life expectancy at birth, female (years)"},"country":{"id":"TT","value":"Trinidad and Tobago"},"countryiso3code":"TTO","date":"2016","value":75.811,"unit":"","obs_status":"","decimal":0},{"indicator":{"id":"SP.DYN.LE00.FE.IN","value":"Life expectancy at birth, female (years)"},"country":{"id":"TT","value":"Trinidad and Tobago"},"countryiso3code":"TTO","date":"2015","value":75.659,"unit":"","obs_status":"","decimal":0},{"indicator":{"id":"SP.DYN.LE00.FE.IN","value":"Life expectancy at birth, female (years)"},"country":{"id":"TN","value":"Tunisia"},"countryiso3code":"TUN","date":"2019","value":null,"unit":"","obs_status":"","decimal":0},{"indicator":{"id":"SP.DYN.LE00.FE.IN","value":"Life expectancy at birth, female (years)"},"country":{"id":"TN","value":"Tunisia"},"countryiso3code":"TUN","date":"2018","value":78.536,"unit":"","obs_status":"","decimal":0},{"indicator":{"id":"SP.DYN.LE00.FE.IN","value":"Life expectancy at birth, female (years)"},"country":{"id":"TN","value":"Tunisia"},"countryiso3code":"TUN","date":"2017","value":78.35,"unit":"","obs_status":"","decimal":0},{"indicator":{"id":"SP.DYN.LE00.FE.IN","value":"Life expectancy at birth, female (years)"},"country":{"id":"TN","value":"Tunisia"},"countryiso3code":"TUN","date":"2016","value":78.165,"unit":"","obs_status":"","decimal":0},{"indicator":{"id":"SP.DYN.LE00.FE.IN","value":"Life expectancy at birth, female (years)"},"country":{"id":"TN","value":"Tunisia"},"countryiso3code":"TUN","date":"2015","value":77.99,"unit":"","obs_status":"","decimal":0},{"indicator":{"id":"SP.DYN.LE00.FE.IN","value":"Life expectancy at birth, female (years)"},"country":{"id":"TR","value":"Turkey"},"countryiso3code":"TUR","date":"2019","value":null,"unit":"","obs_status":"","decimal":0},{"indicator":{"id":"SP.DYN.LE00.FE.IN","value":"Life expectancy at birth, female (years)"},"country":{"id":"TR","value":"Turkey"},"countryiso3code":"TUR","date":"2018","value":80.336,"unit":"","obs_status":"","decimal":0},{"indicator":{"id":"SP.DYN.LE00.FE.IN","value":"Life expectancy at birth, female (years)"},"country":{"id":"TR","value":"Turkey"},"countryiso3code":"TUR","date":"2017","value":80.088,"unit":"","obs_status":"","decimal":0},{"indicator":{"id":"SP.DYN.LE00.FE.IN","value":"Life expectancy at birth, female (years)"},"country":{"id":"TR","value":"Turkey"},"countryiso3code":"TUR","date":"2016","value":79.816,"unit":"","obs_status":"","decimal":0},{"indicator":{"id":"SP.DYN.LE00.FE.IN","value":"Life expectancy at birth, female (years)"},"country":{"id":"TR","value":"Turkey"},"countryiso3code":"TUR","date":"2015","value":79.522,"unit":"","obs_status":"","decimal":0},{"indicator":{"id":"SP.DYN.LE00.FE.IN","value":"Life expectancy at birth, female (years)"},"country":{"id":"TM","value":"Turkmenistan"},"countryiso3code":"TKM","date":"2019","value":null,"unit":"","obs_status":"","decimal":0},{"indicator":{"id":"SP.DYN.LE00.FE.IN","value":"Life expectancy at birth, female (years)"},"country":{"id":"TM","value":"Turkmenistan"},"countryiso3code":"TKM","date":"2018","value":71.584,"unit":"","obs_status":"","decimal":0},{"indicator":{"id":"SP.DYN.LE00.FE.IN","value":"Life expectancy at birth, female (years)"},"country":{"id":"TM","value":"Turkmenistan"},"countryiso3code":"TKM","date":"2017","value":71.449,"unit":"","obs_status":"","decimal":0},{"indicator":{"id":"SP.DYN.LE00.FE.IN","value":"Life expectancy at birth, female (years)"},"country":{"id":"TM","value":"Turkmenistan"},"countryiso3code":"TKM","date":"2016","value":71.312,"unit":"","obs_status":"","decimal":0},{"indicator":{"id":"SP.DYN.LE00.FE.IN","value":"Life expectancy at birth, female (years)"},"country":{"id":"TM","value":"Turkmenistan"},"countryiso3code":"TKM","date":"2015","value":71.168,"unit":"","obs_status":"","decimal":0},{"indicator":{"id":"SP.DYN.LE00.FE.IN","value":"Life expectancy at birth, female (years)"},"country":{"id":"TC","value":"Turks and Caicos Islands"},"countryiso3code":"TCA","date":"2019","value":null,"unit":"","obs_status":"","decimal":0},{"indicator":{"id":"SP.DYN.LE00.FE.IN","value":"Life expectancy at birth, female (years)"},"country":{"id":"TC","value":"Turks and Caicos Islands"},"countryiso3code":"TCA","date":"2018","value":null,"unit":"","obs_status":"","decimal":0},{"indicator":{"id":"SP.DYN.LE00.FE.IN","value":"Life expectancy at birth, female (years)"},"country":{"id":"TC","value":"Turks and Caicos Islands"},"countryiso3code":"TCA","date":"2017","value":null,"unit":"","obs_status":"","decimal":0},{"indicator":{"id":"SP.DYN.LE00.FE.IN","value":"Life expectancy at birth, female (years)"},"country":{"id":"TC","value":"Turks and Caicos Islands"},"countryiso3code":"TCA","date":"2016","value":null,"unit":"","obs_status":"","decimal":0},{"indicator":{"id":"SP.DYN.LE00.FE.IN","value":"Life expectancy at birth, female (years)"},"country":{"id":"TC","value":"Turks and Caicos Islands"},"countryiso3code":"TCA","date":"2015","value":null,"unit":"","obs_status":"","decimal":0},{"indicator":{"id":"SP.DYN.LE00.FE.IN","value":"Life expectancy at birth, female (years)"},"country":{"id":"TV","value":"Tuvalu"},"countryiso3code":"TUV","date":"2019","value":null,"unit":"","obs_status":"","decimal":0},{"indicator":{"id":"SP.DYN.LE00.FE.IN","value":"Life expectancy at birth, female (years)"},"country":{"id":"TV","value":"Tuvalu"},"countryiso3code":"TUV","date":"2018","value":null,"unit":"","obs_status":"","decimal":0},{"indicator":{"id":"SP.DYN.LE00.FE.IN","value":"Life expectancy at birth, female (years)"},"country":{"id":"TV","value":"Tuvalu"},"countryiso3code":"TUV","date":"2017","value":null,"unit":"","obs_status":"","decimal":0},{"indicator":{"id":"SP.DYN.LE00.FE.IN","value":"Life expectancy at birth, female (years)"},"country":{"id":"TV","value":"Tuvalu"},"countryiso3code":"TUV","date":"2016","value":null,"unit":"","obs_status":"","decimal":0},{"indicator":{"id":"SP.DYN.LE00.FE.IN","value":"Life expectancy at birth, female (years)"},"country":{"id":"TV","value":"Tuvalu"},"countryiso3code":"TUV","date":"2015","value":null,"unit":"","obs_status":"","decimal":0},{"indicator":{"id":"SP.DYN.LE00.FE.IN","value":"Life expectancy at birth, female (years)"},"country":{"id":"UG","value":"Uganda"},"countryiso3code":"UGA","date":"2019","value":null,"unit":"","obs_status":"","decimal":0},{"indicator":{"id":"SP.DYN.LE00.FE.IN","value":"Life expectancy at birth, female (years)"},"country":{"id":"UG","value":"Uganda"},"countryiso3code":"UGA","date":"2018","value":65.173,"unit":"","obs_status":"","decimal":0},{"indicator":{"id":"SP.DYN.LE00.FE.IN","value":"Life expectancy at birth, female (years)"},"country":{"id":"UG","value":"Uganda"},"countryiso3code":"UGA","date":"2017","value":64.64,"unit":"","obs_status":"","decimal":0},{"indicator":{"id":"SP.DYN.LE00.FE.IN","value":"Life expectancy at birth, female (years)"},"country":{"id":"UG","value":"Uganda"},"countryiso3code":"UGA","date":"2016","value":64.018,"unit":"","obs_status":"","decimal":0},{"indicator":{"id":"SP.DYN.LE00.FE.IN","value":"Life expectancy at birth, female (years)"},"country":{"id":"UG","value":"Uganda"},"countryiso3code":"UGA","date":"2015","value":63.303,"unit":"","obs_status":"","decimal":0},{"indicator":{"id":"SP.DYN.LE00.FE.IN","value":"Life expectancy at birth, female (years)"},"country":{"id":"UA","value":"Ukraine"},"countryiso3code":"UKR","date":"2019","value":null,"unit":"","obs_status":"","decimal":0},{"indicator":{"id":"SP.DYN.LE00.FE.IN","value":"Life expectancy at birth, female (years)"},"country":{"id":"UA","value":"Ukraine"},"countryiso3code":"UKR","date":"2018","value":76.72,"unit":"","obs_status":"","decimal":0},{"indicator":{"id":"SP.DYN.LE00.FE.IN","value":"Life expectancy at birth, female (years)"},"country":{"id":"UA","value":"Ukraine"},"countryiso3code":"UKR","date":"2017","value":76.78,"unit":"","obs_status":"","decimal":0},{"indicator":{"id":"SP.DYN.LE00.FE.IN","value":"Life expectancy at birth, female (years)"},"country":{"id":"UA","value":"Ukraine"},"countryiso3code":"UKR","date":"2016","value":76.46,"unit":"","obs_status":"","decimal":0},{"indicator":{"id":"SP.DYN.LE00.FE.IN","value":"Life expectancy at birth, female (years)"},"country":{"id":"UA","value":"Ukraine"},"countryiso3code":"UKR","date":"2015","value":76.25,"unit":"","obs_status":"","decimal":0},{"indicator":{"id":"SP.DYN.LE00.FE.IN","value":"Life expectancy at birth, female (years)"},"country":{"id":"AE","value":"United Arab Emirates"},"countryiso3code":"ARE","date":"2019","value":null,"unit":"","obs_status":"","decimal":0},{"indicator":{"id":"SP.DYN.LE00.FE.IN","value":"Life expectancy at birth, female (years)"},"country":{"id":"AE","value":"United Arab Emirates"},"countryiso3code":"ARE","date":"2018","value":79.164,"unit":"","obs_status":"","decimal":0},{"indicator":{"id":"SP.DYN.LE00.FE.IN","value":"Life expectancy at birth, female (years)"},"country":{"id":"AE","value":"United Arab Emirates"},"countryiso3code":"ARE","date":"2017","value":79.008,"unit":"","obs_status":"","decimal":0},{"indicator":{"id":"SP.DYN.LE00.FE.IN","value":"Life expectancy at birth, female (years)"},"country":{"id":"AE","value":"United Arab Emirates"},"countryiso3code":"ARE","date":"2016","value":78.846,"unit":"","obs_status":"","decimal":0},{"indicator":{"id":"SP.DYN.LE00.FE.IN","value":"Life expectancy at birth, female (years)"},"country":{"id":"AE","value":"United Arab Emirates"},"countryiso3code":"ARE","date":"2015","value":78.678,"unit":"","obs_status":"","decimal":0},{"indicator":{"id":"SP.DYN.LE00.FE.IN","value":"Life expectancy at birth, female (years)"},"country":{"id":"GB","value":"United Kingdom"},"countryiso3code":"GBR","date":"2019","value":null,"unit":"","obs_status":"","decimal":0},{"indicator":{"id":"SP.DYN.LE00.FE.IN","value":"Life expectancy at birth, female (years)"},"country":{"id":"GB","value":"United Kingdom"},"countryiso3code":"GBR","date":"2018","value":83.2,"unit":"","obs_status":"","decimal":0},{"indicator":{"id":"SP.DYN.LE00.FE.IN","value":"Life expectancy at birth, female (years)"},"country":{"id":"GB","value":"United Kingdom"},"countryiso3code":"GBR","date":"2017","value":83.1,"unit":"","obs_status":"","decimal":0},{"indicator":{"id":"SP.DYN.LE00.FE.IN","value":"Life expectancy at birth, female (years)"},"country":{"id":"GB","value":"United Kingdom"},"countryiso3code":"GBR","date":"2016","value":83,"unit":"","obs_status":"","decimal":0},{"indicator":{"id":"SP.DYN.LE00.FE.IN","value":"Life expectancy at birth, female (years)"},"country":{"id":"GB","value":"United Kingdom"},"countryiso3code":"GBR","date":"2015","value":82.8,"unit":"","obs_status":"","decimal":0},{"indicator":{"id":"SP.DYN.LE00.FE.IN","value":"Life expectancy at birth, female (years)"},"country":{"id":"US","value":"United States"},"countryiso3code":"USA","date":"2019","value":null,"unit":"","obs_status":"","decimal":0},{"indicator":{"id":"SP.DYN.LE00.FE.IN","value":"Life expectancy at birth, female (years)"},"country":{"id":"US","value":"United States"},"countryiso3code":"USA","date":"2018","value":81.1,"unit":"","obs_status":"","decimal":0},{"indicator":{"id":"SP.DYN.LE00.FE.IN","value":"Life expectancy at birth, female (years)"},"country":{"id":"US","value":"United States"},"countryiso3code":"USA","date":"2017","value":81.1,"unit":"","obs_status":"","decimal":0},{"indicator":{"id":"SP.DYN.LE00.FE.IN","value":"Life expectancy at birth, female (years)"},"country":{"id":"US","value":"United States"},"countryiso3code":"USA","date":"2016","value":81.1,"unit":"","obs_status":"","decimal":0},{"indicator":{"id":"SP.DYN.LE00.FE.IN","value":"Life expectancy at birth, female (years)"},"country":{"id":"US","value":"United States"},"countryiso3code":"USA","date":"2015","value":81.2,"unit":"","obs_status":"","decimal":0},{"indicator":{"id":"SP.DYN.LE00.FE.IN","value":"Life expectancy at birth, female (years)"},"country":{"id":"UY","value":"Uruguay"},"countryiso3code":"URY","date":"2019","value":null,"unit":"","obs_status":"","decimal":0},{"indicator":{"id":"SP.DYN.LE00.FE.IN","value":"Life expectancy at birth, female (years)"},"country":{"id":"UY","value":"Uruguay"},"countryiso3code":"URY","date":"2018","value":81.359,"unit":"","obs_status":"","decimal":0},{"indicator":{"id":"SP.DYN.LE00.FE.IN","value":"Life expectancy at birth, female (years)"},"country":{"id":"UY","value":"Uruguay"},"countryiso3code":"URY","date":"2017","value":81.238,"unit":"","obs_status":"","decimal":0},{"indicator":{"id":"SP.DYN.LE00.FE.IN","value":"Life expectancy at birth, female (years)"},"country":{"id":"UY","value":"Uruguay"},"countryiso3code":"URY","date":"2016","value":81.115,"unit":"","obs_status":"","decimal":0},{"indicator":{"id":"SP.DYN.LE00.FE.IN","value":"Life expectancy at birth, female (years)"},"country":{"id":"UY","value":"Uruguay"},"countryiso3code":"URY","date":"2015","value":80.992,"unit":"","obs_status":"","decimal":0},{"indicator":{"id":"SP.DYN.LE00.FE.IN","value":"Life expectancy at birth, female (years)"},"country":{"id":"UZ","value":"Uzbekistan"},"countryiso3code":"UZB","date":"2019","value":null,"unit":"","obs_status":"","decimal":0},{"indicator":{"id":"SP.DYN.LE00.FE.IN","value":"Life expectancy at birth, female (years)"},"country":{"id":"UZ","value":"Uzbekistan"},"countryiso3code":"UZB","date":"2018","value":73.676,"unit":"","obs_status":"","decimal":0},{"indicator":{"id":"SP.DYN.LE00.FE.IN","value":"Life expectancy at birth, female (years)"},"country":{"id":"UZ","value":"Uzbekistan"},"countryiso3code":"UZB","date":"2017","value":73.508,"unit":"","obs_status":"","decimal":0},{"indicator":{"id":"SP.DYN.LE00.FE.IN","value":"Life expectancy at birth, female (years)"},"country":{"id":"UZ","value":"Uzbekistan"},"countryiso3code":"UZB","date":"2016","value":73.328,"unit":"","obs_status":"","decimal":0},{"indicator":{"id":"SP.DYN.LE00.FE.IN","value":"Life expectancy at birth, female (years)"},"country":{"id":"UZ","value":"Uzbekistan"},"countryiso3code":"UZB","date":"2015","value":73.145,"unit":"","obs_status":"","decimal":0},{"indicator":{"id":"SP.DYN.LE00.FE.IN","value":"Life expectancy at birth, female (years)"},"country":{"id":"VU","value":"Vanuatu"},"countryiso3code":"VUT","date":"2019","value":null,"unit":"","obs_status":"","decimal":0},{"indicator":{"id":"SP.DYN.LE00.FE.IN","value":"Life expectancy at birth, female (years)"},"country":{"id":"VU","value":"Vanuatu"},"countryiso3code":"VUT","date":"2018","value":71.99,"unit":"","obs_status":"","decimal":0},{"indicator":{"id":"SP.DYN.LE00.FE.IN","value":"Life expectancy at birth, female (years)"},"country":{"id":"VU","value":"Vanuatu"},"countryiso3code":"VUT","date":"2017","value":71.83,"unit":"","obs_status":"","decimal":0},{"indicator":{"id":"SP.DYN.LE00.FE.IN","value":"Life expectancy at birth, female (years)"},"country":{"id":"VU","value":"Vanuatu"},"countryiso3code":"VUT","date":"2016","value":71.674,"unit":"","obs_status":"","decimal":0},{"indicator":{"id":"SP.DYN.LE00.FE.IN","value":"Life expectancy at birth, female (years)"},"country":{"id":"VU","value":"Vanuatu"},"countryiso3code":"VUT","date":"2015","value":71.522,"unit":"","obs_status":"","decimal":0},{"indicator":{"id":"SP.DYN.LE00.FE.IN","value":"Life expectancy at birth, female (years)"},"country":{"id":"VE","value":"Venezuela, RB"},"countryiso3code":"VEN","date":"2019","value":null,"unit":"","obs_status":"","decimal":0},{"indicator":{"id":"SP.DYN.LE00.FE.IN","value":"Life expectancy at birth, female (years)"},"country":{"id":"VE","value":"Venezuela, RB"},"countryiso3code":"VEN","date":"2018","value":76.074,"unit":"","obs_status":"","decimal":0},{"indicator":{"id":"SP.DYN.LE00.FE.IN","value":"Life expectancy at birth, female (years)"},"country":{"id":"VE","value":"Venezuela, RB"},"countryiso3code":"VEN","date":"2017","value":76.194,"unit":"","obs_status":"","decimal":0},{"indicator":{"id":"SP.DYN.LE00.FE.IN","value":"Life expectancy at birth, female (years)"},"country":{"id":"VE","value":"Venezuela, RB"},"countryiso3code":"VEN","date":"2016","value":76.353,"unit":"","obs_status":"","decimal":0},{"indicator":{"id":"SP.DYN.LE00.FE.IN","value":"Life expectancy at birth, female (years)"},"country":{"id":"VE","value":"Venezuela, RB"},"countryiso3code":"VEN","date":"2015","value":76.531,"unit":"","obs_status":"","decimal":0},{"indicator":{"id":"SP.DYN.LE00.FE.IN","value":"Life expectancy at birth, female (years)"},"country":{"id":"VN","value":"Vietnam"},"countryiso3code":"VNM","date":"2019","value":null,"unit":"","obs_status":"","decimal":0},{"indicator":{"id":"SP.DYN.LE00.FE.IN","value":"Life expectancy at birth, female (years)"},"country":{"id":"VN","value":"Vietnam"},"countryiso3code":"VNM","date":"2018","value":79.442,"unit":"","obs_status":"","decimal":0},{"indicator":{"id":"SP.DYN.LE00.FE.IN","value":"Life expectancy at birth, female (years)"},"country":{"id":"VN","value":"Vietnam"},"countryiso3code":"VNM","date":"2017","value":79.366,"unit":"","obs_status":"","decimal":0},{"indicator":{"id":"SP.DYN.LE00.FE.IN","value":"Life expectancy at birth, female (years)"},"country":{"id":"VN","value":"Vietnam"},"countryiso3code":"VNM","date":"2016","value":79.294,"unit":"","obs_status":"","decimal":0},{"indicator":{"id":"SP.DYN.LE00.FE.IN","value":"Life expectancy at birth, female (years)"},"country":{"id":"VN","value":"Vietnam"},"countryiso3code":"VNM","date":"2015","value":79.226,"unit":"","obs_status":"","decimal":0},{"indicator":{"id":"SP.DYN.LE00.FE.IN","value":"Life expectancy at birth, female (years)"},"country":{"id":"VI","value":"Virgin Islands (U.S.)"},"countryiso3code":"VIR","date":"2019","value":null,"unit":"","obs_status":"","decimal":0},{"indicator":{"id":"SP.DYN.LE00.FE.IN","value":"Life expectancy at birth, female (years)"},"country":{"id":"VI","value":"Virgin Islands (U.S.)"},"countryiso3code":"VIR","date":"2018","value":83,"unit":"","obs_status":"","decimal":0},{"indicator":{"id":"SP.DYN.LE00.FE.IN","value":"Life expectancy at birth, female (years)"},"country":{"id":"VI","value":"Virgin Islands (U.S.)"},"countryiso3code":"VIR","date":"2017","value":82.8,"unit":"","obs_status":"","decimal":0},{"indicator":{"id":"SP.DYN.LE00.FE.IN","value":"Life expectancy at birth, female (years)"},"country":{"id":"VI","value":"Virgin Islands (U.S.)"},"countryiso3code":"VIR","date":"2016","value":82.7,"unit":"","obs_status":"","decimal":0},{"indicator":{"id":"SP.DYN.LE00.FE.IN","value":"Life expectancy at birth, female (years)"},"country":{"id":"VI","value":"Virgin Islands (U.S.)"},"countryiso3code":"VIR","date":"2015","value":82.6,"unit":"","obs_status":"","decimal":0},{"indicator":{"id":"SP.DYN.LE00.FE.IN","value":"Life expectancy at birth, female (years)"},"country":{"id":"PS","value":"West Bank and Gaza"},"countryiso3code":"PSE","date":"2019","value":null,"unit":"","obs_status":"","decimal":0},{"indicator":{"id":"SP.DYN.LE00.FE.IN","value":"Life expectancy at birth, female (years)"},"country":{"id":"PS","value":"West Bank and Gaza"},"countryiso3code":"PSE","date":"2018","value":75.595,"unit":"","obs_status":"","decimal":0},{"indicator":{"id":"SP.DYN.LE00.FE.IN","value":"Life expectancy at birth, female (years)"},"country":{"id":"PS","value":"West Bank and Gaza"},"countryiso3code":"PSE","date":"2017","value":75.446,"unit":"","obs_status":"","decimal":0},{"indicator":{"id":"SP.DYN.LE00.FE.IN","value":"Life expectancy at birth, female (years)"},"country":{"id":"PS","value":"West Bank and Gaza"},"countryiso3code":"PSE","date":"2016","value":75.307,"unit":"","obs_status":"","decimal":0},{"indicator":{"id":"SP.DYN.LE00.FE.IN","value":"Life expectancy at birth, female (years)"},"country":{"id":"PS","value":"West Bank and Gaza"},"countryiso3code":"PSE","date":"2015","value":75.178,"unit":"","obs_status":"","decimal":0},{"indicator":{"id":"SP.DYN.LE00.FE.IN","value":"Life expectancy at birth, female (years)"},"country":{"id":"YE","value":"Yemen, Rep."},"countryiso3code":"YEM","date":"2019","value":null,"unit":"","obs_status":"","decimal":0},{"indicator":{"id":"SP.DYN.LE00.FE.IN","value":"Life expectancy at birth, female (years)"},"country":{"id":"YE","value":"Yemen, Rep."},"countryiso3code":"YEM","date":"2018","value":67.795,"unit":"","obs_status":"","decimal":0},{"indicator":{"id":"SP.DYN.LE00.FE.IN","value":"Life expectancy at birth, female (years)"},"country":{"id":"YE","value":"Yemen, Rep."},"countryiso3code":"YEM","date":"2017","value":67.786,"unit":"","obs_status":"","decimal":0},{"indicator":{"id":"SP.DYN.LE00.FE.IN","value":"Life expectancy at birth, female (years)"},"country":{"id":"YE","value":"Yemen, Rep."},"countryiso3code":"YEM","date":"2016","value":67.789,"unit":"","obs_status":"","decimal":0},{"indicator":{"id":"SP.DYN.LE00.FE.IN","value":"Life expectancy at birth, female (years)"},"country":{"id":"YE","value":"Yemen, Rep."},"countryiso3code":"YEM","date":"2015","value":67.789,"unit":"","obs_status":"","decimal":0},{"indicator":{"id":"SP.DYN.LE00.FE.IN","value":"Life expectancy at birth, female (years)"},"country":{"id":"ZM","value":"Zambia"},"countryiso3code":"ZMB","date":"2019","value":null,"unit":"","obs_status":"","decimal":0},{"indicator":{"id":"SP.DYN.LE00.FE.IN","value":"Life expectancy at birth, female (years)"},"country":{"id":"ZM","value":"Zambia"},"countryiso3code":"ZMB","date":"2018","value":66.447,"unit":"","obs_status":"","decimal":0},{"indicator":{"id":"SP.DYN.LE00.FE.IN","value":"Life expectancy at birth, female (years)"},"country":{"id":"ZM","value":"Zambia"},"countryiso3code":"ZMB","date":"2017","value":65.878,"unit":"","obs_status":"","decimal":0},{"indicator":{"id":"SP.DYN.LE00.FE.IN","value":"Life expectancy at birth, female (years)"},"country":{"id":"ZM","value":"Zambia"},"countryiso3code":"ZMB","date":"2016","value":65.168,"unit":"","obs_status":"","decimal":0},{"indicator":{"id":"SP.DYN.LE00.FE.IN","value":"Life expectancy at birth, female (years)"},"country":{"id":"ZM","value":"Zambia"},"countryiso3code":"ZMB","date":"2015","value":64.297,"unit":"","obs_status":"","decimal":0},{"indicator":{"id":"SP.DYN.LE00.FE.IN","value":"Life expectancy at birth, female (years)"},"country":{"id":"ZW","value":"Zimbabwe"},"countryiso3code":"ZWE","date":"2019","value":null,"unit":"","obs_status":"","decimal":0},{"indicator":{"id":"SP.DYN.LE00.FE.IN","value":"Life expectancy at birth, female (years)"},"country":{"id":"ZW","value":"Zimbabwe"},"countryiso3code":"ZWE","date":"2018","value":62.598,"unit":"","obs_status":"","decimal":0},{"indicator":{"id":"SP.DYN.LE00.FE.IN","value":"Life expectancy at birth, female (years)"},"country":{"id":"ZW","value":"Zimbabwe"},"countryiso3code":"ZWE","date":"2017","value":62.22,"unit":"","obs_status":"","decimal":0},{"indicator":{"id":"SP.DYN.LE00.FE.IN","value":"Life expectancy at birth, female (years)"},"country":{"id":"ZW","value":"Zimbabwe"},"countryiso3code":"ZWE","date":"2016","value":61.719,"unit":"","obs_status":"","decimal":0},{"indicator":{"id":"SP.DYN.LE00.FE.IN","value":"Life expectancy at birth, female (years)"},"country":{"id":"ZW","value":"Zimbabwe"},"countryiso3code":"ZWE","date":"2015","value":60.984,"unit":"","obs_status":"","decimal":0}]]