[{"page":7,"pages":7,"per_page":200,"total":1320,"sourceid":"2","lastupdated":"2020-05-19"},[{"indicator":{"id":"SP.DYN.AMRT.MA","value":"Mortality rate, adult, male (per 1,000 male adults)"},"country":{"id":"TL","value":"Timor-Leste"},"countryiso3code":"TLS","date":"2019","value":null,"unit":"","obs_status":"","decimal":0},{"indicator":{"id":"SP.DYN.AMRT.MA","value":"Mortality rate, adult, male (per 1,000 male adults)"},"country":{"id":"TL","value":"Timor-Leste"},"countryiso3code":"TLS","date":"2018","value":168.862,"unit":"","obs_status":"","decimal":0},{"indicator":{"id":"SP.DYN.AMRT.MA","value":"Mortality rate, adult, male (per 1,000 male adults)"},"country":{"id":"TL","value":"Timor-Leste"},"countryiso3code":"TLS","date":"2017","value":170.454,"unit":"","obs_status":"","decimal":0},{"indicator":{"id":"SP.DYN.AMRT.MA","value":"Mortality rate, adult, male (per 1,000 male adults)"},"country":{"id":"TL","value":"Timor-Leste"},"countryiso3code":"TLS","date":"2016","value":172.499,"unit":"","obs_status":"","decimal":0},{"indicator":{"id":"SP.DYN.AMRT.MA","value":"Mortality rate, adult, male (per 1,000 male adults)"},"country":{"id":"TL","value":"Timor-Leste"},"countryiso3code":"TLS","date":"2015","value":174.544,"unit":"","obs_status":"","decimal":0},{"indicator":{"id":"SP.DYN.AMRT.MA","value":"Mortality rate, adult, male (per 1,000 male adults)"},"country":{"id":"TG","value":"Togo"},"countryiso3code":"TGO","date":"2019","value":null,"unit":"","obs_status":"","decimal":0},{"indicator":{"id":"SP.DYN.AMRT.MA","value":"Mortality rate, adult, male (per 1,000 male adults)"},"country":{"id":"TG","value":"Togo"},"countryiso3code":"TGO","date":"2018","value":277.736,"unit":"","obs_status":"","decimal":0},{"indicator":{"id":"SP.DYN.AMRT.MA","value":"Mortality rate, adult, male (per 1,000 male adults)"},"country":{"id":"TG","value":"Togo"},"countryiso3code":"TGO","date":"2017","value":281.289,"unit":"","obs_status":"","decimal":0},{"indicator":{"id":"SP.DYN.AMRT.MA","value":"Mortality rate, adult, male (per 1,000 male adults)"},"country":{"id":"TG","value":"Togo"},"countryiso3code":"TGO","date":"2016","value":284.646,"unit":"","obs_status":"","decimal":0},{"indicator":{"id":"SP.DYN.AMRT.MA","value":"Mortality rate, adult, male (per 1,000 male adults)"},"country":{"id":"TG","value":"Togo"},"countryiso3code":"TGO","date":"2015","value":288.003,"unit":"","obs_status":"","decimal":0},{"indicator":{"id":"SP.DYN.AMRT.MA","value":"Mortality rate, adult, male (per 1,000 male adults)"},"country":{"id":"TO","value":"Tonga"},"countryiso3code":"TON","date":"2019","value":null,"unit":"","obs_status":"","decimal":0},{"indicator":{"id":"SP.DYN.AMRT.MA","value":"Mortality rate, adult, male (per 1,000 male adults)"},"country":{"id":"TO","value":"Tonga"},"countryiso3code":"TON","date":"2018","value":213.56,"unit":"","obs_status":"","decimal":0},{"indicator":{"id":"SP.DYN.AMRT.MA","value":"Mortality rate, adult, male (per 1,000 male adults)"},"country":{"id":"TO","value":"Tonga"},"countryiso3code":"TON","date":"2017","value":163.286,"unit":"","obs_status":"","decimal":0},{"indicator":{"id":"SP.DYN.AMRT.MA","value":"Mortality rate, adult, male (per 1,000 male adults)"},"country":{"id":"TO","value":"Tonga"},"countryiso3code":"TON","date":"2016","value":165.189,"unit":"","obs_status":"","decimal":0},{"indicator":{"id":"SP.DYN.AMRT.MA","value":"Mortality rate, adult, male (per 1,000 male adults)"},"country":{"id":"TO","value":"Tonga"},"countryiso3code":"TON","date":"2015","value":167.091,"unit":"","obs_status":"","decimal":0},{"indicator":{"id":"SP.DYN.AMRT.MA","value":"Mortality rate, adult, male (per 1,000 male adults)"},"country":{"id":"TT","value":"Trinidad and Tobago"},"countryiso3code":"TTO","date":"2019","value":null,"unit":"","obs_status":"","decimal":0},{"indicator":{"id":"SP.DYN.AMRT.MA","value":"Mortality rate, adult, male (per 1,000 male adults)"},"country":{"id":"TT","value":"Trinidad and Tobago"},"countryiso3code":"TTO","date":"2018","value":186.336,"unit":"","obs_status":"","decimal":0},{"indicator":{"id":"SP.DYN.AMRT.MA","value":"Mortality rate, adult, male (per 1,000 male adults)"},"country":{"id":"TT","value":"Trinidad and Tobago"},"countryiso3code":"TTO","date":"2017","value":212.905,"unit":"","obs_status":"","decimal":0},{"indicator":{"id":"SP.DYN.AMRT.MA","value":"Mortality rate, adult, male (per 1,000 male adults)"},"country":{"id":"TT","value":"Trinidad and Tobago"},"countryiso3code":"TTO","date":"2016","value":214.11,"unit":"","obs_status":"","decimal":0},{"indicator":{"id":"SP.DYN.AMRT.MA","value":"Mortality rate, adult, male (per 1,000 male adults)"},"country":{"id":"TT","value":"Trinidad and Tobago"},"countryiso3code":"TTO","date":"2015","value":215.315,"unit":"","obs_status":"","decimal":0},{"indicator":{"id":"SP.DYN.AMRT.MA","value":"Mortality rate, adult, male (per 1,000 male adults)"},"country":{"id":"TN","value":"Tunisia"},"countryiso3code":"TUN","date":"2019","value":null,"unit":"","obs_status":"","decimal":0},{"indicator":{"id":"SP.DYN.AMRT.MA","value":"Mortality rate, adult, male (per 1,000 male adults)"},"country":{"id":"TN","value":"Tunisia"},"countryiso3code":"TUN","date":"2018","value":106.668,"unit":"","obs_status":"","decimal":0},{"indicator":{"id":"SP.DYN.AMRT.MA","value":"Mortality rate, adult, male (per 1,000 male adults)"},"country":{"id":"TN","value":"Tunisia"},"countryiso3code":"TUN","date":"2017","value":108.327,"unit":"","obs_status":"","decimal":0},{"indicator":{"id":"SP.DYN.AMRT.MA","value":"Mortality rate, adult, male (per 1,000 male adults)"},"country":{"id":"TN","value":"Tunisia"},"countryiso3code":"TUN","date":"2016","value":110.181,"unit":"","obs_status":"","decimal":0},{"indicator":{"id":"SP.DYN.AMRT.MA","value":"Mortality rate, adult, male (per 1,000 male adults)"},"country":{"id":"TN","value":"Tunisia"},"countryiso3code":"TUN","date":"2015","value":112.036,"unit":"","obs_status":"","decimal":0},{"indicator":{"id":"SP.DYN.AMRT.MA","value":"Mortality rate, adult, male (per 1,000 male adults)"},"country":{"id":"TR","value":"Turkey"},"countryiso3code":"TUR","date":"2019","value":null,"unit":"","obs_status":"","decimal":0},{"indicator":{"id":"SP.DYN.AMRT.MA","value":"Mortality rate, adult, male (per 1,000 male adults)"},"country":{"id":"TR","value":"Turkey"},"countryiso3code":"TUR","date":"2018","value":119.237,"unit":"","obs_status":"","decimal":0},{"indicator":{"id":"SP.DYN.AMRT.MA","value":"Mortality rate, adult, male (per 1,000 male adults)"},"country":{"id":"TR","value":"Turkey"},"countryiso3code":"TUR","date":"2017","value":135.409,"unit":"","obs_status":"","decimal":0},{"indicator":{"id":"SP.DYN.AMRT.MA","value":"Mortality rate, adult, male (per 1,000 male adults)"},"country":{"id":"TR","value":"Turkey"},"countryiso3code":"TUR","date":"2016","value":137.763,"unit":"","obs_status":"","decimal":0},{"indicator":{"id":"SP.DYN.AMRT.MA","value":"Mortality rate, adult, male (per 1,000 male adults)"},"country":{"id":"TR","value":"Turkey"},"countryiso3code":"TUR","date":"2015","value":140.118,"unit":"","obs_status":"","decimal":0},{"indicator":{"id":"SP.DYN.AMRT.MA","value":"Mortality rate, adult, male (per 1,000 male adults)"},"country":{"id":"TM","value":"Turkmenistan"},"countryiso3code":"TKM","date":"2019","value":null,"unit":"","obs_status":"","decimal":0},{"indicator":{"id":"SP.DYN.AMRT.MA","value":"Mortality rate, adult, male (per 1,000 male adults)"},"country":{"id":"TM","value":"Turkmenistan"},"countryiso3code":"TKM","date":"2018","value":243.687,"unit":"","obs_status":"","decimal":0},{"indicator":{"id":"SP.DYN.AMRT.MA","value":"Mortality rate, adult, male (per 1,000 male adults)"},"country":{"id":"TM","value":"Turkmenistan"},"countryiso3code":"TKM","date":"2017","value":244.985,"unit":"","obs_status":"","decimal":0},{"indicator":{"id":"SP.DYN.AMRT.MA","value":"Mortality rate, adult, male (per 1,000 male adults)"},"country":{"id":"TM","value":"Turkmenistan"},"countryiso3code":"TKM","date":"2016","value":246.439,"unit":"","obs_status":"","decimal":0},{"indicator":{"id":"SP.DYN.AMRT.MA","value":"Mortality rate, adult, male (per 1,000 male adults)"},"country":{"id":"TM","value":"Turkmenistan"},"countryiso3code":"TKM","date":"2015","value":247.893,"unit":"","obs_status":"","decimal":0},{"indicator":{"id":"SP.DYN.AMRT.MA","value":"Mortality rate, adult, male (per 1,000 male adults)"},"country":{"id":"TC","value":"Turks and Caicos Islands"},"countryiso3code":"TCA","date":"2019","value":null,"unit":"","obs_status":"","decimal":0},{"indicator":{"id":"SP.DYN.AMRT.MA","value":"Mortality rate, adult, male (per 1,000 male adults)"},"country":{"id":"TC","value":"Turks and Caicos Islands"},"countryiso3code":"TCA","date":"2018","value":null,"unit":"","obs_status":"","decimal":0},{"indicator":{"id":"SP.DYN.AMRT.MA","value":"Mortality rate, adult, male (per 1,000 male adults)"},"country":{"id":"TC","value":"Turks and Caicos Islands"},"countryiso3code":"TCA","date":"2017","value":null,"unit":"","obs_status":"","decimal":0},{"indicator":{"id":"SP.DYN.AMRT.MA","value":"Mortality rate, adult, male (per 1,000 male adults)"},"country":{"id":"TC","value":"Turks and Caicos Islands"},"countryiso3code":"TCA","date":"2016","value":null,"unit":"","obs_status":"","decimal":0},{"indicator":{"id":"SP.DYN.AMRT.MA","value":"Mortality rate, adult, male (per 1,000 male adults)"},"country":{"id":"TC","value":"Turks and Caicos Islands"},"countryiso3code":"TCA","date":"2015","value":null,"unit":"","obs_status":"","decimal":0},{"indicator":{"id":"SP.DYN.AMRT.MA","value":"Mortality rate, adult, male (per 1,000 male adults)"},"country":{"id":"TV","value":"Tuvalu"},"countryiso3code":"TUV","date":"2019","value":null,"unit":"","obs_status":"","decimal":0},{"indicator":{"id":"SP.DYN.AMRT.MA","value":"Mortality rate, adult, male (per 1,000 male adults)"},"country":{"id":"TV","value":"Tuvalu"},"countryiso3code":"TUV","date":"2018","value":null,"unit":"","obs_status":"","decimal":0},{"indicator":{"id":"SP.DYN.AMRT.MA","value":"Mortality rate, adult, male (per 1,000 male adults)"},"country":{"id":"TV","value":"Tuvalu"},"countryiso3code":"TUV","date":"2017","value":null,"unit":"","obs_status":"","decimal":0},{"indicator":{"id":"SP.DYN.AMRT.MA","value":"Mortality rate, adult, male (per 1,000 male adults)"},"country":{"id":"TV","value":"Tuvalu"},"countryiso3code":"TUV","date":"2016","value":null,"unit":"","obs_status":"","decimal":0},{"indicator":{"id":"SP.DYN.AMRT.MA","value":"Mortality rate, adult, male (per 1,000 male adults)"},"country":{"id":"TV","value":"Tuvalu"},"countryiso3code":"TUV","date":"2015","value":null,"unit":"","obs_status":"","decimal":0},{"indicator":{"id":"SP.DYN.AMRT.MA","value":"Mortality rate, adult, male (per 1,000 male adults)"},"country":{"id":"UG","value":"Uganda"},"countryiso3code":"UGA","date":"2019","value":null,"unit":"","obs_status":"","decimal":0},{"indicator":{"id":"SP.DYN.AMRT.MA","value":"Mortality rate, adult, male (per 1,000 male adults)"},"country":{"id":"UG","value":"Uganda"},"countryiso3code":"UGA","date":"2018","value":302.371,"unit":"","obs_status":"","decimal":0},{"indicator":{"id":"SP.DYN.AMRT.MA","value":"Mortality rate, adult, male (per 1,000 male adults)"},"country":{"id":"UG","value":"Uganda"},"countryiso3code":"UGA","date":"2017","value":340.348,"unit":"","obs_status":"","decimal":0},{"indicator":{"id":"SP.DYN.AMRT.MA","value":"Mortality rate, adult, male (per 1,000 male adults)"},"country":{"id":"UG","value":"Uganda"},"countryiso3code":"UGA","date":"2016","value":345.975,"unit":"","obs_status":"","decimal":0},{"indicator":{"id":"SP.DYN.AMRT.MA","value":"Mortality rate, adult, male (per 1,000 male adults)"},"country":{"id":"UG","value":"Uganda"},"countryiso3code":"UGA","date":"2015","value":351.601,"unit":"","obs_status":"","decimal":0},{"indicator":{"id":"SP.DYN.AMRT.MA","value":"Mortality rate, adult, male (per 1,000 male adults)"},"country":{"id":"UA","value":"Ukraine"},"countryiso3code":"UKR","date":"2019","value":null,"unit":"","obs_status":"","decimal":0},{"indicator":{"id":"SP.DYN.AMRT.MA","value":"Mortality rate, adult, male (per 1,000 male adults)"},"country":{"id":"UA","value":"Ukraine"},"countryiso3code":"UKR","date":"2018","value":null,"unit":"","obs_status":"","decimal":0},{"indicator":{"id":"SP.DYN.AMRT.MA","value":"Mortality rate, adult, male (per 1,000 male adults)"},"country":{"id":"UA","value":"Ukraine"},"countryiso3code":"UKR","date":"2017","value":null,"unit":"","obs_status":"","decimal":0},{"indicator":{"id":"SP.DYN.AMRT.MA","value":"Mortality rate, adult, male (per 1,000 male adults)"},"country":{"id":"UA","value":"Ukraine"},"countryiso3code":"UKR","date":"2016","value":null,"unit":"","obs_status":"","decimal":0},{"indicator":{"id":"SP.DYN.AMRT.MA","value":"Mortality rate, adult, male (per 1,000 male adults)"},"country":{"id":"UA","value":"Ukraine"},"countryiso3code":"UKR","date":"2015","value":null,"unit":"","obs_status":"","decimal":0},{"indicator":{"id":"SP.DYN.AMRT.MA","value":"Mortality rate, adult, male (per 1,000 male adults)"},"country":{"id":"AE","value":"United Arab Emirates"},"countryiso3code":"ARE","date":"2019","value":null,"unit":"","obs_status":"","decimal":0},{"indicator":{"id":"SP.DYN.AMRT.MA","value":"Mortality rate, adult, male (per 1,000 male adults)"},"country":{"id":"AE","value":"United Arab Emirates"},"countryiso3code":"ARE","date":"2018","value":69.555,"unit":"","obs_status":"","decimal":0},{"indicator":{"id":"SP.DYN.AMRT.MA","value":"Mortality rate, adult, male (per 1,000 male adults)"},"country":{"id":"AE","value":"United Arab Emirates"},"countryiso3code":"ARE","date":"2017","value":78.066,"unit":"","obs_status":"","decimal":0},{"indicator":{"id":"SP.DYN.AMRT.MA","value":"Mortality rate, adult, male (per 1,000 male adults)"},"country":{"id":"AE","value":"United Arab Emirates"},"countryiso3code":"ARE","date":"2016","value":79.29,"unit":"","obs_status":"","decimal":0},{"indicator":{"id":"SP.DYN.AMRT.MA","value":"Mortality rate, adult, male (per 1,000 male adults)"},"country":{"id":"AE","value":"United Arab Emirates"},"countryiso3code":"ARE","date":"2015","value":80.514,"unit":"","obs_status":"","decimal":0},{"indicator":{"id":"SP.DYN.AMRT.MA","value":"Mortality rate, adult, male (per 1,000 male adults)"},"country":{"id":"GB","value":"United Kingdom"},"countryiso3code":"GBR","date":"2019","value":null,"unit":"","obs_status":"","decimal":0},{"indicator":{"id":"SP.DYN.AMRT.MA","value":"Mortality rate, adult, male (per 1,000 male adults)"},"country":{"id":"GB","value":"United Kingdom"},"countryiso3code":"GBR","date":"2018","value":null,"unit":"","obs_status":"","decimal":0},{"indicator":{"id":"SP.DYN.AMRT.MA","value":"Mortality rate, adult, male (per 1,000 male adults)"},"country":{"id":"GB","value":"United Kingdom"},"countryiso3code":"GBR","date":"2017","value":null,"unit":"","obs_status":"","decimal":0},{"indicator":{"id":"SP.DYN.AMRT.MA","value":"Mortality rate, adult, male (per 1,000 male adults)"},"country":{"id":"GB","value":"United Kingdom"},"countryiso3code":"GBR","date":"2016","value":86.107,"unit":"","obs_status":"","decimal":0},{"indicator":{"id":"SP.DYN.AMRT.MA","value":"Mortality rate, adult, male (per 1,000 male adults)"},"country":{"id":"GB","value":"United Kingdom"},"countryiso3code":"GBR","date":"2015","value":84.738,"unit":"","obs_status":"","decimal":0},{"indicator":{"id":"SP.DYN.AMRT.MA","value":"Mortality rate, adult, male (per 1,000 male adults)"},"country":{"id":"US","value":"United States"},"countryiso3code":"USA","date":"2019","value":null,"unit":"","obs_status":"","decimal":0},{"indicator":{"id":"SP.DYN.AMRT.MA","value":"Mortality rate, adult, male (per 1,000 male adults)"},"country":{"id":"US","value":"United States"},"countryiso3code":"USA","date":"2018","value":null,"unit":"","obs_status":"","decimal":0},{"indicator":{"id":"SP.DYN.AMRT.MA","value":"Mortality rate, adult, male (per 1,000 male adults)"},"country":{"id":"US","value":"United States"},"countryiso3code":"USA","date":"2017","value":139.141,"unit":"","obs_status":"","decimal":0},{"indicator":{"id":"SP.DYN.AMRT.MA","value":"Mortality rate, adult, male (per 1,000 male adults)"},"country":{"id":"US","value":"United States"},"countryiso3code":"USA","date":"2016","value":138.455,"unit":"","obs_status":"","decimal":0},{"indicator":{"id":"SP.DYN.AMRT.MA","value":"Mortality rate, adult, male (per 1,000 male adults)"},"country":{"id":"US","value":"United States"},"countryiso3code":"USA","date":"2015","value":134.263,"unit":"","obs_status":"","decimal":0},{"indicator":{"id":"SP.DYN.AMRT.MA","value":"Mortality rate, adult, male (per 1,000 male adults)"},"country":{"id":"UY","value":"Uruguay"},"countryiso3code":"URY","date":"2019","value":null,"unit":"","obs_status":"","decimal":0},{"indicator":{"id":"SP.DYN.AMRT.MA","value":"Mortality rate, adult, male (per 1,000 male adults)"},"country":{"id":"UY","value":"Uruguay"},"countryiso3code":"URY","date":"2018","value":139.322,"unit":"","obs_status":"","decimal":0},{"indicator":{"id":"SP.DYN.AMRT.MA","value":"Mortality rate, adult, male (per 1,000 male adults)"},"country":{"id":"UY","value":"Uruguay"},"countryiso3code":"URY","date":"2017","value":131.872,"unit":"","obs_status":"","decimal":0},{"indicator":{"id":"SP.DYN.AMRT.MA","value":"Mortality rate, adult, male (per 1,000 male adults)"},"country":{"id":"UY","value":"Uruguay"},"countryiso3code":"URY","date":"2016","value":133.439,"unit":"","obs_status":"","decimal":0},{"indicator":{"id":"SP.DYN.AMRT.MA","value":"Mortality rate, adult, male (per 1,000 male adults)"},"country":{"id":"UY","value":"Uruguay"},"countryiso3code":"URY","date":"2015","value":135.006,"unit":"","obs_status":"","decimal":0},{"indicator":{"id":"SP.DYN.AMRT.MA","value":"Mortality rate, adult, male (per 1,000 male adults)"},"country":{"id":"UZ","value":"Uzbekistan"},"countryiso3code":"UZB","date":"2019","value":null,"unit":"","obs_status":"","decimal":0},{"indicator":{"id":"SP.DYN.AMRT.MA","value":"Mortality rate, adult, male (per 1,000 male adults)"},"country":{"id":"UZ","value":"Uzbekistan"},"countryiso3code":"UZB","date":"2018","value":169.704,"unit":"","obs_status":"","decimal":0},{"indicator":{"id":"SP.DYN.AMRT.MA","value":"Mortality rate, adult, male (per 1,000 male adults)"},"country":{"id":"UZ","value":"Uzbekistan"},"countryiso3code":"UZB","date":"2017","value":170.549,"unit":"","obs_status":"","decimal":0},{"indicator":{"id":"SP.DYN.AMRT.MA","value":"Mortality rate, adult, male (per 1,000 male adults)"},"country":{"id":"UZ","value":"Uzbekistan"},"countryiso3code":"UZB","date":"2016","value":173.414,"unit":"","obs_status":"","decimal":0},{"indicator":{"id":"SP.DYN.AMRT.MA","value":"Mortality rate, adult, male (per 1,000 male adults)"},"country":{"id":"UZ","value":"Uzbekistan"},"countryiso3code":"UZB","date":"2015","value":176.279,"unit":"","obs_status":"","decimal":0},{"indicator":{"id":"SP.DYN.AMRT.MA","value":"Mortality rate, adult, male (per 1,000 male adults)"},"country":{"id":"VU","value":"Vanuatu"},"countryiso3code":"VUT","date":"2019","value":null,"unit":"","obs_status":"","decimal":0},{"indicator":{"id":"SP.DYN.AMRT.MA","value":"Mortality rate, adult, male (per 1,000 male adults)"},"country":{"id":"VU","value":"Vanuatu"},"countryiso3code":"VUT","date":"2018","value":151.626,"unit":"","obs_status":"","decimal":0},{"indicator":{"id":"SP.DYN.AMRT.MA","value":"Mortality rate, adult, male (per 1,000 male adults)"},"country":{"id":"VU","value":"Vanuatu"},"countryiso3code":"VUT","date":"2017","value":152.064,"unit":"","obs_status":"","decimal":0},{"indicator":{"id":"SP.DYN.AMRT.MA","value":"Mortality rate, adult, male (per 1,000 male adults)"},"country":{"id":"VU","value":"Vanuatu"},"countryiso3code":"VUT","date":"2016","value":154.399,"unit":"","obs_status":"","decimal":0},{"indicator":{"id":"SP.DYN.AMRT.MA","value":"Mortality rate, adult, male (per 1,000 male adults)"},"country":{"id":"VU","value":"Vanuatu"},"countryiso3code":"VUT","date":"2015","value":156.734,"unit":"","obs_status":"","decimal":0},{"indicator":{"id":"SP.DYN.AMRT.MA","value":"Mortality rate, adult, male (per 1,000 male adults)"},"country":{"id":"VE","value":"Venezuela, RB"},"countryiso3code":"VEN","date":"2019","value":null,"unit":"","obs_status":"","decimal":0},{"indicator":{"id":"SP.DYN.AMRT.MA","value":"Mortality rate, adult, male (per 1,000 male adults)"},"country":{"id":"VE","value":"Venezuela, RB"},"countryiso3code":"VEN","date":"2018","value":206.678,"unit":"","obs_status":"","decimal":0},{"indicator":{"id":"SP.DYN.AMRT.MA","value":"Mortality rate, adult, male (per 1,000 male adults)"},"country":{"id":"VE","value":"Venezuela, RB"},"countryiso3code":"VEN","date":"2017","value":188.942,"unit":"","obs_status":"","decimal":0},{"indicator":{"id":"SP.DYN.AMRT.MA","value":"Mortality rate, adult, male (per 1,000 male adults)"},"country":{"id":"VE","value":"Venezuela, RB"},"countryiso3code":"VEN","date":"2016","value":191.026,"unit":"","obs_status":"","decimal":0},{"indicator":{"id":"SP.DYN.AMRT.MA","value":"Mortality rate, adult, male (per 1,000 male adults)"},"country":{"id":"VE","value":"Venezuela, RB"},"countryiso3code":"VEN","date":"2015","value":193.11,"unit":"","obs_status":"","decimal":0},{"indicator":{"id":"SP.DYN.AMRT.MA","value":"Mortality rate, adult, male (per 1,000 male adults)"},"country":{"id":"VN","value":"Vietnam"},"countryiso3code":"VNM","date":"2019","value":null,"unit":"","obs_status":"","decimal":0},{"indicator":{"id":"SP.DYN.AMRT.MA","value":"Mortality rate, adult, male (per 1,000 male adults)"},"country":{"id":"VN","value":"Vietnam"},"countryiso3code":"VNM","date":"2018","value":188.583,"unit":"","obs_status":"","decimal":0},{"indicator":{"id":"SP.DYN.AMRT.MA","value":"Mortality rate, adult, male (per 1,000 male adults)"},"country":{"id":"VN","value":"Vietnam"},"countryiso3code":"VNM","date":"2017","value":178.38,"unit":"","obs_status":"","decimal":0},{"indicator":{"id":"SP.DYN.AMRT.MA","value":"Mortality rate, adult, male (per 1,000 male adults)"},"country":{"id":"VN","value":"Vietnam"},"countryiso3code":"VNM","date":"2016","value":180.52,"unit":"","obs_status":"","decimal":0},{"indicator":{"id":"SP.DYN.AMRT.MA","value":"Mortality rate, adult, male (per 1,000 male adults)"},"country":{"id":"VN","value":"Vietnam"},"countryiso3code":"VNM","date":"2015","value":182.659,"unit":"","obs_status":"","decimal":0},{"indicator":{"id":"SP.DYN.AMRT.MA","value":"Mortality rate, adult, male (per 1,000 male adults)"},"country":{"id":"VI","value":"Virgin Islands (U.S.)"},"countryiso3code":"VIR","date":"2019","value":null,"unit":"","obs_status":"","decimal":0},{"indicator":{"id":"SP.DYN.AMRT.MA","value":"Mortality rate, adult, male (per 1,000 male adults)"},"country":{"id":"VI","value":"Virgin Islands (U.S.)"},"countryiso3code":"VIR","date":"2018","value":70.177,"unit":"","obs_status":"","decimal":0},{"indicator":{"id":"SP.DYN.AMRT.MA","value":"Mortality rate, adult, male (per 1,000 male adults)"},"country":{"id":"VI","value":"Virgin Islands (U.S.)"},"countryiso3code":"VIR","date":"2017","value":71.66,"unit":"","obs_status":"","decimal":0},{"indicator":{"id":"SP.DYN.AMRT.MA","value":"Mortality rate, adult, male (per 1,000 male adults)"},"country":{"id":"VI","value":"Virgin Islands (U.S.)"},"countryiso3code":"VIR","date":"2016","value":73.355,"unit":"","obs_status":"","decimal":0},{"indicator":{"id":"SP.DYN.AMRT.MA","value":"Mortality rate, adult, male (per 1,000 male adults)"},"country":{"id":"VI","value":"Virgin Islands (U.S.)"},"countryiso3code":"VIR","date":"2015","value":75.049,"unit":"","obs_status":"","decimal":0},{"indicator":{"id":"SP.DYN.AMRT.MA","value":"Mortality rate, adult, male (per 1,000 male adults)"},"country":{"id":"PS","value":"West Bank and Gaza"},"countryiso3code":"PSE","date":"2019","value":null,"unit":"","obs_status":"","decimal":0},{"indicator":{"id":"SP.DYN.AMRT.MA","value":"Mortality rate, adult, male (per 1,000 male adults)"},"country":{"id":"PS","value":"West Bank and Gaza"},"countryiso3code":"PSE","date":"2018","value":126.513,"unit":"","obs_status":"","decimal":0},{"indicator":{"id":"SP.DYN.AMRT.MA","value":"Mortality rate, adult, male (per 1,000 male adults)"},"country":{"id":"PS","value":"West Bank and Gaza"},"countryiso3code":"PSE","date":"2017","value":128.255,"unit":"","obs_status":"","decimal":0},{"indicator":{"id":"SP.DYN.AMRT.MA","value":"Mortality rate, adult, male (per 1,000 male adults)"},"country":{"id":"PS","value":"West Bank and Gaza"},"countryiso3code":"PSE","date":"2016","value":130.269,"unit":"","obs_status":"","decimal":0},{"indicator":{"id":"SP.DYN.AMRT.MA","value":"Mortality rate, adult, male (per 1,000 male adults)"},"country":{"id":"PS","value":"West Bank and Gaza"},"countryiso3code":"PSE","date":"2015","value":132.282,"unit":"","obs_status":"","decimal":0},{"indicator":{"id":"SP.DYN.AMRT.MA","value":"Mortality rate, adult, male (per 1,000 male adults)"},"country":{"id":"YE","value":"Yemen, Rep."},"countryiso3code":"YEM","date":"2019","value":null,"unit":"","obs_status":"","decimal":0},{"indicator":{"id":"SP.DYN.AMRT.MA","value":"Mortality rate, adult, male (per 1,000 male adults)"},"country":{"id":"YE","value":"Yemen, Rep."},"countryiso3code":"YEM","date":"2018","value":219.749,"unit":"","obs_status":"","decimal":0},{"indicator":{"id":"SP.DYN.AMRT.MA","value":"Mortality rate, adult, male (per 1,000 male adults)"},"country":{"id":"YE","value":"Yemen, Rep."},"countryiso3code":"YEM","date":"2017","value":240.42,"unit":"","obs_status":"","decimal":0},{"indicator":{"id":"SP.DYN.AMRT.MA","value":"Mortality rate, adult, male (per 1,000 male adults)"},"country":{"id":"YE","value":"Yemen, Rep."},"countryiso3code":"YEM","date":"2016","value":242.694,"unit":"","obs_status":"","decimal":0},{"indicator":{"id":"SP.DYN.AMRT.MA","value":"Mortality rate, adult, male (per 1,000 male adults)"},"country":{"id":"YE","value":"Yemen, Rep."},"countryiso3code":"YEM","date":"2015","value":244.968,"unit":"","obs_status":"","decimal":0},{"indicator":{"id":"SP.DYN.AMRT.MA","value":"Mortality rate, adult, male (per 1,000 male adults)"},"country":{"id":"ZM","value":"Zambia"},"countryiso3code":"ZMB","date":"2019","value":null,"unit":"","obs_status":"","decimal":0},{"indicator":{"id":"SP.DYN.AMRT.MA","value":"Mortality rate, adult, male (per 1,000 male adults)"},"country":{"id":"ZM","value":"Zambia"},"countryiso3code":"ZMB","date":"2018","value":321.143,"unit":"","obs_status":"","decimal":0},{"indicator":{"id":"SP.DYN.AMRT.MA","value":"Mortality rate, adult, male (per 1,000 male adults)"},"country":{"id":"ZM","value":"Zambia"},"countryiso3code":"ZMB","date":"2017","value":341.804,"unit":"","obs_status":"","decimal":0},{"indicator":{"id":"SP.DYN.AMRT.MA","value":"Mortality rate, adult, male (per 1,000 male adults)"},"country":{"id":"ZM","value":"Zambia"},"countryiso3code":"ZMB","date":"2016","value":346.068,"unit":"","obs_status":"","decimal":0},{"indicator":{"id":"SP.DYN.AMRT.MA","value":"Mortality rate, adult, male (per 1,000 male adults)"},"country":{"id":"ZM","value":"Zambia"},"countryiso3code":"ZMB","date":"2015","value":350.332,"unit":"","obs_status":"","decimal":0},{"indicator":{"id":"SP.DYN.AMRT.MA","value":"Mortality rate, adult, male (per 1,000 male adults)"},"country":{"id":"ZW","value":"Zimbabwe"},"countryiso3code":"ZWE","date":"2019","value":null,"unit":"","obs_status":"","decimal":0},{"indicator":{"id":"SP.DYN.AMRT.MA","value":"Mortality rate, adult, male (per 1,000 male adults)"},"country":{"id":"ZW","value":"Zimbabwe"},"countryiso3code":"ZWE","date":"2018","value":373.207,"unit":"","obs_status":"","decimal":0},{"indicator":{"id":"SP.DYN.AMRT.MA","value":"Mortality rate, adult, male (per 1,000 male adults)"},"country":{"id":"ZW","value":"Zimbabwe"},"countryiso3code":"ZWE","date":"2017","value":362.446,"unit":"","obs_status":"","decimal":0},{"indicator":{"id":"SP.DYN.AMRT.MA","value":"Mortality rate, adult, male (per 1,000 male adults)"},"country":{"id":"ZW","value":"Zimbabwe"},"countryiso3code":"ZWE","date":"2016","value":379.617,"unit":"","obs_status":"","decimal":0},{"indicator":{"id":"SP.DYN.AMRT.MA","value":"Mortality rate, adult, male (per 1,000 male adults)"},"country":{"id":"ZW","value":"Zimbabwe"},"countryiso3code":"ZWE","date":"2015","value":396.789,"unit":"","obs_status":"","decimal":0}]]