[{"page":7,"pages":7,"per_page":200,"total":1320,"sourceid":"15","lastupdated":"2020-05-19"},[{"indicator":{"id":"SP.DYN.LE00.MA.IN","value":"Life expectancy at birth, male (years)"},"country":{"id":"TL","value":"Timor-Leste"},"countryiso3code":"TLS","date":"2019","value":null,"unit":"","obs_status":"","decimal":0},{"indicator":{"id":"SP.DYN.LE00.MA.IN","value":"Life expectancy at birth, male (years)"},"country":{"id":"TL","value":"Timor-Leste"},"countryiso3code":"TLS","date":"2018","value":67.279,"unit":"","obs_status":"","decimal":0},{"indicator":{"id":"SP.DYN.LE00.MA.IN","value":"Life expectancy at birth, male (years)"},"country":{"id":"TL","value":"Timor-Leste"},"countryiso3code":"TLS","date":"2017","value":67.053,"unit":"","obs_status":"","decimal":0},{"indicator":{"id":"SP.DYN.LE00.MA.IN","value":"Life expectancy at birth, male (years)"},"country":{"id":"TL","value":"Timor-Leste"},"countryiso3code":"TLS","date":"2016","value":66.815,"unit":"","obs_status":"","decimal":0},{"indicator":{"id":"SP.DYN.LE00.MA.IN","value":"Life expectancy at birth, male (years)"},"country":{"id":"TL","value":"Timor-Leste"},"countryiso3code":"TLS","date":"2015","value":66.582,"unit":"","obs_status":"","decimal":0},{"indicator":{"id":"SP.DYN.LE00.MA.IN","value":"Life expectancy at birth, male (years)"},"country":{"id":"TG","value":"Togo"},"countryiso3code":"TGO","date":"2019","value":null,"unit":"","obs_status":"","decimal":0},{"indicator":{"id":"SP.DYN.LE00.MA.IN","value":"Life expectancy at birth, male (years)"},"country":{"id":"TG","value":"Togo"},"countryiso3code":"TGO","date":"2018","value":59.892,"unit":"","obs_status":"","decimal":0},{"indicator":{"id":"SP.DYN.LE00.MA.IN","value":"Life expectancy at birth, male (years)"},"country":{"id":"TG","value":"Togo"},"countryiso3code":"TGO","date":"2017","value":59.644,"unit":"","obs_status":"","decimal":0},{"indicator":{"id":"SP.DYN.LE00.MA.IN","value":"Life expectancy at birth, male (years)"},"country":{"id":"TG","value":"Togo"},"countryiso3code":"TGO","date":"2016","value":59.398,"unit":"","obs_status":"","decimal":0},{"indicator":{"id":"SP.DYN.LE00.MA.IN","value":"Life expectancy at birth, male (years)"},"country":{"id":"TG","value":"Togo"},"countryiso3code":"TGO","date":"2015","value":59.128,"unit":"","obs_status":"","decimal":0},{"indicator":{"id":"SP.DYN.LE00.MA.IN","value":"Life expectancy at birth, male (years)"},"country":{"id":"TO","value":"Tonga"},"countryiso3code":"TON","date":"2019","value":null,"unit":"","obs_status":"","decimal":0},{"indicator":{"id":"SP.DYN.LE00.MA.IN","value":"Life expectancy at birth, male (years)"},"country":{"id":"TO","value":"Tonga"},"countryiso3code":"TON","date":"2018","value":68.877,"unit":"","obs_status":"","decimal":0},{"indicator":{"id":"SP.DYN.LE00.MA.IN","value":"Life expectancy at birth, male (years)"},"country":{"id":"TO","value":"Tonga"},"countryiso3code":"TON","date":"2017","value":68.788,"unit":"","obs_status":"","decimal":0},{"indicator":{"id":"SP.DYN.LE00.MA.IN","value":"Life expectancy at birth, male (years)"},"country":{"id":"TO","value":"Tonga"},"countryiso3code":"TON","date":"2016","value":68.699,"unit":"","obs_status":"","decimal":0},{"indicator":{"id":"SP.DYN.LE00.MA.IN","value":"Life expectancy at birth, male (years)"},"country":{"id":"TO","value":"Tonga"},"countryiso3code":"TON","date":"2015","value":68.606,"unit":"","obs_status":"","decimal":0},{"indicator":{"id":"SP.DYN.LE00.MA.IN","value":"Life expectancy at birth, male (years)"},"country":{"id":"TT","value":"Trinidad and Tobago"},"countryiso3code":"TTO","date":"2019","value":null,"unit":"","obs_status":"","decimal":0},{"indicator":{"id":"SP.DYN.LE00.MA.IN","value":"Life expectancy at birth, male (years)"},"country":{"id":"TT","value":"Trinidad and Tobago"},"countryiso3code":"TTO","date":"2018","value":70.751,"unit":"","obs_status":"","decimal":0},{"indicator":{"id":"SP.DYN.LE00.MA.IN","value":"Life expectancy at birth, male (years)"},"country":{"id":"TT","value":"Trinidad and Tobago"},"countryiso3code":"TTO","date":"2017","value":70.616,"unit":"","obs_status":"","decimal":0},{"indicator":{"id":"SP.DYN.LE00.MA.IN","value":"Life expectancy at birth, male (years)"},"country":{"id":"TT","value":"Trinidad and Tobago"},"countryiso3code":"TTO","date":"2016","value":70.466,"unit":"","obs_status":"","decimal":0},{"indicator":{"id":"SP.DYN.LE00.MA.IN","value":"Life expectancy at birth, male (years)"},"country":{"id":"TT","value":"Trinidad and Tobago"},"countryiso3code":"TTO","date":"2015","value":70.299,"unit":"","obs_status":"","decimal":0},{"indicator":{"id":"SP.DYN.LE00.MA.IN","value":"Life expectancy at birth, male (years)"},"country":{"id":"TN","value":"Tunisia"},"countryiso3code":"TUN","date":"2019","value":null,"unit":"","obs_status":"","decimal":0},{"indicator":{"id":"SP.DYN.LE00.MA.IN","value":"Life expectancy at birth, male (years)"},"country":{"id":"TN","value":"Tunisia"},"countryiso3code":"TUN","date":"2018","value":74.493,"unit":"","obs_status":"","decimal":0},{"indicator":{"id":"SP.DYN.LE00.MA.IN","value":"Life expectancy at birth, male (years)"},"country":{"id":"TN","value":"Tunisia"},"countryiso3code":"TUN","date":"2017","value":74.297,"unit":"","obs_status":"","decimal":0},{"indicator":{"id":"SP.DYN.LE00.MA.IN","value":"Life expectancy at birth, male (years)"},"country":{"id":"TN","value":"Tunisia"},"countryiso3code":"TUN","date":"2016","value":74.102,"unit":"","obs_status":"","decimal":0},{"indicator":{"id":"SP.DYN.LE00.MA.IN","value":"Life expectancy at birth, male (years)"},"country":{"id":"TN","value":"Tunisia"},"countryiso3code":"TUN","date":"2015","value":73.903,"unit":"","obs_status":"","decimal":0},{"indicator":{"id":"SP.DYN.LE00.MA.IN","value":"Life expectancy at birth, male (years)"},"country":{"id":"TR","value":"Turkey"},"countryiso3code":"TUR","date":"2019","value":null,"unit":"","obs_status":"","decimal":0},{"indicator":{"id":"SP.DYN.LE00.MA.IN","value":"Life expectancy at birth, male (years)"},"country":{"id":"TR","value":"Turkey"},"countryiso3code":"TUR","date":"2018","value":74.447,"unit":"","obs_status":"","decimal":0},{"indicator":{"id":"SP.DYN.LE00.MA.IN","value":"Life expectancy at birth, male (years)"},"country":{"id":"TR","value":"Turkey"},"countryiso3code":"TUR","date":"2017","value":74.149,"unit":"","obs_status":"","decimal":0},{"indicator":{"id":"SP.DYN.LE00.MA.IN","value":"Life expectancy at birth, male (years)"},"country":{"id":"TR","value":"Turkey"},"countryiso3code":"TUR","date":"2016","value":73.826,"unit":"","obs_status":"","decimal":0},{"indicator":{"id":"SP.DYN.LE00.MA.IN","value":"Life expectancy at birth, male (years)"},"country":{"id":"TR","value":"Turkey"},"countryiso3code":"TUR","date":"2015","value":73.47,"unit":"","obs_status":"","decimal":0},{"indicator":{"id":"SP.DYN.LE00.MA.IN","value":"Life expectancy at birth, male (years)"},"country":{"id":"TM","value":"Turkmenistan"},"countryiso3code":"TKM","date":"2019","value":null,"unit":"","obs_status":"","decimal":0},{"indicator":{"id":"SP.DYN.LE00.MA.IN","value":"Life expectancy at birth, male (years)"},"country":{"id":"TM","value":"Turkmenistan"},"countryiso3code":"TKM","date":"2018","value":64.603,"unit":"","obs_status":"","decimal":0},{"indicator":{"id":"SP.DYN.LE00.MA.IN","value":"Life expectancy at birth, male (years)"},"country":{"id":"TM","value":"Turkmenistan"},"countryiso3code":"TKM","date":"2017","value":64.504,"unit":"","obs_status":"","decimal":0},{"indicator":{"id":"SP.DYN.LE00.MA.IN","value":"Life expectancy at birth, male (years)"},"country":{"id":"TM","value":"Turkmenistan"},"countryiso3code":"TKM","date":"2016","value":64.4,"unit":"","obs_status":"","decimal":0},{"indicator":{"id":"SP.DYN.LE00.MA.IN","value":"Life expectancy at birth, male (years)"},"country":{"id":"TM","value":"Turkmenistan"},"countryiso3code":"TKM","date":"2015","value":64.282,"unit":"","obs_status":"","decimal":0},{"indicator":{"id":"SP.DYN.LE00.MA.IN","value":"Life expectancy at birth, male (years)"},"country":{"id":"TC","value":"Turks and Caicos Islands"},"countryiso3code":"TCA","date":"2019","value":null,"unit":"","obs_status":"","decimal":0},{"indicator":{"id":"SP.DYN.LE00.MA.IN","value":"Life expectancy at birth, male (years)"},"country":{"id":"TC","value":"Turks and Caicos Islands"},"countryiso3code":"TCA","date":"2018","value":null,"unit":"","obs_status":"","decimal":0},{"indicator":{"id":"SP.DYN.LE00.MA.IN","value":"Life expectancy at birth, male (years)"},"country":{"id":"TC","value":"Turks and Caicos Islands"},"countryiso3code":"TCA","date":"2017","value":null,"unit":"","obs_status":"","decimal":0},{"indicator":{"id":"SP.DYN.LE00.MA.IN","value":"Life expectancy at birth, male (years)"},"country":{"id":"TC","value":"Turks and Caicos Islands"},"countryiso3code":"TCA","date":"2016","value":null,"unit":"","obs_status":"","decimal":0},{"indicator":{"id":"SP.DYN.LE00.MA.IN","value":"Life expectancy at birth, male (years)"},"country":{"id":"TC","value":"Turks and Caicos Islands"},"countryiso3code":"TCA","date":"2015","value":null,"unit":"","obs_status":"","decimal":0},{"indicator":{"id":"SP.DYN.LE00.MA.IN","value":"Life expectancy at birth, male (years)"},"country":{"id":"TV","value":"Tuvalu"},"countryiso3code":"TUV","date":"2019","value":null,"unit":"","obs_status":"","decimal":0},{"indicator":{"id":"SP.DYN.LE00.MA.IN","value":"Life expectancy at birth, male (years)"},"country":{"id":"TV","value":"Tuvalu"},"countryiso3code":"TUV","date":"2018","value":null,"unit":"","obs_status":"","decimal":0},{"indicator":{"id":"SP.DYN.LE00.MA.IN","value":"Life expectancy at birth, male (years)"},"country":{"id":"TV","value":"Tuvalu"},"countryiso3code":"TUV","date":"2017","value":null,"unit":"","obs_status":"","decimal":0},{"indicator":{"id":"SP.DYN.LE00.MA.IN","value":"Life expectancy at birth, male (years)"},"country":{"id":"TV","value":"Tuvalu"},"countryiso3code":"TUV","date":"2016","value":null,"unit":"","obs_status":"","decimal":0},{"indicator":{"id":"SP.DYN.LE00.MA.IN","value":"Life expectancy at birth, male (years)"},"country":{"id":"TV","value":"Tuvalu"},"countryiso3code":"TUV","date":"2015","value":null,"unit":"","obs_status":"","decimal":0},{"indicator":{"id":"SP.DYN.LE00.MA.IN","value":"Life expectancy at birth, male (years)"},"country":{"id":"UG","value":"Uganda"},"countryiso3code":"UGA","date":"2019","value":null,"unit":"","obs_status":"","decimal":0},{"indicator":{"id":"SP.DYN.LE00.MA.IN","value":"Life expectancy at birth, male (years)"},"country":{"id":"UG","value":"Uganda"},"countryiso3code":"UGA","date":"2018","value":60.655,"unit":"","obs_status":"","decimal":0},{"indicator":{"id":"SP.DYN.LE00.MA.IN","value":"Life expectancy at birth, male (years)"},"country":{"id":"UG","value":"Uganda"},"countryiso3code":"UGA","date":"2017","value":60.27,"unit":"","obs_status":"","decimal":0},{"indicator":{"id":"SP.DYN.LE00.MA.IN","value":"Life expectancy at birth, male (years)"},"country":{"id":"UG","value":"Uganda"},"countryiso3code":"UGA","date":"2016","value":59.83,"unit":"","obs_status":"","decimal":0},{"indicator":{"id":"SP.DYN.LE00.MA.IN","value":"Life expectancy at birth, male (years)"},"country":{"id":"UG","value":"Uganda"},"countryiso3code":"UGA","date":"2015","value":59.318,"unit":"","obs_status":"","decimal":0},{"indicator":{"id":"SP.DYN.LE00.MA.IN","value":"Life expectancy at birth, male (years)"},"country":{"id":"UA","value":"Ukraine"},"countryiso3code":"UKR","date":"2019","value":null,"unit":"","obs_status":"","decimal":0},{"indicator":{"id":"SP.DYN.LE00.MA.IN","value":"Life expectancy at birth, male (years)"},"country":{"id":"UA","value":"Ukraine"},"countryiso3code":"UKR","date":"2018","value":66.69,"unit":"","obs_status":"","decimal":0},{"indicator":{"id":"SP.DYN.LE00.MA.IN","value":"Life expectancy at birth, male (years)"},"country":{"id":"UA","value":"Ukraine"},"countryiso3code":"UKR","date":"2017","value":67.02,"unit":"","obs_status":"","decimal":0},{"indicator":{"id":"SP.DYN.LE00.MA.IN","value":"Life expectancy at birth, male (years)"},"country":{"id":"UA","value":"Ukraine"},"countryiso3code":"UKR","date":"2016","value":66.73,"unit":"","obs_status":"","decimal":0},{"indicator":{"id":"SP.DYN.LE00.MA.IN","value":"Life expectancy at birth, male (years)"},"country":{"id":"UA","value":"Ukraine"},"countryiso3code":"UKR","date":"2015","value":66.37,"unit":"","obs_status":"","decimal":0},{"indicator":{"id":"SP.DYN.LE00.MA.IN","value":"Life expectancy at birth, male (years)"},"country":{"id":"AE","value":"United Arab Emirates"},"countryiso3code":"ARE","date":"2019","value":null,"unit":"","obs_status":"","decimal":0},{"indicator":{"id":"SP.DYN.LE00.MA.IN","value":"Life expectancy at birth, male (years)"},"country":{"id":"AE","value":"United Arab Emirates"},"countryiso3code":"ARE","date":"2018","value":77.133,"unit":"","obs_status":"","decimal":0},{"indicator":{"id":"SP.DYN.LE00.MA.IN","value":"Life expectancy at birth, male (years)"},"country":{"id":"AE","value":"United Arab Emirates"},"countryiso3code":"ARE","date":"2017","value":76.966,"unit":"","obs_status":"","decimal":0},{"indicator":{"id":"SP.DYN.LE00.MA.IN","value":"Life expectancy at birth, male (years)"},"country":{"id":"AE","value":"United Arab Emirates"},"countryiso3code":"ARE","date":"2016","value":76.79,"unit":"","obs_status":"","decimal":0},{"indicator":{"id":"SP.DYN.LE00.MA.IN","value":"Life expectancy at birth, male (years)"},"country":{"id":"AE","value":"United Arab Emirates"},"countryiso3code":"ARE","date":"2015","value":76.605,"unit":"","obs_status":"","decimal":0},{"indicator":{"id":"SP.DYN.LE00.MA.IN","value":"Life expectancy at birth, male (years)"},"country":{"id":"GB","value":"United Kingdom"},"countryiso3code":"GBR","date":"2019","value":null,"unit":"","obs_status":"","decimal":0},{"indicator":{"id":"SP.DYN.LE00.MA.IN","value":"Life expectancy at birth, male (years)"},"country":{"id":"GB","value":"United Kingdom"},"countryiso3code":"GBR","date":"2018","value":79.6,"unit":"","obs_status":"","decimal":0},{"indicator":{"id":"SP.DYN.LE00.MA.IN","value":"Life expectancy at birth, male (years)"},"country":{"id":"GB","value":"United Kingdom"},"countryiso3code":"GBR","date":"2017","value":79.5,"unit":"","obs_status":"","decimal":0},{"indicator":{"id":"SP.DYN.LE00.MA.IN","value":"Life expectancy at birth, male (years)"},"country":{"id":"GB","value":"United Kingdom"},"countryiso3code":"GBR","date":"2016","value":79.4,"unit":"","obs_status":"","decimal":0},{"indicator":{"id":"SP.DYN.LE00.MA.IN","value":"Life expectancy at birth, male (years)"},"country":{"id":"GB","value":"United Kingdom"},"countryiso3code":"GBR","date":"2015","value":79.2,"unit":"","obs_status":"","decimal":0},{"indicator":{"id":"SP.DYN.LE00.MA.IN","value":"Life expectancy at birth, male (years)"},"country":{"id":"US","value":"United States"},"countryiso3code":"USA","date":"2019","value":null,"unit":"","obs_status":"","decimal":0},{"indicator":{"id":"SP.DYN.LE00.MA.IN","value":"Life expectancy at birth, male (years)"},"country":{"id":"US","value":"United States"},"countryiso3code":"USA","date":"2018","value":76.1,"unit":"","obs_status":"","decimal":0},{"indicator":{"id":"SP.DYN.LE00.MA.IN","value":"Life expectancy at birth, male (years)"},"country":{"id":"US","value":"United States"},"countryiso3code":"USA","date":"2017","value":76.1,"unit":"","obs_status":"","decimal":0},{"indicator":{"id":"SP.DYN.LE00.MA.IN","value":"Life expectancy at birth, male (years)"},"country":{"id":"US","value":"United States"},"countryiso3code":"USA","date":"2016","value":76.1,"unit":"","obs_status":"","decimal":0},{"indicator":{"id":"SP.DYN.LE00.MA.IN","value":"Life expectancy at birth, male (years)"},"country":{"id":"US","value":"United States"},"countryiso3code":"USA","date":"2015","value":76.3,"unit":"","obs_status":"","decimal":0},{"indicator":{"id":"SP.DYN.LE00.MA.IN","value":"Life expectancy at birth, male (years)"},"country":{"id":"UY","value":"Uruguay"},"countryiso3code":"URY","date":"2019","value":null,"unit":"","obs_status":"","decimal":0},{"indicator":{"id":"SP.DYN.LE00.MA.IN","value":"Life expectancy at birth, male (years)"},"country":{"id":"UY","value":"Uruguay"},"countryiso3code":"URY","date":"2018","value":73.958,"unit":"","obs_status":"","decimal":0},{"indicator":{"id":"SP.DYN.LE00.MA.IN","value":"Life expectancy at birth, male (years)"},"country":{"id":"UY","value":"Uruguay"},"countryiso3code":"URY","date":"2017","value":73.805,"unit":"","obs_status":"","decimal":0},{"indicator":{"id":"SP.DYN.LE00.MA.IN","value":"Life expectancy at birth, male (years)"},"country":{"id":"UY","value":"Uruguay"},"countryiso3code":"URY","date":"2016","value":73.662,"unit":"","obs_status":"","decimal":0},{"indicator":{"id":"SP.DYN.LE00.MA.IN","value":"Life expectancy at birth, male (years)"},"country":{"id":"UY","value":"Uruguay"},"countryiso3code":"URY","date":"2015","value":73.529,"unit":"","obs_status":"","decimal":0},{"indicator":{"id":"SP.DYN.LE00.MA.IN","value":"Life expectancy at birth, male (years)"},"country":{"id":"UZ","value":"Uzbekistan"},"countryiso3code":"UZB","date":"2019","value":null,"unit":"","obs_status":"","decimal":0},{"indicator":{"id":"SP.DYN.LE00.MA.IN","value":"Life expectancy at birth, male (years)"},"country":{"id":"UZ","value":"Uzbekistan"},"countryiso3code":"UZB","date":"2018","value":69.445,"unit":"","obs_status":"","decimal":0},{"indicator":{"id":"SP.DYN.LE00.MA.IN","value":"Life expectancy at birth, male (years)"},"country":{"id":"UZ","value":"Uzbekistan"},"countryiso3code":"UZB","date":"2017","value":69.25,"unit":"","obs_status":"","decimal":0},{"indicator":{"id":"SP.DYN.LE00.MA.IN","value":"Life expectancy at birth, male (years)"},"country":{"id":"UZ","value":"Uzbekistan"},"countryiso3code":"UZB","date":"2016","value":69.004,"unit":"","obs_status":"","decimal":0},{"indicator":{"id":"SP.DYN.LE00.MA.IN","value":"Life expectancy at birth, male (years)"},"country":{"id":"UZ","value":"Uzbekistan"},"countryiso3code":"UZB","date":"2015","value":68.712,"unit":"","obs_status":"","decimal":0},{"indicator":{"id":"SP.DYN.LE00.MA.IN","value":"Life expectancy at birth, male (years)"},"country":{"id":"VU","value":"Vanuatu"},"countryiso3code":"VUT","date":"2019","value":null,"unit":"","obs_status":"","decimal":0},{"indicator":{"id":"SP.DYN.LE00.MA.IN","value":"Life expectancy at birth, male (years)"},"country":{"id":"VU","value":"Vanuatu"},"countryiso3code":"VUT","date":"2018","value":68.847,"unit":"","obs_status":"","decimal":0},{"indicator":{"id":"SP.DYN.LE00.MA.IN","value":"Life expectancy at birth, male (years)"},"country":{"id":"VU","value":"Vanuatu"},"countryiso3code":"VUT","date":"2017","value":68.699,"unit":"","obs_status":"","decimal":0},{"indicator":{"id":"SP.DYN.LE00.MA.IN","value":"Life expectancy at birth, male (years)"},"country":{"id":"VU","value":"Vanuatu"},"countryiso3code":"VUT","date":"2016","value":68.544,"unit":"","obs_status":"","decimal":0},{"indicator":{"id":"SP.DYN.LE00.MA.IN","value":"Life expectancy at birth, male (years)"},"country":{"id":"VU","value":"Vanuatu"},"countryiso3code":"VUT","date":"2015","value":68.383,"unit":"","obs_status":"","decimal":0},{"indicator":{"id":"SP.DYN.LE00.MA.IN","value":"Life expectancy at birth, male (years)"},"country":{"id":"VE","value":"Venezuela, RB"},"countryiso3code":"VEN","date":"2019","value":null,"unit":"","obs_status":"","decimal":0},{"indicator":{"id":"SP.DYN.LE00.MA.IN","value":"Life expectancy at birth, male (years)"},"country":{"id":"VE","value":"Venezuela, RB"},"countryiso3code":"VEN","date":"2018","value":68.398,"unit":"","obs_status":"","decimal":0},{"indicator":{"id":"SP.DYN.LE00.MA.IN","value":"Life expectancy at birth, male (years)"},"country":{"id":"VE","value":"Venezuela, RB"},"countryiso3code":"VEN","date":"2017","value":68.523,"unit":"","obs_status":"","decimal":0},{"indicator":{"id":"SP.DYN.LE00.MA.IN","value":"Life expectancy at birth, male (years)"},"country":{"id":"VE","value":"Venezuela, RB"},"countryiso3code":"VEN","date":"2016","value":68.687,"unit":"","obs_status":"","decimal":0},{"indicator":{"id":"SP.DYN.LE00.MA.IN","value":"Life expectancy at birth, male (years)"},"country":{"id":"VE","value":"Venezuela, RB"},"countryiso3code":"VEN","date":"2015","value":68.871,"unit":"","obs_status":"","decimal":0},{"indicator":{"id":"SP.DYN.LE00.MA.IN","value":"Life expectancy at birth, male (years)"},"country":{"id":"VN","value":"Vietnam"},"countryiso3code":"VNM","date":"2019","value":null,"unit":"","obs_status":"","decimal":0},{"indicator":{"id":"SP.DYN.LE00.MA.IN","value":"Life expectancy at birth, male (years)"},"country":{"id":"VN","value":"Vietnam"},"countryiso3code":"VNM","date":"2018","value":71.207,"unit":"","obs_status":"","decimal":0},{"indicator":{"id":"SP.DYN.LE00.MA.IN","value":"Life expectancy at birth, male (years)"},"country":{"id":"VN","value":"Vietnam"},"countryiso3code":"VNM","date":"2017","value":71.124,"unit":"","obs_status":"","decimal":0},{"indicator":{"id":"SP.DYN.LE00.MA.IN","value":"Life expectancy at birth, male (years)"},"country":{"id":"VN","value":"Vietnam"},"countryiso3code":"VNM","date":"2016","value":71.049,"unit":"","obs_status":"","decimal":0},{"indicator":{"id":"SP.DYN.LE00.MA.IN","value":"Life expectancy at birth, male (years)"},"country":{"id":"VN","value":"Vietnam"},"countryiso3code":"VNM","date":"2015","value":70.984,"unit":"","obs_status":"","decimal":0},{"indicator":{"id":"SP.DYN.LE00.MA.IN","value":"Life expectancy at birth, male (years)"},"country":{"id":"VI","value":"Virgin Islands (U.S.)"},"countryiso3code":"VIR","date":"2019","value":null,"unit":"","obs_status":"","decimal":0},{"indicator":{"id":"SP.DYN.LE00.MA.IN","value":"Life expectancy at birth, male (years)"},"country":{"id":"VI","value":"Virgin Islands (U.S.)"},"countryiso3code":"VIR","date":"2018","value":76.3,"unit":"","obs_status":"","decimal":0},{"indicator":{"id":"SP.DYN.LE00.MA.IN","value":"Life expectancy at birth, male (years)"},"country":{"id":"VI","value":"Virgin Islands (U.S.)"},"countryiso3code":"VIR","date":"2017","value":76.2,"unit":"","obs_status":"","decimal":0},{"indicator":{"id":"SP.DYN.LE00.MA.IN","value":"Life expectancy at birth, male (years)"},"country":{"id":"VI","value":"Virgin Islands (U.S.)"},"countryiso3code":"VIR","date":"2016","value":76,"unit":"","obs_status":"","decimal":0},{"indicator":{"id":"SP.DYN.LE00.MA.IN","value":"Life expectancy at birth, male (years)"},"country":{"id":"VI","value":"Virgin Islands (U.S.)"},"countryiso3code":"VIR","date":"2015","value":75.9,"unit":"","obs_status":"","decimal":0},{"indicator":{"id":"SP.DYN.LE00.MA.IN","value":"Life expectancy at birth, male (years)"},"country":{"id":"PS","value":"West Bank and Gaza"},"countryiso3code":"PSE","date":"2019","value":null,"unit":"","obs_status":"","decimal":0},{"indicator":{"id":"SP.DYN.LE00.MA.IN","value":"Life expectancy at birth, male (years)"},"country":{"id":"PS","value":"West Bank and Gaza"},"countryiso3code":"PSE","date":"2018","value":72.263,"unit":"","obs_status":"","decimal":0},{"indicator":{"id":"SP.DYN.LE00.MA.IN","value":"Life expectancy at birth, male (years)"},"country":{"id":"PS","value":"West Bank and Gaza"},"countryiso3code":"PSE","date":"2017","value":72.106,"unit":"","obs_status":"","decimal":0},{"indicator":{"id":"SP.DYN.LE00.MA.IN","value":"Life expectancy at birth, male (years)"},"country":{"id":"PS","value":"West Bank and Gaza"},"countryiso3code":"PSE","date":"2016","value":71.945,"unit":"","obs_status":"","decimal":0},{"indicator":{"id":"SP.DYN.LE00.MA.IN","value":"Life expectancy at birth, male (years)"},"country":{"id":"PS","value":"West Bank and Gaza"},"countryiso3code":"PSE","date":"2015","value":71.785,"unit":"","obs_status":"","decimal":0},{"indicator":{"id":"SP.DYN.LE00.MA.IN","value":"Life expectancy at birth, male (years)"},"country":{"id":"YE","value":"Yemen, Rep."},"countryiso3code":"YEM","date":"2019","value":null,"unit":"","obs_status":"","decimal":0},{"indicator":{"id":"SP.DYN.LE00.MA.IN","value":"Life expectancy at birth, male (years)"},"country":{"id":"YE","value":"Yemen, Rep."},"countryiso3code":"YEM","date":"2018","value":64.418,"unit":"","obs_status":"","decimal":0},{"indicator":{"id":"SP.DYN.LE00.MA.IN","value":"Life expectancy at birth, male (years)"},"country":{"id":"YE","value":"Yemen, Rep."},"countryiso3code":"YEM","date":"2017","value":64.413,"unit":"","obs_status":"","decimal":0},{"indicator":{"id":"SP.DYN.LE00.MA.IN","value":"Life expectancy at birth, male (years)"},"country":{"id":"YE","value":"Yemen, Rep."},"countryiso3code":"YEM","date":"2016","value":64.417,"unit":"","obs_status":"","decimal":0},{"indicator":{"id":"SP.DYN.LE00.MA.IN","value":"Life expectancy at birth, male (years)"},"country":{"id":"YE","value":"Yemen, Rep."},"countryiso3code":"YEM","date":"2015","value":64.419,"unit":"","obs_status":"","decimal":0},{"indicator":{"id":"SP.DYN.LE00.MA.IN","value":"Life expectancy at birth, male (years)"},"country":{"id":"ZM","value":"Zambia"},"countryiso3code":"ZMB","date":"2019","value":null,"unit":"","obs_status":"","decimal":0},{"indicator":{"id":"SP.DYN.LE00.MA.IN","value":"Life expectancy at birth, male (years)"},"country":{"id":"ZM","value":"Zambia"},"countryiso3code":"ZMB","date":"2018","value":60.533,"unit":"","obs_status":"","decimal":0},{"indicator":{"id":"SP.DYN.LE00.MA.IN","value":"Life expectancy at birth, male (years)"},"country":{"id":"ZM","value":"Zambia"},"countryiso3code":"ZMB","date":"2017","value":60.158,"unit":"","obs_status":"","decimal":0},{"indicator":{"id":"SP.DYN.LE00.MA.IN","value":"Life expectancy at birth, male (years)"},"country":{"id":"ZM","value":"Zambia"},"countryiso3code":"ZMB","date":"2016","value":59.697,"unit":"","obs_status":"","decimal":0},{"indicator":{"id":"SP.DYN.LE00.MA.IN","value":"Life expectancy at birth, male (years)"},"country":{"id":"ZM","value":"Zambia"},"countryiso3code":"ZMB","date":"2015","value":59.105,"unit":"","obs_status":"","decimal":0},{"indicator":{"id":"SP.DYN.LE00.MA.IN","value":"Life expectancy at birth, male (years)"},"country":{"id":"ZW","value":"Zimbabwe"},"countryiso3code":"ZWE","date":"2019","value":null,"unit":"","obs_status":"","decimal":0},{"indicator":{"id":"SP.DYN.LE00.MA.IN","value":"Life expectancy at birth, male (years)"},"country":{"id":"ZW","value":"Zimbabwe"},"countryiso3code":"ZWE","date":"2018","value":59.501,"unit":"","obs_status":"","decimal":0},{"indicator":{"id":"SP.DYN.LE00.MA.IN","value":"Life expectancy at birth, male (years)"},"country":{"id":"ZW","value":"Zimbabwe"},"countryiso3code":"ZWE","date":"2017","value":59.105,"unit":"","obs_status":"","decimal":0},{"indicator":{"id":"SP.DYN.LE00.MA.IN","value":"Life expectancy at birth, male (years)"},"country":{"id":"ZW","value":"Zimbabwe"},"countryiso3code":"ZWE","date":"2016","value":58.565,"unit":"","obs_status":"","decimal":0},{"indicator":{"id":"SP.DYN.LE00.MA.IN","value":"Life expectancy at birth, male (years)"},"country":{"id":"ZW","value":"Zimbabwe"},"countryiso3code":"ZWE","date":"2015","value":57.778,"unit":"","obs_status":"","decimal":0}]]