[{"page":7,"pages":7,"per_page":200,"total":1320,"sourceid":"15","lastupdated":"2020-05-19"},[{"indicator":{"id":"SP.POP.0014.MA.ZS","value":"Population ages 0-14, male (% of male population)"},"country":{"id":"TL","value":"Timor-Leste"},"countryiso3code":"TLS","date":"2019","value":null,"unit":"","obs_status":"","decimal":0},{"indicator":{"id":"SP.POP.0014.MA.ZS","value":"Population ages 0-14, male (% of male population)"},"country":{"id":"TL","value":"Timor-Leste"},"countryiso3code":"TLS","date":"2018","value":38.0178636631745,"unit":"","obs_status":"","decimal":0},{"indicator":{"id":"SP.POP.0014.MA.ZS","value":"Population ages 0-14, male (% of male population)"},"country":{"id":"TL","value":"Timor-Leste"},"countryiso3code":"TLS","date":"2017","value":38.5276149768701,"unit":"","obs_status":"","decimal":0},{"indicator":{"id":"SP.POP.0014.MA.ZS","value":"Population ages 0-14, male (% of male population)"},"country":{"id":"TL","value":"Timor-Leste"},"countryiso3code":"TLS","date":"2016","value":39.0806667769957,"unit":"","obs_status":"","decimal":0},{"indicator":{"id":"SP.POP.0014.MA.ZS","value":"Population ages 0-14, male (% of male population)"},"country":{"id":"TL","value":"Timor-Leste"},"countryiso3code":"TLS","date":"2015","value":39.688030704155,"unit":"","obs_status":"","decimal":0},{"indicator":{"id":"SP.POP.0014.MA.ZS","value":"Population ages 0-14, male (% of male population)"},"country":{"id":"TG","value":"Togo"},"countryiso3code":"TGO","date":"2019","value":null,"unit":"","obs_status":"","decimal":0},{"indicator":{"id":"SP.POP.0014.MA.ZS","value":"Population ages 0-14, male (% of male population)"},"country":{"id":"TG","value":"Togo"},"countryiso3code":"TGO","date":"2018","value":41.6815156034267,"unit":"","obs_status":"","decimal":0},{"indicator":{"id":"SP.POP.0014.MA.ZS","value":"Population ages 0-14, male (% of male population)"},"country":{"id":"TG","value":"Togo"},"countryiso3code":"TGO","date":"2017","value":41.9974494841358,"unit":"","obs_status":"","decimal":0},{"indicator":{"id":"SP.POP.0014.MA.ZS","value":"Population ages 0-14, male (% of male population)"},"country":{"id":"TG","value":"Togo"},"countryiso3code":"TGO","date":"2016","value":42.2758893403469,"unit":"","obs_status":"","decimal":0},{"indicator":{"id":"SP.POP.0014.MA.ZS","value":"Population ages 0-14, male (% of male population)"},"country":{"id":"TG","value":"Togo"},"countryiso3code":"TGO","date":"2015","value":42.5170763506765,"unit":"","obs_status":"","decimal":0},{"indicator":{"id":"SP.POP.0014.MA.ZS","value":"Population ages 0-14, male (% of male population)"},"country":{"id":"TO","value":"Tonga"},"countryiso3code":"TON","date":"2019","value":null,"unit":"","obs_status":"","decimal":0},{"indicator":{"id":"SP.POP.0014.MA.ZS","value":"Population ages 0-14, male (% of male population)"},"country":{"id":"TO","value":"Tonga"},"countryiso3code":"TON","date":"2018","value":36.8008059984887,"unit":"","obs_status":"","decimal":0},{"indicator":{"id":"SP.POP.0014.MA.ZS","value":"Population ages 0-14, male (% of male population)"},"country":{"id":"TO","value":"Tonga"},"countryiso3code":"TON","date":"2017","value":37.1766966684315,"unit":"","obs_status":"","decimal":0},{"indicator":{"id":"SP.POP.0014.MA.ZS","value":"Population ages 0-14, male (% of male population)"},"country":{"id":"TO","value":"Tonga"},"countryiso3code":"TON","date":"2016","value":37.5479685089212,"unit":"","obs_status":"","decimal":0},{"indicator":{"id":"SP.POP.0014.MA.ZS","value":"Population ages 0-14, male (% of male population)"},"country":{"id":"TO","value":"Tonga"},"countryiso3code":"TON","date":"2015","value":37.8913306731781,"unit":"","obs_status":"","decimal":0},{"indicator":{"id":"SP.POP.0014.MA.ZS","value":"Population ages 0-14, male (% of male population)"},"country":{"id":"TT","value":"Trinidad and Tobago"},"countryiso3code":"TTO","date":"2019","value":null,"unit":"","obs_status":"","decimal":0},{"indicator":{"id":"SP.POP.0014.MA.ZS","value":"Population ages 0-14, male (% of male population)"},"country":{"id":"TT","value":"Trinidad and Tobago"},"countryiso3code":"TTO","date":"2018","value":20.9756197011222,"unit":"","obs_status":"","decimal":0},{"indicator":{"id":"SP.POP.0014.MA.ZS","value":"Population ages 0-14, male (% of male population)"},"country":{"id":"TT","value":"Trinidad and Tobago"},"countryiso3code":"TTO","date":"2017","value":21.0877074498488,"unit":"","obs_status":"","decimal":0},{"indicator":{"id":"SP.POP.0014.MA.ZS","value":"Population ages 0-14, male (% of male population)"},"country":{"id":"TT","value":"Trinidad and Tobago"},"countryiso3code":"TTO","date":"2016","value":21.1629351316352,"unit":"","obs_status":"","decimal":0},{"indicator":{"id":"SP.POP.0014.MA.ZS","value":"Population ages 0-14, male (% of male population)"},"country":{"id":"TT","value":"Trinidad and Tobago"},"countryiso3code":"TTO","date":"2015","value":21.2104757590558,"unit":"","obs_status":"","decimal":0},{"indicator":{"id":"SP.POP.0014.MA.ZS","value":"Population ages 0-14, male (% of male population)"},"country":{"id":"TN","value":"Tunisia"},"countryiso3code":"TUN","date":"2019","value":null,"unit":"","obs_status":"","decimal":0},{"indicator":{"id":"SP.POP.0014.MA.ZS","value":"Population ages 0-14, male (% of male population)"},"country":{"id":"TN","value":"Tunisia"},"countryiso3code":"TUN","date":"2018","value":25.1528599571113,"unit":"","obs_status":"","decimal":0},{"indicator":{"id":"SP.POP.0014.MA.ZS","value":"Population ages 0-14, male (% of male population)"},"country":{"id":"TN","value":"Tunisia"},"countryiso3code":"TUN","date":"2017","value":25.1110610602836,"unit":"","obs_status":"","decimal":0},{"indicator":{"id":"SP.POP.0014.MA.ZS","value":"Population ages 0-14, male (% of male population)"},"country":{"id":"TN","value":"Tunisia"},"countryiso3code":"TUN","date":"2016","value":25.015456727323,"unit":"","obs_status":"","decimal":0},{"indicator":{"id":"SP.POP.0014.MA.ZS","value":"Population ages 0-14, male (% of male population)"},"country":{"id":"TN","value":"Tunisia"},"countryiso3code":"TUN","date":"2015","value":24.8263776732677,"unit":"","obs_status":"","decimal":0},{"indicator":{"id":"SP.POP.0014.MA.ZS","value":"Population ages 0-14, male (% of male population)"},"country":{"id":"TR","value":"Turkey"},"countryiso3code":"TUR","date":"2019","value":null,"unit":"","obs_status":"","decimal":0},{"indicator":{"id":"SP.POP.0014.MA.ZS","value":"Population ages 0-14, male (% of male population)"},"country":{"id":"TR","value":"Turkey"},"countryiso3code":"TUR","date":"2018","value":25.5534278557979,"unit":"","obs_status":"","decimal":0},{"indicator":{"id":"SP.POP.0014.MA.ZS","value":"Population ages 0-14, male (% of male population)"},"country":{"id":"TR","value":"Turkey"},"countryiso3code":"TUR","date":"2017","value":25.9331764495415,"unit":"","obs_status":"","decimal":0},{"indicator":{"id":"SP.POP.0014.MA.ZS","value":"Population ages 0-14, male (% of male population)"},"country":{"id":"TR","value":"Turkey"},"countryiso3code":"TUR","date":"2016","value":26.2755879542502,"unit":"","obs_status":"","decimal":0},{"indicator":{"id":"SP.POP.0014.MA.ZS","value":"Population ages 0-14, male (% of male population)"},"country":{"id":"TR","value":"Turkey"},"countryiso3code":"TUR","date":"2015","value":26.5650544105207,"unit":"","obs_status":"","decimal":0},{"indicator":{"id":"SP.POP.0014.MA.ZS","value":"Population ages 0-14, male (% of male population)"},"country":{"id":"TM","value":"Turkmenistan"},"countryiso3code":"TKM","date":"2019","value":null,"unit":"","obs_status":"","decimal":0},{"indicator":{"id":"SP.POP.0014.MA.ZS","value":"Population ages 0-14, male (% of male population)"},"country":{"id":"TM","value":"Turkmenistan"},"countryiso3code":"TKM","date":"2018","value":31.7272724432746,"unit":"","obs_status":"","decimal":0},{"indicator":{"id":"SP.POP.0014.MA.ZS","value":"Population ages 0-14, male (% of male population)"},"country":{"id":"TM","value":"Turkmenistan"},"countryiso3code":"TKM","date":"2017","value":31.8122143823605,"unit":"","obs_status":"","decimal":0},{"indicator":{"id":"SP.POP.0014.MA.ZS","value":"Population ages 0-14, male (% of male population)"},"country":{"id":"TM","value":"Turkmenistan"},"countryiso3code":"TKM","date":"2016","value":31.7232209755291,"unit":"","obs_status":"","decimal":0},{"indicator":{"id":"SP.POP.0014.MA.ZS","value":"Population ages 0-14, male (% of male population)"},"country":{"id":"TM","value":"Turkmenistan"},"countryiso3code":"TKM","date":"2015","value":31.3261340038758,"unit":"","obs_status":"","decimal":0},{"indicator":{"id":"SP.POP.0014.MA.ZS","value":"Population ages 0-14, male (% of male population)"},"country":{"id":"TC","value":"Turks and Caicos Islands"},"countryiso3code":"TCA","date":"2019","value":null,"unit":"","obs_status":"","decimal":0},{"indicator":{"id":"SP.POP.0014.MA.ZS","value":"Population ages 0-14, male (% of male population)"},"country":{"id":"TC","value":"Turks and Caicos Islands"},"countryiso3code":"TCA","date":"2018","value":null,"unit":"","obs_status":"","decimal":0},{"indicator":{"id":"SP.POP.0014.MA.ZS","value":"Population ages 0-14, male (% of male population)"},"country":{"id":"TC","value":"Turks and Caicos Islands"},"countryiso3code":"TCA","date":"2017","value":null,"unit":"","obs_status":"","decimal":0},{"indicator":{"id":"SP.POP.0014.MA.ZS","value":"Population ages 0-14, male (% of male population)"},"country":{"id":"TC","value":"Turks and Caicos Islands"},"countryiso3code":"TCA","date":"2016","value":null,"unit":"","obs_status":"","decimal":0},{"indicator":{"id":"SP.POP.0014.MA.ZS","value":"Population ages 0-14, male (% of male population)"},"country":{"id":"TC","value":"Turks and Caicos Islands"},"countryiso3code":"TCA","date":"2015","value":null,"unit":"","obs_status":"","decimal":0},{"indicator":{"id":"SP.POP.0014.MA.ZS","value":"Population ages 0-14, male (% of male population)"},"country":{"id":"TV","value":"Tuvalu"},"countryiso3code":"TUV","date":"2019","value":null,"unit":"","obs_status":"","decimal":0},{"indicator":{"id":"SP.POP.0014.MA.ZS","value":"Population ages 0-14, male (% of male population)"},"country":{"id":"TV","value":"Tuvalu"},"countryiso3code":"TUV","date":"2018","value":null,"unit":"","obs_status":"","decimal":0},{"indicator":{"id":"SP.POP.0014.MA.ZS","value":"Population ages 0-14, male (% of male population)"},"country":{"id":"TV","value":"Tuvalu"},"countryiso3code":"TUV","date":"2017","value":null,"unit":"","obs_status":"","decimal":0},{"indicator":{"id":"SP.POP.0014.MA.ZS","value":"Population ages 0-14, male (% of male population)"},"country":{"id":"TV","value":"Tuvalu"},"countryiso3code":"TUV","date":"2016","value":null,"unit":"","obs_status":"","decimal":0},{"indicator":{"id":"SP.POP.0014.MA.ZS","value":"Population ages 0-14, male (% of male population)"},"country":{"id":"TV","value":"Tuvalu"},"countryiso3code":"TUV","date":"2015","value":null,"unit":"","obs_status":"","decimal":0},{"indicator":{"id":"SP.POP.0014.MA.ZS","value":"Population ages 0-14, male (% of male population)"},"country":{"id":"UG","value":"Uganda"},"countryiso3code":"UGA","date":"2019","value":null,"unit":"","obs_status":"","decimal":0},{"indicator":{"id":"SP.POP.0014.MA.ZS","value":"Population ages 0-14, male (% of male population)"},"country":{"id":"UG","value":"Uganda"},"countryiso3code":"UGA","date":"2018","value":48.0968083105971,"unit":"","obs_status":"","decimal":0},{"indicator":{"id":"SP.POP.0014.MA.ZS","value":"Population ages 0-14, male (% of male population)"},"country":{"id":"UG","value":"Uganda"},"countryiso3code":"UGA","date":"2017","value":48.5263657381022,"unit":"","obs_status":"","decimal":0},{"indicator":{"id":"SP.POP.0014.MA.ZS","value":"Population ages 0-14, male (% of male population)"},"country":{"id":"UG","value":"Uganda"},"countryiso3code":"UGA","date":"2016","value":48.9133601821155,"unit":"","obs_status":"","decimal":0},{"indicator":{"id":"SP.POP.0014.MA.ZS","value":"Population ages 0-14, male (% of male population)"},"country":{"id":"UG","value":"Uganda"},"countryiso3code":"UGA","date":"2015","value":49.2474904275248,"unit":"","obs_status":"","decimal":0},{"indicator":{"id":"SP.POP.0014.MA.ZS","value":"Population ages 0-14, male (% of male population)"},"country":{"id":"UA","value":"Ukraine"},"countryiso3code":"UKR","date":"2019","value":null,"unit":"","obs_status":"","decimal":0},{"indicator":{"id":"SP.POP.0014.MA.ZS","value":"Population ages 0-14, male (% of male population)"},"country":{"id":"UA","value":"Ukraine"},"countryiso3code":"UKR","date":"2018","value":17.5822031798622,"unit":"","obs_status":"","decimal":0},{"indicator":{"id":"SP.POP.0014.MA.ZS","value":"Population ages 0-14, male (% of male population)"},"country":{"id":"UA","value":"Ukraine"},"countryiso3code":"UKR","date":"2017","value":17.3869921609745,"unit":"","obs_status":"","decimal":0},{"indicator":{"id":"SP.POP.0014.MA.ZS","value":"Population ages 0-14, male (% of male population)"},"country":{"id":"UA","value":"Ukraine"},"countryiso3code":"UKR","date":"2016","value":17.1773187628961,"unit":"","obs_status":"","decimal":0},{"indicator":{"id":"SP.POP.0014.MA.ZS","value":"Population ages 0-14, male (% of male population)"},"country":{"id":"UA","value":"Ukraine"},"countryiso3code":"UKR","date":"2015","value":16.9902036207935,"unit":"","obs_status":"","decimal":0},{"indicator":{"id":"SP.POP.0014.MA.ZS","value":"Population ages 0-14, male (% of male population)"},"country":{"id":"AE","value":"United Arab Emirates"},"countryiso3code":"ARE","date":"2019","value":null,"unit":"","obs_status":"","decimal":0},{"indicator":{"id":"SP.POP.0014.MA.ZS","value":"Population ages 0-14, male (% of male population)"},"country":{"id":"AE","value":"United Arab Emirates"},"countryiso3code":"ARE","date":"2018","value":10.6630528877424,"unit":"","obs_status":"","decimal":0},{"indicator":{"id":"SP.POP.0014.MA.ZS","value":"Population ages 0-14, male (% of male population)"},"country":{"id":"AE","value":"United Arab Emirates"},"countryiso3code":"ARE","date":"2017","value":10.563185526092,"unit":"","obs_status":"","decimal":0},{"indicator":{"id":"SP.POP.0014.MA.ZS","value":"Population ages 0-14, male (% of male population)"},"country":{"id":"AE","value":"United Arab Emirates"},"countryiso3code":"ARE","date":"2016","value":10.4620735246566,"unit":"","obs_status":"","decimal":0},{"indicator":{"id":"SP.POP.0014.MA.ZS","value":"Population ages 0-14, male (% of male population)"},"country":{"id":"AE","value":"United Arab Emirates"},"countryiso3code":"ARE","date":"2015","value":10.2621221085459,"unit":"","obs_status":"","decimal":0},{"indicator":{"id":"SP.POP.0014.MA.ZS","value":"Population ages 0-14, male (% of male population)"},"country":{"id":"GB","value":"United Kingdom"},"countryiso3code":"GBR","date":"2019","value":null,"unit":"","obs_status":"","decimal":0},{"indicator":{"id":"SP.POP.0014.MA.ZS","value":"Population ages 0-14, male (% of male population)"},"country":{"id":"GB","value":"United Kingdom"},"countryiso3code":"GBR","date":"2018","value":18.3206828443076,"unit":"","obs_status":"","decimal":0},{"indicator":{"id":"SP.POP.0014.MA.ZS","value":"Population ages 0-14, male (% of male population)"},"country":{"id":"GB","value":"United Kingdom"},"countryiso3code":"GBR","date":"2017","value":18.2860557812971,"unit":"","obs_status":"","decimal":0},{"indicator":{"id":"SP.POP.0014.MA.ZS","value":"Population ages 0-14, male (% of male population)"},"country":{"id":"GB","value":"United Kingdom"},"countryiso3code":"GBR","date":"2016","value":18.2498427073609,"unit":"","obs_status":"","decimal":0},{"indicator":{"id":"SP.POP.0014.MA.ZS","value":"Population ages 0-14, male (% of male population)"},"country":{"id":"GB","value":"United Kingdom"},"countryiso3code":"GBR","date":"2015","value":18.2255975987307,"unit":"","obs_status":"","decimal":0},{"indicator":{"id":"SP.POP.0014.MA.ZS","value":"Population ages 0-14, male (% of male population)"},"country":{"id":"US","value":"United States"},"countryiso3code":"USA","date":"2019","value":null,"unit":"","obs_status":"","decimal":0},{"indicator":{"id":"SP.POP.0014.MA.ZS","value":"Population ages 0-14, male (% of male population)"},"country":{"id":"US","value":"United States"},"countryiso3code":"USA","date":"2018","value":19.3259514439618,"unit":"","obs_status":"","decimal":0},{"indicator":{"id":"SP.POP.0014.MA.ZS","value":"Population ages 0-14, male (% of male population)"},"country":{"id":"US","value":"United States"},"countryiso3code":"USA","date":"2017","value":19.4833737078997,"unit":"","obs_status":"","decimal":0},{"indicator":{"id":"SP.POP.0014.MA.ZS","value":"Population ages 0-14, male (% of male population)"},"country":{"id":"US","value":"United States"},"countryiso3code":"USA","date":"2016","value":19.6573709254641,"unit":"","obs_status":"","decimal":0},{"indicator":{"id":"SP.POP.0014.MA.ZS","value":"Population ages 0-14, male (% of male population)"},"country":{"id":"US","value":"United States"},"countryiso3code":"USA","date":"2015","value":19.8686305754807,"unit":"","obs_status":"","decimal":0},{"indicator":{"id":"SP.POP.0014.MA.ZS","value":"Population ages 0-14, male (% of male population)"},"country":{"id":"UY","value":"Uruguay"},"countryiso3code":"URY","date":"2019","value":null,"unit":"","obs_status":"","decimal":0},{"indicator":{"id":"SP.POP.0014.MA.ZS","value":"Population ages 0-14, male (% of male population)"},"country":{"id":"UY","value":"Uruguay"},"countryiso3code":"URY","date":"2018","value":21.8108960501158,"unit":"","obs_status":"","decimal":0},{"indicator":{"id":"SP.POP.0014.MA.ZS","value":"Population ages 0-14, male (% of male population)"},"country":{"id":"UY","value":"Uruguay"},"countryiso3code":"URY","date":"2017","value":21.9938139854574,"unit":"","obs_status":"","decimal":0},{"indicator":{"id":"SP.POP.0014.MA.ZS","value":"Population ages 0-14, male (% of male population)"},"country":{"id":"UY","value":"Uruguay"},"countryiso3code":"URY","date":"2016","value":22.1738096117259,"unit":"","obs_status":"","decimal":0},{"indicator":{"id":"SP.POP.0014.MA.ZS","value":"Population ages 0-14, male (% of male population)"},"country":{"id":"UY","value":"Uruguay"},"countryiso3code":"URY","date":"2015","value":22.3351311804539,"unit":"","obs_status":"","decimal":0},{"indicator":{"id":"SP.POP.0014.MA.ZS","value":"Population ages 0-14, male (% of male population)"},"country":{"id":"UZ","value":"Uzbekistan"},"countryiso3code":"UZB","date":"2019","value":null,"unit":"","obs_status":"","decimal":0},{"indicator":{"id":"SP.POP.0014.MA.ZS","value":"Population ages 0-14, male (% of male population)"},"country":{"id":"UZ","value":"Uzbekistan"},"countryiso3code":"UZB","date":"2018","value":29.5321019714877,"unit":"","obs_status":"","decimal":0},{"indicator":{"id":"SP.POP.0014.MA.ZS","value":"Population ages 0-14, male (% of male population)"},"country":{"id":"UZ","value":"Uzbekistan"},"countryiso3code":"UZB","date":"2017","value":29.3539964221703,"unit":"","obs_status":"","decimal":0},{"indicator":{"id":"SP.POP.0014.MA.ZS","value":"Population ages 0-14, male (% of male population)"},"country":{"id":"UZ","value":"Uzbekistan"},"countryiso3code":"UZB","date":"2016","value":29.2167996439981,"unit":"","obs_status":"","decimal":0},{"indicator":{"id":"SP.POP.0014.MA.ZS","value":"Population ages 0-14, male (% of male population)"},"country":{"id":"UZ","value":"Uzbekistan"},"countryiso3code":"UZB","date":"2015","value":29.1828891765102,"unit":"","obs_status":"","decimal":0},{"indicator":{"id":"SP.POP.0014.MA.ZS","value":"Population ages 0-14, male (% of male population)"},"country":{"id":"VU","value":"Vanuatu"},"countryiso3code":"VUT","date":"2019","value":null,"unit":"","obs_status":"","decimal":0},{"indicator":{"id":"SP.POP.0014.MA.ZS","value":"Population ages 0-14, male (% of male population)"},"country":{"id":"VU","value":"Vanuatu"},"countryiso3code":"VUT","date":"2018","value":39.6835984611135,"unit":"","obs_status":"","decimal":0},{"indicator":{"id":"SP.POP.0014.MA.ZS","value":"Population ages 0-14, male (% of male population)"},"country":{"id":"VU","value":"Vanuatu"},"countryiso3code":"VUT","date":"2017","value":39.7333112358697,"unit":"","obs_status":"","decimal":0},{"indicator":{"id":"SP.POP.0014.MA.ZS","value":"Population ages 0-14, male (% of male population)"},"country":{"id":"VU","value":"Vanuatu"},"countryiso3code":"VUT","date":"2016","value":39.7953330264509,"unit":"","obs_status":"","decimal":0},{"indicator":{"id":"SP.POP.0014.MA.ZS","value":"Population ages 0-14, male (% of male population)"},"country":{"id":"VU","value":"Vanuatu"},"countryiso3code":"VUT","date":"2015","value":39.9867706599405,"unit":"","obs_status":"","decimal":0},{"indicator":{"id":"SP.POP.0014.MA.ZS","value":"Population ages 0-14, male (% of male population)"},"country":{"id":"VE","value":"Venezuela, RB"},"countryiso3code":"VEN","date":"2019","value":null,"unit":"","obs_status":"","decimal":0},{"indicator":{"id":"SP.POP.0014.MA.ZS","value":"Population ages 0-14, male (% of male population)"},"country":{"id":"VE","value":"Venezuela, RB"},"countryiso3code":"VEN","date":"2018","value":28.6112785495842,"unit":"","obs_status":"","decimal":0},{"indicator":{"id":"SP.POP.0014.MA.ZS","value":"Population ages 0-14, male (% of male population)"},"country":{"id":"VE","value":"Venezuela, RB"},"countryiso3code":"VEN","date":"2017","value":28.8746004613745,"unit":"","obs_status":"","decimal":0},{"indicator":{"id":"SP.POP.0014.MA.ZS","value":"Population ages 0-14, male (% of male population)"},"country":{"id":"VE","value":"Venezuela, RB"},"countryiso3code":"VEN","date":"2016","value":29.0767415762124,"unit":"","obs_status":"","decimal":0},{"indicator":{"id":"SP.POP.0014.MA.ZS","value":"Population ages 0-14, male (% of male population)"},"country":{"id":"VE","value":"Venezuela, RB"},"countryiso3code":"VEN","date":"2015","value":29.1913832036377,"unit":"","obs_status":"","decimal":0},{"indicator":{"id":"SP.POP.0014.MA.ZS","value":"Population ages 0-14, male (% of male population)"},"country":{"id":"VN","value":"Vietnam"},"countryiso3code":"VNM","date":"2019","value":null,"unit":"","obs_status":"","decimal":0},{"indicator":{"id":"SP.POP.0014.MA.ZS","value":"Population ages 0-14, male (% of male population)"},"country":{"id":"VN","value":"Vietnam"},"countryiso3code":"VNM","date":"2018","value":24.4428519583873,"unit":"","obs_status":"","decimal":0},{"indicator":{"id":"SP.POP.0014.MA.ZS","value":"Population ages 0-14, male (% of male population)"},"country":{"id":"VN","value":"Vietnam"},"countryiso3code":"VNM","date":"2017","value":24.3357284971092,"unit":"","obs_status":"","decimal":0},{"indicator":{"id":"SP.POP.0014.MA.ZS","value":"Population ages 0-14, male (% of male population)"},"country":{"id":"VN","value":"Vietnam"},"countryiso3code":"VNM","date":"2016","value":24.2432350916579,"unit":"","obs_status":"","decimal":0},{"indicator":{"id":"SP.POP.0014.MA.ZS","value":"Population ages 0-14, male (% of male population)"},"country":{"id":"VN","value":"Vietnam"},"countryiso3code":"VNM","date":"2015","value":24.2112024066428,"unit":"","obs_status":"","decimal":0},{"indicator":{"id":"SP.POP.0014.MA.ZS","value":"Population ages 0-14, male (% of male population)"},"country":{"id":"VI","value":"Virgin Islands (U.S.)"},"countryiso3code":"VIR","date":"2019","value":null,"unit":"","obs_status":"","decimal":0},{"indicator":{"id":"SP.POP.0014.MA.ZS","value":"Population ages 0-14, male (% of male population)"},"country":{"id":"VI","value":"Virgin Islands (U.S.)"},"countryiso3code":"VIR","date":"2018","value":21.0786381440193,"unit":"","obs_status":"","decimal":0},{"indicator":{"id":"SP.POP.0014.MA.ZS","value":"Population ages 0-14, male (% of male population)"},"country":{"id":"VI","value":"Virgin Islands (U.S.)"},"countryiso3code":"VIR","date":"2017","value":21.3299899699097,"unit":"","obs_status":"","decimal":0},{"indicator":{"id":"SP.POP.0014.MA.ZS","value":"Population ages 0-14, male (% of male population)"},"country":{"id":"VI","value":"Virgin Islands (U.S.)"},"countryiso3code":"VIR","date":"2016","value":21.5394475934865,"unit":"","obs_status":"","decimal":0},{"indicator":{"id":"SP.POP.0014.MA.ZS","value":"Population ages 0-14, male (% of male population)"},"country":{"id":"VI","value":"Virgin Islands (U.S.)"},"countryiso3code":"VIR","date":"2015","value":21.6807966088139,"unit":"","obs_status":"","decimal":0},{"indicator":{"id":"SP.POP.0014.MA.ZS","value":"Population ages 0-14, male (% of male population)"},"country":{"id":"PS","value":"West Bank and Gaza"},"countryiso3code":"PSE","date":"2019","value":null,"unit":"","obs_status":"","decimal":0},{"indicator":{"id":"SP.POP.0014.MA.ZS","value":"Population ages 0-14, male (% of male population)"},"country":{"id":"PS","value":"West Bank and Gaza"},"countryiso3code":"PSE","date":"2018","value":39.2353981181513,"unit":"","obs_status":"","decimal":0},{"indicator":{"id":"SP.POP.0014.MA.ZS","value":"Population ages 0-14, male (% of male population)"},"country":{"id":"PS","value":"West Bank and Gaza"},"countryiso3code":"PSE","date":"2017","value":39.5399398910598,"unit":"","obs_status":"","decimal":0},{"indicator":{"id":"SP.POP.0014.MA.ZS","value":"Population ages 0-14, male (% of male population)"},"country":{"id":"PS","value":"West Bank and Gaza"},"countryiso3code":"PSE","date":"2016","value":39.8565568543018,"unit":"","obs_status":"","decimal":0},{"indicator":{"id":"SP.POP.0014.MA.ZS","value":"Population ages 0-14, male (% of male population)"},"country":{"id":"PS","value":"West Bank and Gaza"},"countryiso3code":"PSE","date":"2015","value":40.1687853675835,"unit":"","obs_status":"","decimal":0},{"indicator":{"id":"SP.POP.0014.MA.ZS","value":"Population ages 0-14, male (% of male population)"},"country":{"id":"YE","value":"Yemen, Rep."},"countryiso3code":"YEM","date":"2019","value":null,"unit":"","obs_status":"","decimal":0},{"indicator":{"id":"SP.POP.0014.MA.ZS","value":"Population ages 0-14, male (% of male population)"},"country":{"id":"YE","value":"Yemen, Rep."},"countryiso3code":"YEM","date":"2018","value":40.0898007481051,"unit":"","obs_status":"","decimal":0},{"indicator":{"id":"SP.POP.0014.MA.ZS","value":"Population ages 0-14, male (% of male population)"},"country":{"id":"YE","value":"Yemen, Rep."},"countryiso3code":"YEM","date":"2017","value":40.4750551050491,"unit":"","obs_status":"","decimal":0},{"indicator":{"id":"SP.POP.0014.MA.ZS","value":"Population ages 0-14, male (% of male population)"},"country":{"id":"YE","value":"Yemen, Rep."},"countryiso3code":"YEM","date":"2016","value":40.8373590182597,"unit":"","obs_status":"","decimal":0},{"indicator":{"id":"SP.POP.0014.MA.ZS","value":"Population ages 0-14, male (% of male population)"},"country":{"id":"YE","value":"Yemen, Rep."},"countryiso3code":"YEM","date":"2015","value":41.165815476203,"unit":"","obs_status":"","decimal":0},{"indicator":{"id":"SP.POP.0014.MA.ZS","value":"Population ages 0-14, male (% of male population)"},"country":{"id":"ZM","value":"Zambia"},"countryiso3code":"ZMB","date":"2019","value":null,"unit":"","obs_status":"","decimal":0},{"indicator":{"id":"SP.POP.0014.MA.ZS","value":"Population ages 0-14, male (% of male population)"},"country":{"id":"ZM","value":"Zambia"},"countryiso3code":"ZMB","date":"2018","value":45.7831336521512,"unit":"","obs_status":"","decimal":0},{"indicator":{"id":"SP.POP.0014.MA.ZS","value":"Population ages 0-14, male (% of male population)"},"country":{"id":"ZM","value":"Zambia"},"countryiso3code":"ZMB","date":"2017","value":46.2587560951052,"unit":"","obs_status":"","decimal":0},{"indicator":{"id":"SP.POP.0014.MA.ZS","value":"Population ages 0-14, male (% of male population)"},"country":{"id":"ZM","value":"Zambia"},"countryiso3code":"ZMB","date":"2016","value":46.6838824645196,"unit":"","obs_status":"","decimal":0},{"indicator":{"id":"SP.POP.0014.MA.ZS","value":"Population ages 0-14, male (% of male population)"},"country":{"id":"ZM","value":"Zambia"},"countryiso3code":"ZMB","date":"2015","value":47.0264297416971,"unit":"","obs_status":"","decimal":0},{"indicator":{"id":"SP.POP.0014.MA.ZS","value":"Population ages 0-14, male (% of male population)"},"country":{"id":"ZW","value":"Zimbabwe"},"countryiso3code":"ZWE","date":"2019","value":null,"unit":"","obs_status":"","decimal":0},{"indicator":{"id":"SP.POP.0014.MA.ZS","value":"Population ages 0-14, male (% of male population)"},"country":{"id":"ZW","value":"Zimbabwe"},"countryiso3code":"ZWE","date":"2018","value":44.6411524498995,"unit":"","obs_status":"","decimal":0},{"indicator":{"id":"SP.POP.0014.MA.ZS","value":"Population ages 0-14, male (% of male population)"},"country":{"id":"ZW","value":"Zimbabwe"},"countryiso3code":"ZWE","date":"2017","value":44.8609528565067,"unit":"","obs_status":"","decimal":0},{"indicator":{"id":"SP.POP.0014.MA.ZS","value":"Population ages 0-14, male (% of male population)"},"country":{"id":"ZW","value":"Zimbabwe"},"countryiso3code":"ZWE","date":"2016","value":44.9476686814881,"unit":"","obs_status":"","decimal":0},{"indicator":{"id":"SP.POP.0014.MA.ZS","value":"Population ages 0-14, male (% of male population)"},"country":{"id":"ZW","value":"Zimbabwe"},"countryiso3code":"ZWE","date":"2015","value":44.8533197498835,"unit":"","obs_status":"","decimal":0}]]