[{"page":7,"pages":7,"per_page":200,"total":1320,"sourceid":"2","lastupdated":"2020-05-19"},[{"indicator":{"id":"SP.POP.0014.TO.ZS","value":"Population ages 0-14 (% of total population)"},"country":{"id":"TL","value":"Timor-Leste"},"countryiso3code":"TLS","date":"2019","value":null,"unit":"","obs_status":"","decimal":0},{"indicator":{"id":"SP.POP.0014.TO.ZS","value":"Population ages 0-14 (% of total population)"},"country":{"id":"TL","value":"Timor-Leste"},"countryiso3code":"TLS","date":"2018","value":37.7806642722958,"unit":"","obs_status":"","decimal":0},{"indicator":{"id":"SP.POP.0014.TO.ZS","value":"Population ages 0-14 (% of total population)"},"country":{"id":"TL","value":"Timor-Leste"},"countryiso3code":"TLS","date":"2017","value":38.3023475417009,"unit":"","obs_status":"","decimal":0},{"indicator":{"id":"SP.POP.0014.TO.ZS","value":"Population ages 0-14 (% of total population)"},"country":{"id":"TL","value":"Timor-Leste"},"countryiso3code":"TLS","date":"2016","value":38.8670273143015,"unit":"","obs_status":"","decimal":0},{"indicator":{"id":"SP.POP.0014.TO.ZS","value":"Population ages 0-14 (% of total population)"},"country":{"id":"TL","value":"Timor-Leste"},"countryiso3code":"TLS","date":"2015","value":39.4855145272682,"unit":"","obs_status":"","decimal":0},{"indicator":{"id":"SP.POP.0014.TO.ZS","value":"Population ages 0-14 (% of total population)"},"country":{"id":"TG","value":"Togo"},"countryiso3code":"TGO","date":"2019","value":null,"unit":"","obs_status":"","decimal":0},{"indicator":{"id":"SP.POP.0014.TO.ZS","value":"Population ages 0-14 (% of total population)"},"country":{"id":"TG","value":"Togo"},"countryiso3code":"TGO","date":"2018","value":41.334523499723,"unit":"","obs_status":"","decimal":0},{"indicator":{"id":"SP.POP.0014.TO.ZS","value":"Population ages 0-14 (% of total population)"},"country":{"id":"TG","value":"Togo"},"countryiso3code":"TGO","date":"2017","value":41.6375764859374,"unit":"","obs_status":"","decimal":0},{"indicator":{"id":"SP.POP.0014.TO.ZS","value":"Population ages 0-14 (% of total population)"},"country":{"id":"TG","value":"Togo"},"countryiso3code":"TGO","date":"2016","value":41.904494450097,"unit":"","obs_status":"","decimal":0},{"indicator":{"id":"SP.POP.0014.TO.ZS","value":"Population ages 0-14 (% of total population)"},"country":{"id":"TG","value":"Togo"},"countryiso3code":"TGO","date":"2015","value":42.1361248794577,"unit":"","obs_status":"","decimal":0},{"indicator":{"id":"SP.POP.0014.TO.ZS","value":"Population ages 0-14 (% of total population)"},"country":{"id":"TO","value":"Tonga"},"countryiso3code":"TON","date":"2019","value":null,"unit":"","obs_status":"","decimal":0},{"indicator":{"id":"SP.POP.0014.TO.ZS","value":"Population ages 0-14 (% of total population)"},"country":{"id":"TO","value":"Tonga"},"countryiso3code":"TON","date":"2018","value":35.4157582100255,"unit":"","obs_status":"","decimal":0},{"indicator":{"id":"SP.POP.0014.TO.ZS","value":"Population ages 0-14 (% of total population)"},"country":{"id":"TO","value":"Tonga"},"countryiso3code":"TON","date":"2017","value":35.7830545696974,"unit":"","obs_status":"","decimal":0},{"indicator":{"id":"SP.POP.0014.TO.ZS","value":"Population ages 0-14 (% of total population)"},"country":{"id":"TO","value":"Tonga"},"countryiso3code":"TON","date":"2016","value":36.1306398504939,"unit":"","obs_status":"","decimal":0},{"indicator":{"id":"SP.POP.0014.TO.ZS","value":"Population ages 0-14 (% of total population)"},"country":{"id":"TO","value":"Tonga"},"countryiso3code":"TON","date":"2015","value":36.4066639545152,"unit":"","obs_status":"","decimal":0},{"indicator":{"id":"SP.POP.0014.TO.ZS","value":"Population ages 0-14 (% of total population)"},"country":{"id":"TT","value":"Trinidad and Tobago"},"countryiso3code":"TTO","date":"2019","value":null,"unit":"","obs_status":"","decimal":0},{"indicator":{"id":"SP.POP.0014.TO.ZS","value":"Population ages 0-14 (% of total population)"},"country":{"id":"TT","value":"Trinidad and Tobago"},"countryiso3code":"TTO","date":"2018","value":20.419572570427,"unit":"","obs_status":"","decimal":0},{"indicator":{"id":"SP.POP.0014.TO.ZS","value":"Population ages 0-14 (% of total population)"},"country":{"id":"TT","value":"Trinidad and Tobago"},"countryiso3code":"TTO","date":"2017","value":20.5385030551443,"unit":"","obs_status":"","decimal":0},{"indicator":{"id":"SP.POP.0014.TO.ZS","value":"Population ages 0-14 (% of total population)"},"country":{"id":"TT","value":"Trinidad and Tobago"},"countryiso3code":"TTO","date":"2016","value":20.6218240947763,"unit":"","obs_status":"","decimal":0},{"indicator":{"id":"SP.POP.0014.TO.ZS","value":"Population ages 0-14 (% of total population)"},"country":{"id":"TT","value":"Trinidad and Tobago"},"countryiso3code":"TTO","date":"2015","value":20.6786258472424,"unit":"","obs_status":"","decimal":0},{"indicator":{"id":"SP.POP.0014.TO.ZS","value":"Population ages 0-14 (% of total population)"},"country":{"id":"TN","value":"Tunisia"},"countryiso3code":"TUN","date":"2019","value":null,"unit":"","obs_status":"","decimal":0},{"indicator":{"id":"SP.POP.0014.TO.ZS","value":"Population ages 0-14 (% of total population)"},"country":{"id":"TN","value":"Tunisia"},"countryiso3code":"TUN","date":"2018","value":24.1701203463736,"unit":"","obs_status":"","decimal":0},{"indicator":{"id":"SP.POP.0014.TO.ZS","value":"Population ages 0-14 (% of total population)"},"country":{"id":"TN","value":"Tunisia"},"countryiso3code":"TUN","date":"2017","value":24.1116258680784,"unit":"","obs_status":"","decimal":0},{"indicator":{"id":"SP.POP.0014.TO.ZS","value":"Population ages 0-14 (% of total population)"},"country":{"id":"TN","value":"Tunisia"},"countryiso3code":"TUN","date":"2016","value":23.9984182513273,"unit":"","obs_status":"","decimal":0},{"indicator":{"id":"SP.POP.0014.TO.ZS","value":"Population ages 0-14 (% of total population)"},"country":{"id":"TN","value":"Tunisia"},"countryiso3code":"TUN","date":"2015","value":23.7900011887353,"unit":"","obs_status":"","decimal":0},{"indicator":{"id":"SP.POP.0014.TO.ZS","value":"Population ages 0-14 (% of total population)"},"country":{"id":"TR","value":"Turkey"},"countryiso3code":"TUR","date":"2019","value":null,"unit":"","obs_status":"","decimal":0},{"indicator":{"id":"SP.POP.0014.TO.ZS","value":"Population ages 0-14 (% of total population)"},"country":{"id":"TR","value":"Turkey"},"countryiso3code":"TUR","date":"2018","value":24.6494101390807,"unit":"","obs_status":"","decimal":0},{"indicator":{"id":"SP.POP.0014.TO.ZS","value":"Population ages 0-14 (% of total population)"},"country":{"id":"TR","value":"Turkey"},"countryiso3code":"TUR","date":"2017","value":25.0027571472864,"unit":"","obs_status":"","decimal":0},{"indicator":{"id":"SP.POP.0014.TO.ZS","value":"Population ages 0-14 (% of total population)"},"country":{"id":"TR","value":"Turkey"},"countryiso3code":"TUR","date":"2016","value":25.3242680116071,"unit":"","obs_status":"","decimal":0},{"indicator":{"id":"SP.POP.0014.TO.ZS","value":"Population ages 0-14 (% of total population)"},"country":{"id":"TR","value":"Turkey"},"countryiso3code":"TUR","date":"2015","value":25.5997889911536,"unit":"","obs_status":"","decimal":0},{"indicator":{"id":"SP.POP.0014.TO.ZS","value":"Population ages 0-14 (% of total population)"},"country":{"id":"TM","value":"Turkmenistan"},"countryiso3code":"TKM","date":"2019","value":null,"unit":"","obs_status":"","decimal":0},{"indicator":{"id":"SP.POP.0014.TO.ZS","value":"Population ages 0-14 (% of total population)"},"country":{"id":"TM","value":"Turkmenistan"},"countryiso3code":"TKM","date":"2018","value":30.8223639401863,"unit":"","obs_status":"","decimal":0},{"indicator":{"id":"SP.POP.0014.TO.ZS","value":"Population ages 0-14 (% of total population)"},"country":{"id":"TM","value":"Turkmenistan"},"countryiso3code":"TKM","date":"2017","value":30.910314889694,"unit":"","obs_status":"","decimal":0},{"indicator":{"id":"SP.POP.0014.TO.ZS","value":"Population ages 0-14 (% of total population)"},"country":{"id":"TM","value":"Turkmenistan"},"countryiso3code":"TKM","date":"2016","value":30.8282683145991,"unit":"","obs_status":"","decimal":0},{"indicator":{"id":"SP.POP.0014.TO.ZS","value":"Population ages 0-14 (% of total population)"},"country":{"id":"TM","value":"Turkmenistan"},"countryiso3code":"TKM","date":"2015","value":30.4441262418272,"unit":"","obs_status":"","decimal":0},{"indicator":{"id":"SP.POP.0014.TO.ZS","value":"Population ages 0-14 (% of total population)"},"country":{"id":"TC","value":"Turks and Caicos Islands"},"countryiso3code":"TCA","date":"2019","value":null,"unit":"","obs_status":"","decimal":0},{"indicator":{"id":"SP.POP.0014.TO.ZS","value":"Population ages 0-14 (% of total population)"},"country":{"id":"TC","value":"Turks and Caicos Islands"},"countryiso3code":"TCA","date":"2018","value":null,"unit":"","obs_status":"","decimal":0},{"indicator":{"id":"SP.POP.0014.TO.ZS","value":"Population ages 0-14 (% of total population)"},"country":{"id":"TC","value":"Turks and Caicos Islands"},"countryiso3code":"TCA","date":"2017","value":null,"unit":"","obs_status":"","decimal":0},{"indicator":{"id":"SP.POP.0014.TO.ZS","value":"Population ages 0-14 (% of total population)"},"country":{"id":"TC","value":"Turks and Caicos Islands"},"countryiso3code":"TCA","date":"2016","value":null,"unit":"","obs_status":"","decimal":0},{"indicator":{"id":"SP.POP.0014.TO.ZS","value":"Population ages 0-14 (% of total population)"},"country":{"id":"TC","value":"Turks and Caicos Islands"},"countryiso3code":"TCA","date":"2015","value":null,"unit":"","obs_status":"","decimal":0},{"indicator":{"id":"SP.POP.0014.TO.ZS","value":"Population ages 0-14 (% of total population)"},"country":{"id":"TV","value":"Tuvalu"},"countryiso3code":"TUV","date":"2019","value":null,"unit":"","obs_status":"","decimal":0},{"indicator":{"id":"SP.POP.0014.TO.ZS","value":"Population ages 0-14 (% of total population)"},"country":{"id":"TV","value":"Tuvalu"},"countryiso3code":"TUV","date":"2018","value":null,"unit":"","obs_status":"","decimal":0},{"indicator":{"id":"SP.POP.0014.TO.ZS","value":"Population ages 0-14 (% of total population)"},"country":{"id":"TV","value":"Tuvalu"},"countryiso3code":"TUV","date":"2017","value":null,"unit":"","obs_status":"","decimal":0},{"indicator":{"id":"SP.POP.0014.TO.ZS","value":"Population ages 0-14 (% of total population)"},"country":{"id":"TV","value":"Tuvalu"},"countryiso3code":"TUV","date":"2016","value":null,"unit":"","obs_status":"","decimal":0},{"indicator":{"id":"SP.POP.0014.TO.ZS","value":"Population ages 0-14 (% of total population)"},"country":{"id":"TV","value":"Tuvalu"},"countryiso3code":"TUV","date":"2015","value":null,"unit":"","obs_status":"","decimal":0},{"indicator":{"id":"SP.POP.0014.TO.ZS","value":"Population ages 0-14 (% of total population)"},"country":{"id":"UG","value":"Uganda"},"countryiso3code":"UGA","date":"2019","value":null,"unit":"","obs_status":"","decimal":0},{"indicator":{"id":"SP.POP.0014.TO.ZS","value":"Population ages 0-14 (% of total population)"},"country":{"id":"UG","value":"Uganda"},"countryiso3code":"UGA","date":"2018","value":46.9305251819863,"unit":"","obs_status":"","decimal":0},{"indicator":{"id":"SP.POP.0014.TO.ZS","value":"Population ages 0-14 (% of total population)"},"country":{"id":"UG","value":"Uganda"},"countryiso3code":"UGA","date":"2017","value":47.3199381984244,"unit":"","obs_status":"","decimal":0},{"indicator":{"id":"SP.POP.0014.TO.ZS","value":"Population ages 0-14 (% of total population)"},"country":{"id":"UG","value":"Uganda"},"countryiso3code":"UGA","date":"2016","value":47.6744554980047,"unit":"","obs_status":"","decimal":0},{"indicator":{"id":"SP.POP.0014.TO.ZS","value":"Population ages 0-14 (% of total population)"},"country":{"id":"UG","value":"Uganda"},"countryiso3code":"UGA","date":"2015","value":47.9875228685975,"unit":"","obs_status":"","decimal":0},{"indicator":{"id":"SP.POP.0014.TO.ZS","value":"Population ages 0-14 (% of total population)"},"country":{"id":"UA","value":"Ukraine"},"countryiso3code":"UKR","date":"2019","value":null,"unit":"","obs_status":"","decimal":0},{"indicator":{"id":"SP.POP.0014.TO.ZS","value":"Population ages 0-14 (% of total population)"},"country":{"id":"UA","value":"Ukraine"},"countryiso3code":"UKR","date":"2018","value":15.8124131732483,"unit":"","obs_status":"","decimal":0},{"indicator":{"id":"SP.POP.0014.TO.ZS","value":"Population ages 0-14 (% of total population)"},"country":{"id":"UA","value":"Ukraine"},"countryiso3code":"UKR","date":"2017","value":15.6289572025388,"unit":"","obs_status":"","decimal":0},{"indicator":{"id":"SP.POP.0014.TO.ZS","value":"Population ages 0-14 (% of total population)"},"country":{"id":"UA","value":"Ukraine"},"countryiso3code":"UKR","date":"2016","value":15.434669220634,"unit":"","obs_status":"","decimal":0},{"indicator":{"id":"SP.POP.0014.TO.ZS","value":"Population ages 0-14 (% of total population)"},"country":{"id":"UA","value":"Ukraine"},"countryiso3code":"UKR","date":"2015","value":15.2639377205271,"unit":"","obs_status":"","decimal":0},{"indicator":{"id":"SP.POP.0014.TO.ZS","value":"Population ages 0-14 (% of total population)"},"country":{"id":"AE","value":"United Arab Emirates"},"countryiso3code":"ARE","date":"2019","value":null,"unit":"","obs_status":"","decimal":0},{"indicator":{"id":"SP.POP.0014.TO.ZS","value":"Population ages 0-14 (% of total population)"},"country":{"id":"AE","value":"United Arab Emirates"},"countryiso3code":"ARE","date":"2018","value":14.6035093701468,"unit":"","obs_status":"","decimal":0},{"indicator":{"id":"SP.POP.0014.TO.ZS","value":"Population ages 0-14 (% of total population)"},"country":{"id":"AE","value":"United Arab Emirates"},"countryiso3code":"ARE","date":"2017","value":14.5044224309314,"unit":"","obs_status":"","decimal":0},{"indicator":{"id":"SP.POP.0014.TO.ZS","value":"Population ages 0-14 (% of total population)"},"country":{"id":"AE","value":"United Arab Emirates"},"countryiso3code":"ARE","date":"2016","value":14.385513055257,"unit":"","obs_status":"","decimal":0},{"indicator":{"id":"SP.POP.0014.TO.ZS","value":"Population ages 0-14 (% of total population)"},"country":{"id":"AE","value":"United Arab Emirates"},"countryiso3code":"ARE","date":"2015","value":14.1638903583111,"unit":"","obs_status":"","decimal":0},{"indicator":{"id":"SP.POP.0014.TO.ZS","value":"Population ages 0-14 (% of total population)"},"country":{"id":"GB","value":"United Kingdom"},"countryiso3code":"GBR","date":"2019","value":null,"unit":"","obs_status":"","decimal":0},{"indicator":{"id":"SP.POP.0014.TO.ZS","value":"Population ages 0-14 (% of total population)"},"country":{"id":"GB","value":"United Kingdom"},"countryiso3code":"GBR","date":"2018","value":17.6780820689573,"unit":"","obs_status":"","decimal":0},{"indicator":{"id":"SP.POP.0014.TO.ZS","value":"Population ages 0-14 (% of total population)"},"country":{"id":"GB","value":"United Kingdom"},"countryiso3code":"GBR","date":"2017","value":17.63500937043,"unit":"","obs_status":"","decimal":0},{"indicator":{"id":"SP.POP.0014.TO.ZS","value":"Population ages 0-14 (% of total population)"},"country":{"id":"GB","value":"United Kingdom"},"countryiso3code":"GBR","date":"2016","value":17.5896993125458,"unit":"","obs_status":"","decimal":0},{"indicator":{"id":"SP.POP.0014.TO.ZS","value":"Population ages 0-14 (% of total population)"},"country":{"id":"GB","value":"United Kingdom"},"countryiso3code":"GBR","date":"2015","value":17.5558417377332,"unit":"","obs_status":"","decimal":0},{"indicator":{"id":"SP.POP.0014.TO.ZS","value":"Population ages 0-14 (% of total population)"},"country":{"id":"US","value":"United States"},"countryiso3code":"USA","date":"2019","value":null,"unit":"","obs_status":"","decimal":0},{"indicator":{"id":"SP.POP.0014.TO.ZS","value":"Population ages 0-14 (% of total population)"},"country":{"id":"US","value":"United States"},"countryiso3code":"USA","date":"2018","value":18.7090399824651,"unit":"","obs_status":"","decimal":0},{"indicator":{"id":"SP.POP.0014.TO.ZS","value":"Population ages 0-14 (% of total population)"},"country":{"id":"US","value":"United States"},"countryiso3code":"USA","date":"2017","value":18.8585280818274,"unit":"","obs_status":"","decimal":0},{"indicator":{"id":"SP.POP.0014.TO.ZS","value":"Population ages 0-14 (% of total population)"},"country":{"id":"US","value":"United States"},"countryiso3code":"USA","date":"2016","value":19.0233424818483,"unit":"","obs_status":"","decimal":0},{"indicator":{"id":"SP.POP.0014.TO.ZS","value":"Population ages 0-14 (% of total population)"},"country":{"id":"US","value":"United States"},"countryiso3code":"USA","date":"2015","value":19.2237265896844,"unit":"","obs_status":"","decimal":0},{"indicator":{"id":"SP.POP.0014.TO.ZS","value":"Population ages 0-14 (% of total population)"},"country":{"id":"UY","value":"Uruguay"},"countryiso3code":"URY","date":"2019","value":null,"unit":"","obs_status":"","decimal":0},{"indicator":{"id":"SP.POP.0014.TO.ZS","value":"Population ages 0-14 (% of total population)"},"country":{"id":"UY","value":"Uruguay"},"countryiso3code":"URY","date":"2018","value":20.6079810743386,"unit":"","obs_status":"","decimal":0},{"indicator":{"id":"SP.POP.0014.TO.ZS","value":"Population ages 0-14 (% of total population)"},"country":{"id":"UY","value":"Uruguay"},"countryiso3code":"URY","date":"2017","value":20.7770319914125,"unit":"","obs_status":"","decimal":0},{"indicator":{"id":"SP.POP.0014.TO.ZS","value":"Population ages 0-14 (% of total population)"},"country":{"id":"UY","value":"Uruguay"},"countryiso3code":"URY","date":"2016","value":20.9417635842575,"unit":"","obs_status":"","decimal":0},{"indicator":{"id":"SP.POP.0014.TO.ZS","value":"Population ages 0-14 (% of total population)"},"country":{"id":"UY","value":"Uruguay"},"countryiso3code":"URY","date":"2015","value":21.0852316040198,"unit":"","obs_status":"","decimal":0},{"indicator":{"id":"SP.POP.0014.TO.ZS","value":"Population ages 0-14 (% of total population)"},"country":{"id":"UZ","value":"Uzbekistan"},"countryiso3code":"UZB","date":"2019","value":null,"unit":"","obs_status":"","decimal":0},{"indicator":{"id":"SP.POP.0014.TO.ZS","value":"Population ages 0-14 (% of total population)"},"country":{"id":"UZ","value":"Uzbekistan"},"countryiso3code":"UZB","date":"2018","value":28.6860574147675,"unit":"","obs_status":"","decimal":0},{"indicator":{"id":"SP.POP.0014.TO.ZS","value":"Population ages 0-14 (% of total population)"},"country":{"id":"UZ","value":"Uzbekistan"},"countryiso3code":"UZB","date":"2017","value":28.5183238873478,"unit":"","obs_status":"","decimal":0},{"indicator":{"id":"SP.POP.0014.TO.ZS","value":"Population ages 0-14 (% of total population)"},"country":{"id":"UZ","value":"Uzbekistan"},"countryiso3code":"UZB","date":"2016","value":28.388549352738,"unit":"","obs_status":"","decimal":0},{"indicator":{"id":"SP.POP.0014.TO.ZS","value":"Population ages 0-14 (% of total population)"},"country":{"id":"UZ","value":"Uzbekistan"},"countryiso3code":"UZB","date":"2015","value":28.3548548723152,"unit":"","obs_status":"","decimal":0},{"indicator":{"id":"SP.POP.0014.TO.ZS","value":"Population ages 0-14 (% of total population)"},"country":{"id":"VU","value":"Vanuatu"},"countryiso3code":"VUT","date":"2019","value":null,"unit":"","obs_status":"","decimal":0},{"indicator":{"id":"SP.POP.0014.TO.ZS","value":"Population ages 0-14 (% of total population)"},"country":{"id":"VU","value":"Vanuatu"},"countryiso3code":"VUT","date":"2018","value":38.8482301489682,"unit":"","obs_status":"","decimal":0},{"indicator":{"id":"SP.POP.0014.TO.ZS","value":"Population ages 0-14 (% of total population)"},"country":{"id":"VU","value":"Vanuatu"},"countryiso3code":"VUT","date":"2017","value":38.8623866064236,"unit":"","obs_status":"","decimal":0},{"indicator":{"id":"SP.POP.0014.TO.ZS","value":"Population ages 0-14 (% of total population)"},"country":{"id":"VU","value":"Vanuatu"},"countryiso3code":"VUT","date":"2016","value":38.8959149211368,"unit":"","obs_status":"","decimal":0},{"indicator":{"id":"SP.POP.0014.TO.ZS","value":"Population ages 0-14 (% of total population)"},"country":{"id":"VU","value":"Vanuatu"},"countryiso3code":"VUT","date":"2015","value":39.0720318666322,"unit":"","obs_status":"","decimal":0},{"indicator":{"id":"SP.POP.0014.TO.ZS","value":"Population ages 0-14 (% of total population)"},"country":{"id":"VE","value":"Venezuela, RB"},"countryiso3code":"VEN","date":"2019","value":null,"unit":"","obs_status":"","decimal":0},{"indicator":{"id":"SP.POP.0014.TO.ZS","value":"Population ages 0-14 (% of total population)"},"country":{"id":"VE","value":"Venezuela, RB"},"countryiso3code":"VEN","date":"2018","value":27.6666505810652,"unit":"","obs_status":"","decimal":0},{"indicator":{"id":"SP.POP.0014.TO.ZS","value":"Population ages 0-14 (% of total population)"},"country":{"id":"VE","value":"Venezuela, RB"},"countryiso3code":"VEN","date":"2017","value":27.9706197612419,"unit":"","obs_status":"","decimal":0},{"indicator":{"id":"SP.POP.0014.TO.ZS","value":"Population ages 0-14 (% of total population)"},"country":{"id":"VE","value":"Venezuela, RB"},"countryiso3code":"VEN","date":"2016","value":28.2171520091869,"unit":"","obs_status":"","decimal":0},{"indicator":{"id":"SP.POP.0014.TO.ZS","value":"Population ages 0-14 (% of total population)"},"country":{"id":"VE","value":"Venezuela, RB"},"countryiso3code":"VEN","date":"2015","value":28.3803986785511,"unit":"","obs_status":"","decimal":0},{"indicator":{"id":"SP.POP.0014.TO.ZS","value":"Population ages 0-14 (% of total population)"},"country":{"id":"VN","value":"Vietnam"},"countryiso3code":"VNM","date":"2019","value":null,"unit":"","obs_status":"","decimal":0},{"indicator":{"id":"SP.POP.0014.TO.ZS","value":"Population ages 0-14 (% of total population)"},"country":{"id":"VN","value":"Vietnam"},"countryiso3code":"VNM","date":"2018","value":23.1726768317012,"unit":"","obs_status":"","decimal":0},{"indicator":{"id":"SP.POP.0014.TO.ZS","value":"Population ages 0-14 (% of total population)"},"country":{"id":"VN","value":"Vietnam"},"countryiso3code":"VNM","date":"2017","value":23.0975510865422,"unit":"","obs_status":"","decimal":0},{"indicator":{"id":"SP.POP.0014.TO.ZS","value":"Population ages 0-14 (% of total population)"},"country":{"id":"VN","value":"Vietnam"},"countryiso3code":"VNM","date":"2016","value":23.0369679453175,"unit":"","obs_status":"","decimal":0},{"indicator":{"id":"SP.POP.0014.TO.ZS","value":"Population ages 0-14 (% of total population)"},"country":{"id":"VN","value":"Vietnam"},"countryiso3code":"VNM","date":"2015","value":23.029828865123,"unit":"","obs_status":"","decimal":0},{"indicator":{"id":"SP.POP.0014.TO.ZS","value":"Population ages 0-14 (% of total population)"},"country":{"id":"VI","value":"Virgin Islands (U.S.)"},"countryiso3code":"VIR","date":"2019","value":null,"unit":"","obs_status":"","decimal":0},{"indicator":{"id":"SP.POP.0014.TO.ZS","value":"Population ages 0-14 (% of total population)"},"country":{"id":"VI","value":"Virgin Islands (U.S.)"},"countryiso3code":"VIR","date":"2018","value":19.7134123041651,"unit":"","obs_status":"","decimal":0},{"indicator":{"id":"SP.POP.0014.TO.ZS","value":"Population ages 0-14 (% of total population)"},"country":{"id":"VI","value":"Virgin Islands (U.S.)"},"countryiso3code":"VIR","date":"2017","value":19.9167549713129,"unit":"","obs_status":"","decimal":0},{"indicator":{"id":"SP.POP.0014.TO.ZS","value":"Population ages 0-14 (% of total population)"},"country":{"id":"VI","value":"Virgin Islands (U.S.)"},"countryiso3code":"VIR","date":"2016","value":20.1049267897172,"unit":"","obs_status":"","decimal":0},{"indicator":{"id":"SP.POP.0014.TO.ZS","value":"Population ages 0-14 (% of total population)"},"country":{"id":"VI","value":"Virgin Islands (U.S.)"},"countryiso3code":"VIR","date":"2015","value":20.2871624840412,"unit":"","obs_status":"","decimal":0},{"indicator":{"id":"SP.POP.0014.TO.ZS","value":"Population ages 0-14 (% of total population)"},"country":{"id":"PS","value":"West Bank and Gaza"},"countryiso3code":"PSE","date":"2019","value":null,"unit":"","obs_status":"","decimal":0},{"indicator":{"id":"SP.POP.0014.TO.ZS","value":"Population ages 0-14 (% of total population)"},"country":{"id":"PS","value":"West Bank and Gaza"},"countryiso3code":"PSE","date":"2018","value":38.9473612779327,"unit":"","obs_status":"","decimal":0},{"indicator":{"id":"SP.POP.0014.TO.ZS","value":"Population ages 0-14 (% of total population)"},"country":{"id":"PS","value":"West Bank and Gaza"},"countryiso3code":"PSE","date":"2017","value":39.2627316957879,"unit":"","obs_status":"","decimal":0},{"indicator":{"id":"SP.POP.0014.TO.ZS","value":"Population ages 0-14 (% of total population)"},"country":{"id":"PS","value":"West Bank and Gaza"},"countryiso3code":"PSE","date":"2016","value":39.5869924718281,"unit":"","obs_status":"","decimal":0},{"indicator":{"id":"SP.POP.0014.TO.ZS","value":"Population ages 0-14 (% of total population)"},"country":{"id":"PS","value":"West Bank and Gaza"},"countryiso3code":"PSE","date":"2015","value":39.9030859102978,"unit":"","obs_status":"","decimal":0},{"indicator":{"id":"SP.POP.0014.TO.ZS","value":"Population ages 0-14 (% of total population)"},"country":{"id":"YE","value":"Yemen, Rep."},"countryiso3code":"YEM","date":"2019","value":null,"unit":"","obs_status":"","decimal":0},{"indicator":{"id":"SP.POP.0014.TO.ZS","value":"Population ages 0-14 (% of total population)"},"country":{"id":"YE","value":"Yemen, Rep."},"countryiso3code":"YEM","date":"2018","value":39.6148902740523,"unit":"","obs_status":"","decimal":0},{"indicator":{"id":"SP.POP.0014.TO.ZS","value":"Population ages 0-14 (% of total population)"},"country":{"id":"YE","value":"Yemen, Rep."},"countryiso3code":"YEM","date":"2017","value":40.0013953746205,"unit":"","obs_status":"","decimal":0},{"indicator":{"id":"SP.POP.0014.TO.ZS","value":"Population ages 0-14 (% of total population)"},"country":{"id":"YE","value":"Yemen, Rep."},"countryiso3code":"YEM","date":"2016","value":40.3641933247861,"unit":"","obs_status":"","decimal":0},{"indicator":{"id":"SP.POP.0014.TO.ZS","value":"Population ages 0-14 (% of total population)"},"country":{"id":"YE","value":"Yemen, Rep."},"countryiso3code":"YEM","date":"2015","value":40.6918490752226,"unit":"","obs_status":"","decimal":0},{"indicator":{"id":"SP.POP.0014.TO.ZS","value":"Population ages 0-14 (% of total population)"},"country":{"id":"ZM","value":"Zambia"},"countryiso3code":"ZMB","date":"2019","value":null,"unit":"","obs_status":"","decimal":0},{"indicator":{"id":"SP.POP.0014.TO.ZS","value":"Population ages 0-14 (% of total population)"},"country":{"id":"ZM","value":"Zambia"},"countryiso3code":"ZMB","date":"2018","value":44.9361411568244,"unit":"","obs_status":"","decimal":0},{"indicator":{"id":"SP.POP.0014.TO.ZS","value":"Population ages 0-14 (% of total population)"},"country":{"id":"ZM","value":"Zambia"},"countryiso3code":"ZMB","date":"2017","value":45.4113688120858,"unit":"","obs_status":"","decimal":0},{"indicator":{"id":"SP.POP.0014.TO.ZS","value":"Population ages 0-14 (% of total population)"},"country":{"id":"ZM","value":"Zambia"},"countryiso3code":"ZMB","date":"2016","value":45.8383246377386,"unit":"","obs_status":"","decimal":0},{"indicator":{"id":"SP.POP.0014.TO.ZS","value":"Population ages 0-14 (% of total population)"},"country":{"id":"ZM","value":"Zambia"},"countryiso3code":"ZMB","date":"2015","value":46.1845158630753,"unit":"","obs_status":"","decimal":0},{"indicator":{"id":"SP.POP.0014.TO.ZS","value":"Population ages 0-14 (% of total population)"},"country":{"id":"ZW","value":"Zimbabwe"},"countryiso3code":"ZWE","date":"2019","value":null,"unit":"","obs_status":"","decimal":0},{"indicator":{"id":"SP.POP.0014.TO.ZS","value":"Population ages 0-14 (% of total population)"},"country":{"id":"ZW","value":"Zimbabwe"},"countryiso3code":"ZWE","date":"2018","value":42.4010662380439,"unit":"","obs_status":"","decimal":0},{"indicator":{"id":"SP.POP.0014.TO.ZS","value":"Population ages 0-14 (% of total population)"},"country":{"id":"ZW","value":"Zimbabwe"},"countryiso3code":"ZWE","date":"2017","value":42.5978683807469,"unit":"","obs_status":"","decimal":0},{"indicator":{"id":"SP.POP.0014.TO.ZS","value":"Population ages 0-14 (% of total population)"},"country":{"id":"ZW","value":"Zimbabwe"},"countryiso3code":"ZWE","date":"2016","value":42.665087516467,"unit":"","obs_status":"","decimal":0},{"indicator":{"id":"SP.POP.0014.TO.ZS","value":"Population ages 0-14 (% of total population)"},"country":{"id":"ZW","value":"Zimbabwe"},"countryiso3code":"ZWE","date":"2015","value":42.5523479494093,"unit":"","obs_status":"","decimal":0}]]