[{"page":7,"pages":7,"per_page":200,"total":1320,"sourceid":"15","lastupdated":"2020-05-19"},[{"indicator":{"id":"SP.POP.1564.FE.ZS","value":"Population ages 15-64, female (% of female population)"},"country":{"id":"TL","value":"Timor-Leste"},"countryiso3code":"TLS","date":"2019","value":null,"unit":"","obs_status":"","decimal":0},{"indicator":{"id":"SP.POP.1564.FE.ZS","value":"Population ages 15-64, female (% of female population)"},"country":{"id":"TL","value":"Timor-Leste"},"countryiso3code":"TLS","date":"2018","value":57.7909207314059,"unit":"","obs_status":"","decimal":0},{"indicator":{"id":"SP.POP.1564.FE.ZS","value":"Population ages 15-64, female (% of female population)"},"country":{"id":"TL","value":"Timor-Leste"},"countryiso3code":"TLS","date":"2017","value":57.2102834670514,"unit":"","obs_status":"","decimal":0},{"indicator":{"id":"SP.POP.1564.FE.ZS","value":"Population ages 15-64, female (% of female population)"},"country":{"id":"TL","value":"Timor-Leste"},"countryiso3code":"TLS","date":"2016","value":56.5974681192999,"unit":"","obs_status":"","decimal":0},{"indicator":{"id":"SP.POP.1564.FE.ZS","value":"Population ages 15-64, female (% of female population)"},"country":{"id":"TL","value":"Timor-Leste"},"countryiso3code":"TLS","date":"2015","value":55.9650412894828,"unit":"","obs_status":"","decimal":0},{"indicator":{"id":"SP.POP.1564.FE.ZS","value":"Population ages 15-64, female (% of female population)"},"country":{"id":"TG","value":"Togo"},"countryiso3code":"TGO","date":"2019","value":null,"unit":"","obs_status":"","decimal":0},{"indicator":{"id":"SP.POP.1564.FE.ZS","value":"Population ages 15-64, female (% of female population)"},"country":{"id":"TG","value":"Togo"},"countryiso3code":"TGO","date":"2018","value":55.9140720388411,"unit":"","obs_status":"","decimal":0},{"indicator":{"id":"SP.POP.1564.FE.ZS","value":"Population ages 15-64, female (% of female population)"},"country":{"id":"TG","value":"Togo"},"countryiso3code":"TGO","date":"2017","value":55.6459481557163,"unit":"","obs_status":"","decimal":0},{"indicator":{"id":"SP.POP.1564.FE.ZS","value":"Population ages 15-64, female (% of female population)"},"country":{"id":"TG","value":"Togo"},"countryiso3code":"TGO","date":"2016","value":55.4146103330532,"unit":"","obs_status":"","decimal":0},{"indicator":{"id":"SP.POP.1564.FE.ZS","value":"Population ages 15-64, female (% of female population)"},"country":{"id":"TG","value":"Togo"},"countryiso3code":"TGO","date":"2015","value":55.2205398609962,"unit":"","obs_status":"","decimal":0},{"indicator":{"id":"SP.POP.1564.FE.ZS","value":"Population ages 15-64, female (% of female population)"},"country":{"id":"TO","value":"Tonga"},"countryiso3code":"TON","date":"2019","value":null,"unit":"","obs_status":"","decimal":0},{"indicator":{"id":"SP.POP.1564.FE.ZS","value":"Population ages 15-64, female (% of female population)"},"country":{"id":"TO","value":"Tonga"},"countryiso3code":"TON","date":"2018","value":59.5355328965223,"unit":"","obs_status":"","decimal":0},{"indicator":{"id":"SP.POP.1564.FE.ZS","value":"Population ages 15-64, female (% of female population)"},"country":{"id":"TO","value":"Tonga"},"countryiso3code":"TON","date":"2017","value":59.1667483580041,"unit":"","obs_status":"","decimal":0},{"indicator":{"id":"SP.POP.1564.FE.ZS","value":"Population ages 15-64, female (% of female population)"},"country":{"id":"TO","value":"Tonga"},"countryiso3code":"TON","date":"2016","value":58.8210875882109,"unit":"","obs_status":"","decimal":0},{"indicator":{"id":"SP.POP.1564.FE.ZS","value":"Population ages 15-64, female (% of female population)"},"country":{"id":"TO","value":"Tonga"},"countryiso3code":"TON","date":"2015","value":58.5732140377329,"unit":"","obs_status":"","decimal":0},{"indicator":{"id":"SP.POP.1564.FE.ZS","value":"Population ages 15-64, female (% of female population)"},"country":{"id":"TT","value":"Trinidad and Tobago"},"countryiso3code":"TTO","date":"2019","value":null,"unit":"","obs_status":"","decimal":0},{"indicator":{"id":"SP.POP.1564.FE.ZS","value":"Population ages 15-64, female (% of female population)"},"country":{"id":"TT","value":"Trinidad and Tobago"},"countryiso3code":"TTO","date":"2018","value":68.3984247780311,"unit":"","obs_status":"","decimal":0},{"indicator":{"id":"SP.POP.1564.FE.ZS","value":"Population ages 15-64, female (% of female population)"},"country":{"id":"TT","value":"Trinidad and Tobago"},"countryiso3code":"TTO","date":"2017","value":68.6459165203527,"unit":"","obs_status":"","decimal":0},{"indicator":{"id":"SP.POP.1564.FE.ZS","value":"Population ages 15-64, female (% of female population)"},"country":{"id":"TT","value":"Trinidad and Tobago"},"countryiso3code":"TTO","date":"2016","value":68.9076149070463,"unit":"","obs_status":"","decimal":0},{"indicator":{"id":"SP.POP.1564.FE.ZS","value":"Population ages 15-64, female (% of female population)"},"country":{"id":"TT","value":"Trinidad and Tobago"},"countryiso3code":"TTO","date":"2015","value":69.1752272185846,"unit":"","obs_status":"","decimal":0},{"indicator":{"id":"SP.POP.1564.FE.ZS","value":"Population ages 15-64, female (% of female population)"},"country":{"id":"TN","value":"Tunisia"},"countryiso3code":"TUN","date":"2019","value":null,"unit":"","obs_status":"","decimal":0},{"indicator":{"id":"SP.POP.1564.FE.ZS","value":"Population ages 15-64, female (% of female population)"},"country":{"id":"TN","value":"Tunisia"},"countryiso3code":"TUN","date":"2018","value":67.7163780380408,"unit":"","obs_status":"","decimal":0},{"indicator":{"id":"SP.POP.1564.FE.ZS","value":"Population ages 15-64, female (% of female population)"},"country":{"id":"TN","value":"Tunisia"},"countryiso3code":"TUN","date":"2017","value":68.0782672103016,"unit":"","obs_status":"","decimal":0},{"indicator":{"id":"SP.POP.1564.FE.ZS","value":"Population ages 15-64, female (% of female population)"},"country":{"id":"TN","value":"Tunisia"},"countryiso3code":"TUN","date":"2016","value":68.4536126944893,"unit":"","obs_status":"","decimal":0},{"indicator":{"id":"SP.POP.1564.FE.ZS","value":"Population ages 15-64, female (% of female population)"},"country":{"id":"TN","value":"Tunisia"},"countryiso3code":"TUN","date":"2015","value":68.8664984725074,"unit":"","obs_status":"","decimal":0},{"indicator":{"id":"SP.POP.1564.FE.ZS","value":"Population ages 15-64, female (% of female population)"},"country":{"id":"TR","value":"Turkey"},"countryiso3code":"TUR","date":"2019","value":null,"unit":"","obs_status":"","decimal":0},{"indicator":{"id":"SP.POP.1564.FE.ZS","value":"Population ages 15-64, female (% of female population)"},"country":{"id":"TR","value":"Turkey"},"countryiso3code":"TUR","date":"2018","value":66.6103154280214,"unit":"","obs_status":"","decimal":0},{"indicator":{"id":"SP.POP.1564.FE.ZS","value":"Population ages 15-64, female (% of female population)"},"country":{"id":"TR","value":"Turkey"},"countryiso3code":"TUR","date":"2017","value":66.5712509820547,"unit":"","obs_status":"","decimal":0},{"indicator":{"id":"SP.POP.1564.FE.ZS","value":"Population ages 15-64, female (% of female population)"},"country":{"id":"TR","value":"Turkey"},"countryiso3code":"TUR","date":"2016","value":66.5320880132595,"unit":"","obs_status":"","decimal":0},{"indicator":{"id":"SP.POP.1564.FE.ZS","value":"Population ages 15-64, female (% of female population)"},"country":{"id":"TR","value":"Turkey"},"countryiso3code":"TUR","date":"2015","value":66.5003926468111,"unit":"","obs_status":"","decimal":0},{"indicator":{"id":"SP.POP.1564.FE.ZS","value":"Population ages 15-64, female (% of female population)"},"country":{"id":"TM","value":"Turkmenistan"},"countryiso3code":"TKM","date":"2019","value":null,"unit":"","obs_status":"","decimal":0},{"indicator":{"id":"SP.POP.1564.FE.ZS","value":"Population ages 15-64, female (% of female population)"},"country":{"id":"TM","value":"Turkmenistan"},"countryiso3code":"TKM","date":"2018","value":64.926610147406,"unit":"","obs_status":"","decimal":0},{"indicator":{"id":"SP.POP.1564.FE.ZS","value":"Population ages 15-64, female (% of female population)"},"country":{"id":"TM","value":"Turkmenistan"},"countryiso3code":"TKM","date":"2017","value":65.0226186903845,"unit":"","obs_status":"","decimal":0},{"indicator":{"id":"SP.POP.1564.FE.ZS","value":"Population ages 15-64, female (% of female population)"},"country":{"id":"TM","value":"Turkmenistan"},"countryiso3code":"TKM","date":"2016","value":65.2467884175676,"unit":"","obs_status":"","decimal":0},{"indicator":{"id":"SP.POP.1564.FE.ZS","value":"Population ages 15-64, female (% of female population)"},"country":{"id":"TM","value":"Turkmenistan"},"countryiso3code":"TKM","date":"2015","value":65.717912242369,"unit":"","obs_status":"","decimal":0},{"indicator":{"id":"SP.POP.1564.FE.ZS","value":"Population ages 15-64, female (% of female population)"},"country":{"id":"TC","value":"Turks and Caicos Islands"},"countryiso3code":"TCA","date":"2019","value":null,"unit":"","obs_status":"","decimal":0},{"indicator":{"id":"SP.POP.1564.FE.ZS","value":"Population ages 15-64, female (% of female population)"},"country":{"id":"TC","value":"Turks and Caicos Islands"},"countryiso3code":"TCA","date":"2018","value":null,"unit":"","obs_status":"","decimal":0},{"indicator":{"id":"SP.POP.1564.FE.ZS","value":"Population ages 15-64, female (% of female population)"},"country":{"id":"TC","value":"Turks and Caicos Islands"},"countryiso3code":"TCA","date":"2017","value":null,"unit":"","obs_status":"","decimal":0},{"indicator":{"id":"SP.POP.1564.FE.ZS","value":"Population ages 15-64, female (% of female population)"},"country":{"id":"TC","value":"Turks and Caicos Islands"},"countryiso3code":"TCA","date":"2016","value":null,"unit":"","obs_status":"","decimal":0},{"indicator":{"id":"SP.POP.1564.FE.ZS","value":"Population ages 15-64, female (% of female population)"},"country":{"id":"TC","value":"Turks and Caicos Islands"},"countryiso3code":"TCA","date":"2015","value":null,"unit":"","obs_status":"","decimal":0},{"indicator":{"id":"SP.POP.1564.FE.ZS","value":"Population ages 15-64, female (% of female population)"},"country":{"id":"TV","value":"Tuvalu"},"countryiso3code":"TUV","date":"2019","value":null,"unit":"","obs_status":"","decimal":0},{"indicator":{"id":"SP.POP.1564.FE.ZS","value":"Population ages 15-64, female (% of female population)"},"country":{"id":"TV","value":"Tuvalu"},"countryiso3code":"TUV","date":"2018","value":null,"unit":"","obs_status":"","decimal":0},{"indicator":{"id":"SP.POP.1564.FE.ZS","value":"Population ages 15-64, female (% of female population)"},"country":{"id":"TV","value":"Tuvalu"},"countryiso3code":"TUV","date":"2017","value":null,"unit":"","obs_status":"","decimal":0},{"indicator":{"id":"SP.POP.1564.FE.ZS","value":"Population ages 15-64, female (% of female population)"},"country":{"id":"TV","value":"Tuvalu"},"countryiso3code":"TUV","date":"2016","value":null,"unit":"","obs_status":"","decimal":0},{"indicator":{"id":"SP.POP.1564.FE.ZS","value":"Population ages 15-64, female (% of female population)"},"country":{"id":"TV","value":"Tuvalu"},"countryiso3code":"TUV","date":"2015","value":null,"unit":"","obs_status":"","decimal":0},{"indicator":{"id":"SP.POP.1564.FE.ZS","value":"Population ages 15-64, female (% of female population)"},"country":{"id":"UG","value":"Uganda"},"countryiso3code":"UGA","date":"2019","value":null,"unit":"","obs_status":"","decimal":0},{"indicator":{"id":"SP.POP.1564.FE.ZS","value":"Population ages 15-64, female (% of female population)"},"country":{"id":"UG","value":"Uganda"},"countryiso3code":"UGA","date":"2018","value":51.8963361525308,"unit":"","obs_status":"","decimal":0},{"indicator":{"id":"SP.POP.1564.FE.ZS","value":"Population ages 15-64, female (% of female population)"},"country":{"id":"UG","value":"Uganda"},"countryiso3code":"UGA","date":"2017","value":51.5676617197019,"unit":"","obs_status":"","decimal":0},{"indicator":{"id":"SP.POP.1564.FE.ZS","value":"Population ages 15-64, female (% of female population)"},"country":{"id":"UG","value":"Uganda"},"countryiso3code":"UGA","date":"2016","value":51.2642622104549,"unit":"","obs_status":"","decimal":0},{"indicator":{"id":"SP.POP.1564.FE.ZS","value":"Population ages 15-64, female (% of female population)"},"country":{"id":"UG","value":"Uganda"},"countryiso3code":"UGA","date":"2015","value":50.9882471944739,"unit":"","obs_status":"","decimal":0},{"indicator":{"id":"SP.POP.1564.FE.ZS","value":"Population ages 15-64, female (% of female population)"},"country":{"id":"UA","value":"Ukraine"},"countryiso3code":"UKR","date":"2019","value":null,"unit":"","obs_status":"","decimal":0},{"indicator":{"id":"SP.POP.1564.FE.ZS","value":"Population ages 15-64, female (% of female population)"},"country":{"id":"UA","value":"Ukraine"},"countryiso3code":"UKR","date":"2018","value":65.3536656452997,"unit":"","obs_status":"","decimal":0},{"indicator":{"id":"SP.POP.1564.FE.ZS","value":"Population ages 15-64, female (% of female population)"},"country":{"id":"UA","value":"Ukraine"},"countryiso3code":"UKR","date":"2017","value":65.8778468712279,"unit":"","obs_status":"","decimal":0},{"indicator":{"id":"SP.POP.1564.FE.ZS","value":"Population ages 15-64, female (% of female population)"},"country":{"id":"UA","value":"Ukraine"},"countryiso3code":"UKR","date":"2016","value":66.3731161893326,"unit":"","obs_status":"","decimal":0},{"indicator":{"id":"SP.POP.1564.FE.ZS","value":"Population ages 15-64, female (% of female population)"},"country":{"id":"UA","value":"Ukraine"},"countryiso3code":"UKR","date":"2015","value":66.7843995560503,"unit":"","obs_status":"","decimal":0},{"indicator":{"id":"SP.POP.1564.FE.ZS","value":"Population ages 15-64, female (% of female population)"},"country":{"id":"AE","value":"United Arab Emirates"},"countryiso3code":"ARE","date":"2019","value":null,"unit":"","obs_status":"","decimal":0},{"indicator":{"id":"SP.POP.1564.FE.ZS","value":"Population ages 15-64, female (% of female population)"},"country":{"id":"AE","value":"United Arab Emirates"},"countryiso3code":"ARE","date":"2018","value":75.1618055797973,"unit":"","obs_status":"","decimal":0},{"indicator":{"id":"SP.POP.1564.FE.ZS","value":"Population ages 15-64, female (% of female population)"},"country":{"id":"AE","value":"United Arab Emirates"},"countryiso3code":"ARE","date":"2017","value":75.2175173010979,"unit":"","obs_status":"","decimal":0},{"indicator":{"id":"SP.POP.1564.FE.ZS","value":"Population ages 15-64, female (% of female population)"},"country":{"id":"AE","value":"United Arab Emirates"},"countryiso3code":"ARE","date":"2016","value":75.3261703896476,"unit":"","obs_status":"","decimal":0},{"indicator":{"id":"SP.POP.1564.FE.ZS","value":"Population ages 15-64, female (% of female population)"},"country":{"id":"AE","value":"United Arab Emirates"},"countryiso3code":"ARE","date":"2015","value":75.5384490828368,"unit":"","obs_status":"","decimal":0},{"indicator":{"id":"SP.POP.1564.FE.ZS","value":"Population ages 15-64, female (% of female population)"},"country":{"id":"GB","value":"United Kingdom"},"countryiso3code":"GBR","date":"2019","value":null,"unit":"","obs_status":"","decimal":0},{"indicator":{"id":"SP.POP.1564.FE.ZS","value":"Population ages 15-64, female (% of female population)"},"country":{"id":"GB","value":"United Kingdom"},"countryiso3code":"GBR","date":"2018","value":63.258820027065,"unit":"","obs_status":"","decimal":0},{"indicator":{"id":"SP.POP.1564.FE.ZS","value":"Population ages 15-64, female (% of female population)"},"country":{"id":"GB","value":"United Kingdom"},"countryiso3code":"GBR","date":"2017","value":63.3922594902563,"unit":"","obs_status":"","decimal":0},{"indicator":{"id":"SP.POP.1564.FE.ZS","value":"Population ages 15-64, female (% of female population)"},"country":{"id":"GB","value":"United Kingdom"},"countryiso3code":"GBR","date":"2016","value":63.5531439504963,"unit":"","obs_status":"","decimal":0},{"indicator":{"id":"SP.POP.1564.FE.ZS","value":"Population ages 15-64, female (% of female population)"},"country":{"id":"GB","value":"United Kingdom"},"countryiso3code":"GBR","date":"2015","value":63.7506736424774,"unit":"","obs_status":"","decimal":0},{"indicator":{"id":"SP.POP.1564.FE.ZS","value":"Population ages 15-64, female (% of female population)"},"country":{"id":"US","value":"United States"},"countryiso3code":"USA","date":"2019","value":null,"unit":"","obs_status":"","decimal":0},{"indicator":{"id":"SP.POP.1564.FE.ZS","value":"Population ages 15-64, female (% of female population)"},"country":{"id":"US","value":"United States"},"countryiso3code":"USA","date":"2018","value":64.576790382131,"unit":"","obs_status":"","decimal":0},{"indicator":{"id":"SP.POP.1564.FE.ZS","value":"Population ages 15-64, female (% of female population)"},"country":{"id":"US","value":"United States"},"countryiso3code":"USA","date":"2017","value":64.8244160670525,"unit":"","obs_status":"","decimal":0},{"indicator":{"id":"SP.POP.1564.FE.ZS","value":"Population ages 15-64, female (% of female population)"},"country":{"id":"US","value":"United States"},"countryiso3code":"USA","date":"2016","value":65.051278947516,"unit":"","obs_status":"","decimal":0},{"indicator":{"id":"SP.POP.1564.FE.ZS","value":"Population ages 15-64, female (% of female population)"},"country":{"id":"US","value":"United States"},"countryiso3code":"USA","date":"2015","value":65.2460999099375,"unit":"","obs_status":"","decimal":0},{"indicator":{"id":"SP.POP.1564.FE.ZS","value":"Population ages 15-64, female (% of female population)"},"country":{"id":"UY","value":"Uruguay"},"countryiso3code":"URY","date":"2019","value":null,"unit":"","obs_status":"","decimal":0},{"indicator":{"id":"SP.POP.1564.FE.ZS","value":"Population ages 15-64, female (% of female population)"},"country":{"id":"UY","value":"Uruguay"},"countryiso3code":"URY","date":"2018","value":63.0305836349919,"unit":"","obs_status":"","decimal":0},{"indicator":{"id":"SP.POP.1564.FE.ZS","value":"Population ages 15-64, female (% of female population)"},"country":{"id":"UY","value":"Uruguay"},"countryiso3code":"URY","date":"2017","value":62.9879672565401,"unit":"","obs_status":"","decimal":0},{"indicator":{"id":"SP.POP.1564.FE.ZS","value":"Population ages 15-64, female (% of female population)"},"country":{"id":"UY","value":"Uruguay"},"countryiso3code":"URY","date":"2016","value":62.9413882455974,"unit":"","obs_status":"","decimal":0},{"indicator":{"id":"SP.POP.1564.FE.ZS","value":"Population ages 15-64, female (% of female population)"},"country":{"id":"UY","value":"Uruguay"},"countryiso3code":"URY","date":"2015","value":62.9153147665145,"unit":"","obs_status":"","decimal":0},{"indicator":{"id":"SP.POP.1564.FE.ZS","value":"Population ages 15-64, female (% of female population)"},"country":{"id":"UZ","value":"Uzbekistan"},"countryiso3code":"UZB","date":"2019","value":null,"unit":"","obs_status":"","decimal":0},{"indicator":{"id":"SP.POP.1564.FE.ZS","value":"Population ages 15-64, female (% of female population)"},"country":{"id":"UZ","value":"Uzbekistan"},"countryiso3code":"UZB","date":"2018","value":67.1677130210085,"unit":"","obs_status":"","decimal":0},{"indicator":{"id":"SP.POP.1564.FE.ZS","value":"Population ages 15-64, female (% of female population)"},"country":{"id":"UZ","value":"Uzbekistan"},"countryiso3code":"UZB","date":"2017","value":67.4851909555542,"unit":"","obs_status":"","decimal":0},{"indicator":{"id":"SP.POP.1564.FE.ZS","value":"Population ages 15-64, female (% of female population)"},"country":{"id":"UZ","value":"Uzbekistan"},"countryiso3code":"UZB","date":"2016","value":67.7313100747089,"unit":"","obs_status":"","decimal":0},{"indicator":{"id":"SP.POP.1564.FE.ZS","value":"Population ages 15-64, female (% of female population)"},"country":{"id":"UZ","value":"Uzbekistan"},"countryiso3code":"UZB","date":"2015","value":67.8442822177526,"unit":"","obs_status":"","decimal":0},{"indicator":{"id":"SP.POP.1564.FE.ZS","value":"Population ages 15-64, female (% of female population)"},"country":{"id":"VU","value":"Vanuatu"},"countryiso3code":"VUT","date":"2019","value":null,"unit":"","obs_status":"","decimal":0},{"indicator":{"id":"SP.POP.1564.FE.ZS","value":"Population ages 15-64, female (% of female population)"},"country":{"id":"VU","value":"Vanuatu"},"countryiso3code":"VUT","date":"2018","value":58.4779835847382,"unit":"","obs_status":"","decimal":0},{"indicator":{"id":"SP.POP.1564.FE.ZS","value":"Population ages 15-64, female (% of female population)"},"country":{"id":"VU","value":"Vanuatu"},"countryiso3code":"VUT","date":"2017","value":58.4848527927441,"unit":"","obs_status":"","decimal":0},{"indicator":{"id":"SP.POP.1564.FE.ZS","value":"Population ages 15-64, female (% of female population)"},"country":{"id":"VU","value":"Vanuatu"},"countryiso3code":"VUT","date":"2016","value":58.4702561970814,"unit":"","obs_status":"","decimal":0},{"indicator":{"id":"SP.POP.1564.FE.ZS","value":"Population ages 15-64, female (% of female population)"},"country":{"id":"VU","value":"Vanuatu"},"countryiso3code":"VUT","date":"2015","value":58.3078132604545,"unit":"","obs_status":"","decimal":0},{"indicator":{"id":"SP.POP.1564.FE.ZS","value":"Population ages 15-64, female (% of female population)"},"country":{"id":"VE","value":"Venezuela, RB"},"countryiso3code":"VEN","date":"2019","value":null,"unit":"","obs_status":"","decimal":0},{"indicator":{"id":"SP.POP.1564.FE.ZS","value":"Population ages 15-64, female (% of female population)"},"country":{"id":"VE","value":"Venezuela, RB"},"countryiso3code":"VEN","date":"2018","value":65.2672763778101,"unit":"","obs_status":"","decimal":0},{"indicator":{"id":"SP.POP.1564.FE.ZS","value":"Population ages 15-64, female (% of female population)"},"country":{"id":"VE","value":"Venezuela, RB"},"countryiso3code":"VEN","date":"2017","value":65.2790703813557,"unit":"","obs_status":"","decimal":0},{"indicator":{"id":"SP.POP.1564.FE.ZS","value":"Population ages 15-64, female (% of female population)"},"country":{"id":"VE","value":"Venezuela, RB"},"countryiso3code":"VEN","date":"2016","value":65.3166288821241,"unit":"","obs_status":"","decimal":0},{"indicator":{"id":"SP.POP.1564.FE.ZS","value":"Population ages 15-64, female (% of female population)"},"country":{"id":"VE","value":"Venezuela, RB"},"countryiso3code":"VEN","date":"2015","value":65.4078731473929,"unit":"","obs_status":"","decimal":0},{"indicator":{"id":"SP.POP.1564.FE.ZS","value":"Population ages 15-64, female (% of female population)"},"country":{"id":"VN","value":"Vietnam"},"countryiso3code":"VNM","date":"2019","value":null,"unit":"","obs_status":"","decimal":0},{"indicator":{"id":"SP.POP.1564.FE.ZS","value":"Population ages 15-64, female (% of female population)"},"country":{"id":"VN","value":"Vietnam"},"countryiso3code":"VNM","date":"2018","value":69.2339355014338,"unit":"","obs_status":"","decimal":0},{"indicator":{"id":"SP.POP.1564.FE.ZS","value":"Population ages 15-64, female (% of female population)"},"country":{"id":"VN","value":"Vietnam"},"countryiso3code":"VNM","date":"2017","value":69.5324199725833,"unit":"","obs_status":"","decimal":0},{"indicator":{"id":"SP.POP.1564.FE.ZS","value":"Population ages 15-64, female (% of female population)"},"country":{"id":"VN","value":"Vietnam"},"countryiso3code":"VNM","date":"2016","value":69.773486002935,"unit":"","obs_status":"","decimal":0},{"indicator":{"id":"SP.POP.1564.FE.ZS","value":"Population ages 15-64, female (% of female population)"},"country":{"id":"VN","value":"Vietnam"},"countryiso3code":"VNM","date":"2015","value":69.923798423808,"unit":"","obs_status":"","decimal":0},{"indicator":{"id":"SP.POP.1564.FE.ZS","value":"Population ages 15-64, female (% of female population)"},"country":{"id":"VI","value":"Virgin Islands (U.S.)"},"countryiso3code":"VIR","date":"2019","value":null,"unit":"","obs_status":"","decimal":0},{"indicator":{"id":"SP.POP.1564.FE.ZS","value":"Population ages 15-64, female (% of female population)"},"country":{"id":"VI","value":"Virgin Islands (U.S.)"},"countryiso3code":"VIR","date":"2018","value":60.9579681891887,"unit":"","obs_status":"","decimal":0},{"indicator":{"id":"SP.POP.1564.FE.ZS","value":"Population ages 15-64, female (% of female population)"},"country":{"id":"VI","value":"Virgin Islands (U.S.)"},"countryiso3code":"VIR","date":"2017","value":61.5046907732945,"unit":"","obs_status":"","decimal":0},{"indicator":{"id":"SP.POP.1564.FE.ZS","value":"Population ages 15-64, female (% of female population)"},"country":{"id":"VI","value":"Virgin Islands (U.S.)"},"countryiso3code":"VIR","date":"2016","value":62.0542056755674,"unit":"","obs_status":"","decimal":0},{"indicator":{"id":"SP.POP.1564.FE.ZS","value":"Population ages 15-64, female (% of female population)"},"country":{"id":"VI","value":"Virgin Islands (U.S.)"},"countryiso3code":"VIR","date":"2015","value":62.6105791983691,"unit":"","obs_status":"","decimal":0},{"indicator":{"id":"SP.POP.1564.FE.ZS","value":"Population ages 15-64, female (% of female population)"},"country":{"id":"PS","value":"West Bank and Gaza"},"countryiso3code":"PSE","date":"2019","value":null,"unit":"","obs_status":"","decimal":0},{"indicator":{"id":"SP.POP.1564.FE.ZS","value":"Population ages 15-64, female (% of female population)"},"country":{"id":"PS","value":"West Bank and Gaza"},"countryiso3code":"PSE","date":"2018","value":57.9976889959401,"unit":"","obs_status":"","decimal":0},{"indicator":{"id":"SP.POP.1564.FE.ZS","value":"Population ages 15-64, female (% of female population)"},"country":{"id":"PS","value":"West Bank and Gaza"},"countryiso3code":"PSE","date":"2017","value":57.7313046642089,"unit":"","obs_status":"","decimal":0},{"indicator":{"id":"SP.POP.1564.FE.ZS","value":"Population ages 15-64, female (% of female population)"},"country":{"id":"PS","value":"West Bank and Gaza"},"countryiso3code":"PSE","date":"2016","value":57.4536965675731,"unit":"","obs_status":"","decimal":0},{"indicator":{"id":"SP.POP.1564.FE.ZS","value":"Population ages 15-64, female (% of female population)"},"country":{"id":"PS","value":"West Bank and Gaza"},"countryiso3code":"PSE","date":"2015","value":57.1806497159314,"unit":"","obs_status":"","decimal":0},{"indicator":{"id":"SP.POP.1564.FE.ZS","value":"Population ages 15-64, female (% of female population)"},"country":{"id":"YE","value":"Yemen, Rep."},"countryiso3code":"YEM","date":"2019","value":null,"unit":"","obs_status":"","decimal":0},{"indicator":{"id":"SP.POP.1564.FE.ZS","value":"Population ages 15-64, female (% of female population)"},"country":{"id":"YE","value":"Yemen, Rep."},"countryiso3code":"YEM","date":"2018","value":57.7105383823612,"unit":"","obs_status":"","decimal":0},{"indicator":{"id":"SP.POP.1564.FE.ZS","value":"Population ages 15-64, female (% of female population)"},"country":{"id":"YE","value":"Yemen, Rep."},"countryiso3code":"YEM","date":"2017","value":57.354192413521,"unit":"","obs_status":"","decimal":0},{"indicator":{"id":"SP.POP.1564.FE.ZS","value":"Population ages 15-64, female (% of female population)"},"country":{"id":"YE","value":"Yemen, Rep."},"countryiso3code":"YEM","date":"2016","value":57.0222099660549,"unit":"","obs_status":"","decimal":0},{"indicator":{"id":"SP.POP.1564.FE.ZS","value":"Population ages 15-64, female (% of female population)"},"country":{"id":"YE","value":"Yemen, Rep."},"countryiso3code":"YEM","date":"2015","value":56.7284180072799,"unit":"","obs_status":"","decimal":0},{"indicator":{"id":"SP.POP.1564.FE.ZS","value":"Population ages 15-64, female (% of female population)"},"country":{"id":"ZM","value":"Zambia"},"countryiso3code":"ZMB","date":"2019","value":null,"unit":"","obs_status":"","decimal":0},{"indicator":{"id":"SP.POP.1564.FE.ZS","value":"Population ages 15-64, female (% of female population)"},"country":{"id":"ZM","value":"Zambia"},"countryiso3code":"ZMB","date":"2018","value":53.3635749478082,"unit":"","obs_status":"","decimal":0},{"indicator":{"id":"SP.POP.1564.FE.ZS","value":"Population ages 15-64, female (% of female population)"},"country":{"id":"ZM","value":"Zambia"},"countryiso3code":"ZMB","date":"2017","value":52.9059501473884,"unit":"","obs_status":"","decimal":0},{"indicator":{"id":"SP.POP.1564.FE.ZS","value":"Population ages 15-64, female (% of female population)"},"country":{"id":"ZM","value":"Zambia"},"countryiso3code":"ZMB","date":"2016","value":52.4920849987525,"unit":"","obs_status":"","decimal":0},{"indicator":{"id":"SP.POP.1564.FE.ZS","value":"Population ages 15-64, female (% of female population)"},"country":{"id":"ZM","value":"Zambia"},"countryiso3code":"ZMB","date":"2015","value":52.1549639942864,"unit":"","obs_status":"","decimal":0},{"indicator":{"id":"SP.POP.1564.FE.ZS","value":"Population ages 15-64, female (% of female population)"},"country":{"id":"ZW","value":"Zimbabwe"},"countryiso3code":"ZWE","date":"2019","value":null,"unit":"","obs_status":"","decimal":0},{"indicator":{"id":"SP.POP.1564.FE.ZS","value":"Population ages 15-64, female (% of female population)"},"country":{"id":"ZW","value":"Zimbabwe"},"countryiso3code":"ZWE","date":"2018","value":56.0218913651652,"unit":"","obs_status":"","decimal":0},{"indicator":{"id":"SP.POP.1564.FE.ZS","value":"Population ages 15-64, female (% of female population)"},"country":{"id":"ZW","value":"Zimbabwe"},"countryiso3code":"ZWE","date":"2017","value":55.8918137768456,"unit":"","obs_status":"","decimal":0},{"indicator":{"id":"SP.POP.1564.FE.ZS","value":"Population ages 15-64, female (% of female population)"},"country":{"id":"ZW","value":"Zimbabwe"},"countryiso3code":"ZWE","date":"2016","value":55.8756150650913,"unit":"","obs_status":"","decimal":0},{"indicator":{"id":"SP.POP.1564.FE.ZS","value":"Population ages 15-64, female (% of female population)"},"country":{"id":"ZW","value":"Zimbabwe"},"countryiso3code":"ZWE","date":"2015","value":56.0156111127672,"unit":"","obs_status":"","decimal":0}]]