[{"page":7,"pages":7,"per_page":200,"total":1320,"sourceid":"15","lastupdated":"2020-05-19"},[{"indicator":{"id":"SP.POP.1564.TO.ZS","value":"Population ages 15-64 (% of total population)"},"country":{"id":"TL","value":"Timor-Leste"},"countryiso3code":"TLS","date":"2019","value":null,"unit":"","obs_status":"","decimal":0},{"indicator":{"id":"SP.POP.1564.TO.ZS","value":"Population ages 15-64 (% of total population)"},"country":{"id":"TL","value":"Timor-Leste"},"countryiso3code":"TLS","date":"2018","value":57.9028434336982,"unit":"","obs_status":"","decimal":0},{"indicator":{"id":"SP.POP.1564.TO.ZS","value":"Population ages 15-64 (% of total population)"},"country":{"id":"TL","value":"Timor-Leste"},"countryiso3code":"TLS","date":"2017","value":57.3380585526093,"unit":"","obs_status":"","decimal":0},{"indicator":{"id":"SP.POP.1564.TO.ZS","value":"Population ages 15-64 (% of total population)"},"country":{"id":"TL","value":"Timor-Leste"},"countryiso3code":"TLS","date":"2016","value":56.7427875940713,"unit":"","obs_status":"","decimal":0},{"indicator":{"id":"SP.POP.1564.TO.ZS","value":"Population ages 15-64 (% of total population)"},"country":{"id":"TL","value":"Timor-Leste"},"countryiso3code":"TLS","date":"2015","value":56.1267138230982,"unit":"","obs_status":"","decimal":0},{"indicator":{"id":"SP.POP.1564.TO.ZS","value":"Population ages 15-64 (% of total population)"},"country":{"id":"TG","value":"Togo"},"countryiso3code":"TGO","date":"2019","value":null,"unit":"","obs_status":"","decimal":0},{"indicator":{"id":"SP.POP.1564.TO.ZS","value":"Population ages 15-64 (% of total population)"},"country":{"id":"TG","value":"Togo"},"countryiso3code":"TGO","date":"2018","value":55.7960084891888,"unit":"","obs_status":"","decimal":0},{"indicator":{"id":"SP.POP.1564.TO.ZS","value":"Population ages 15-64 (% of total population)"},"country":{"id":"TG","value":"Togo"},"countryiso3code":"TGO","date":"2017","value":55.5121963131914,"unit":"","obs_status":"","decimal":0},{"indicator":{"id":"SP.POP.1564.TO.ZS","value":"Population ages 15-64 (% of total population)"},"country":{"id":"TG","value":"Togo"},"countryiso3code":"TGO","date":"2016","value":55.2670183866712,"unit":"","obs_status":"","decimal":0},{"indicator":{"id":"SP.POP.1564.TO.ZS","value":"Population ages 15-64 (% of total population)"},"country":{"id":"TG","value":"Togo"},"countryiso3code":"TGO","date":"2015","value":55.0613273672369,"unit":"","obs_status":"","decimal":0},{"indicator":{"id":"SP.POP.1564.TO.ZS","value":"Population ages 15-64 (% of total population)"},"country":{"id":"TO","value":"Tonga"},"countryiso3code":"TON","date":"2019","value":null,"unit":"","obs_status":"","decimal":0},{"indicator":{"id":"SP.POP.1564.TO.ZS","value":"Population ages 15-64 (% of total population)"},"country":{"id":"TO","value":"Tonga"},"countryiso3code":"TON","date":"2018","value":58.6305803463279,"unit":"","obs_status":"","decimal":0},{"indicator":{"id":"SP.POP.1564.TO.ZS","value":"Population ages 15-64 (% of total population)"},"country":{"id":"TO","value":"Tonga"},"countryiso3code":"TON","date":"2017","value":58.252122590639,"unit":"","obs_status":"","decimal":0},{"indicator":{"id":"SP.POP.1564.TO.ZS","value":"Population ages 15-64 (% of total population)"},"country":{"id":"TO","value":"Tonga"},"countryiso3code":"TON","date":"2016","value":57.8960378906984,"unit":"","obs_status":"","decimal":0},{"indicator":{"id":"SP.POP.1564.TO.ZS","value":"Population ages 15-64 (% of total population)"},"country":{"id":"TO","value":"Tonga"},"countryiso3code":"TON","date":"2015","value":57.5981583830285,"unit":"","obs_status":"","decimal":0},{"indicator":{"id":"SP.POP.1564.TO.ZS","value":"Population ages 15-64 (% of total population)"},"country":{"id":"TT","value":"Trinidad and Tobago"},"countryiso3code":"TTO","date":"2019","value":null,"unit":"","obs_status":"","decimal":0},{"indicator":{"id":"SP.POP.1564.TO.ZS","value":"Population ages 15-64 (% of total population)"},"country":{"id":"TT","value":"Trinidad and Tobago"},"countryiso3code":"TTO","date":"2018","value":68.8454739132406,"unit":"","obs_status":"","decimal":0},{"indicator":{"id":"SP.POP.1564.TO.ZS","value":"Population ages 15-64 (% of total population)"},"country":{"id":"TT","value":"Trinidad and Tobago"},"countryiso3code":"TTO","date":"2017","value":69.096909886067,"unit":"","obs_status":"","decimal":0},{"indicator":{"id":"SP.POP.1564.TO.ZS","value":"Population ages 15-64 (% of total population)"},"country":{"id":"TT","value":"Trinidad and Tobago"},"countryiso3code":"TTO","date":"2016","value":69.3693922587764,"unit":"","obs_status":"","decimal":0},{"indicator":{"id":"SP.POP.1564.TO.ZS","value":"Population ages 15-64 (% of total population)"},"country":{"id":"TT","value":"Trinidad and Tobago"},"countryiso3code":"TTO","date":"2015","value":69.6537617271193,"unit":"","obs_status":"","decimal":0},{"indicator":{"id":"SP.POP.1564.TO.ZS","value":"Population ages 15-64 (% of total population)"},"country":{"id":"TN","value":"Tunisia"},"countryiso3code":"TUN","date":"2019","value":null,"unit":"","obs_status":"","decimal":0},{"indicator":{"id":"SP.POP.1564.TO.ZS","value":"Population ages 15-64 (% of total population)"},"country":{"id":"TN","value":"Tunisia"},"countryiso3code":"TUN","date":"2018","value":67.5142005746377,"unit":"","obs_status":"","decimal":0},{"indicator":{"id":"SP.POP.1564.TO.ZS","value":"Population ages 15-64 (% of total population)"},"country":{"id":"TN","value":"Tunisia"},"countryiso3code":"TUN","date":"2017","value":67.8360402898759,"unit":"","obs_status":"","decimal":0},{"indicator":{"id":"SP.POP.1564.TO.ZS","value":"Population ages 15-64 (% of total population)"},"country":{"id":"TN","value":"Tunisia"},"countryiso3code":"TUN","date":"2016","value":68.172120441138,"unit":"","obs_status":"","decimal":0},{"indicator":{"id":"SP.POP.1564.TO.ZS","value":"Population ages 15-64 (% of total population)"},"country":{"id":"TN","value":"Tunisia"},"countryiso3code":"TUN","date":"2015","value":68.5449906792956,"unit":"","obs_status":"","decimal":0},{"indicator":{"id":"SP.POP.1564.TO.ZS","value":"Population ages 15-64 (% of total population)"},"country":{"id":"TR","value":"Turkey"},"countryiso3code":"TUR","date":"2019","value":null,"unit":"","obs_status":"","decimal":0},{"indicator":{"id":"SP.POP.1564.TO.ZS","value":"Population ages 15-64 (% of total population)"},"country":{"id":"TR","value":"Turkey"},"countryiso3code":"TUR","date":"2018","value":66.8673769209477,"unit":"","obs_status":"","decimal":0},{"indicator":{"id":"SP.POP.1564.TO.ZS","value":"Population ages 15-64 (% of total population)"},"country":{"id":"TR","value":"Turkey"},"countryiso3code":"TUR","date":"2017","value":66.7415314649495,"unit":"","obs_status":"","decimal":0},{"indicator":{"id":"SP.POP.1564.TO.ZS","value":"Population ages 15-64 (% of total population)"},"country":{"id":"TR","value":"Turkey"},"countryiso3code":"TUR","date":"2016","value":66.6257239905596,"unit":"","obs_status":"","decimal":0},{"indicator":{"id":"SP.POP.1564.TO.ZS","value":"Population ages 15-64 (% of total population)"},"country":{"id":"TR","value":"Turkey"},"countryiso3code":"TUR","date":"2015","value":66.5313462374332,"unit":"","obs_status":"","decimal":0},{"indicator":{"id":"SP.POP.1564.TO.ZS","value":"Population ages 15-64 (% of total population)"},"country":{"id":"TM","value":"Turkmenistan"},"countryiso3code":"TKM","date":"2019","value":null,"unit":"","obs_status":"","decimal":0},{"indicator":{"id":"SP.POP.1564.TO.ZS","value":"Population ages 15-64 (% of total population)"},"country":{"id":"TM","value":"Turkmenistan"},"countryiso3code":"TKM","date":"2018","value":64.7510015978736,"unit":"","obs_status":"","decimal":0},{"indicator":{"id":"SP.POP.1564.TO.ZS","value":"Population ages 15-64 (% of total population)"},"country":{"id":"TM","value":"Turkmenistan"},"countryiso3code":"TKM","date":"2017","value":64.8121886868414,"unit":"","obs_status":"","decimal":0},{"indicator":{"id":"SP.POP.1564.TO.ZS","value":"Population ages 15-64 (% of total population)"},"country":{"id":"TM","value":"Turkmenistan"},"countryiso3code":"TKM","date":"2016","value":65.0140541907555,"unit":"","obs_status":"","decimal":0},{"indicator":{"id":"SP.POP.1564.TO.ZS","value":"Population ages 15-64 (% of total population)"},"country":{"id":"TM","value":"Turkmenistan"},"countryiso3code":"TKM","date":"2015","value":65.4812051921132,"unit":"","obs_status":"","decimal":0},{"indicator":{"id":"SP.POP.1564.TO.ZS","value":"Population ages 15-64 (% of total population)"},"country":{"id":"TC","value":"Turks and Caicos Islands"},"countryiso3code":"TCA","date":"2019","value":null,"unit":"","obs_status":"","decimal":0},{"indicator":{"id":"SP.POP.1564.TO.ZS","value":"Population ages 15-64 (% of total population)"},"country":{"id":"TC","value":"Turks and Caicos Islands"},"countryiso3code":"TCA","date":"2018","value":null,"unit":"","obs_status":"","decimal":0},{"indicator":{"id":"SP.POP.1564.TO.ZS","value":"Population ages 15-64 (% of total population)"},"country":{"id":"TC","value":"Turks and Caicos Islands"},"countryiso3code":"TCA","date":"2017","value":null,"unit":"","obs_status":"","decimal":0},{"indicator":{"id":"SP.POP.1564.TO.ZS","value":"Population ages 15-64 (% of total population)"},"country":{"id":"TC","value":"Turks and Caicos Islands"},"countryiso3code":"TCA","date":"2016","value":null,"unit":"","obs_status":"","decimal":0},{"indicator":{"id":"SP.POP.1564.TO.ZS","value":"Population ages 15-64 (% of total population)"},"country":{"id":"TC","value":"Turks and Caicos Islands"},"countryiso3code":"TCA","date":"2015","value":null,"unit":"","obs_status":"","decimal":0},{"indicator":{"id":"SP.POP.1564.TO.ZS","value":"Population ages 15-64 (% of total population)"},"country":{"id":"TV","value":"Tuvalu"},"countryiso3code":"TUV","date":"2019","value":null,"unit":"","obs_status":"","decimal":0},{"indicator":{"id":"SP.POP.1564.TO.ZS","value":"Population ages 15-64 (% of total population)"},"country":{"id":"TV","value":"Tuvalu"},"countryiso3code":"TUV","date":"2018","value":null,"unit":"","obs_status":"","decimal":0},{"indicator":{"id":"SP.POP.1564.TO.ZS","value":"Population ages 15-64 (% of total population)"},"country":{"id":"TV","value":"Tuvalu"},"countryiso3code":"TUV","date":"2017","value":null,"unit":"","obs_status":"","decimal":0},{"indicator":{"id":"SP.POP.1564.TO.ZS","value":"Population ages 15-64 (% of total population)"},"country":{"id":"TV","value":"Tuvalu"},"countryiso3code":"TUV","date":"2016","value":null,"unit":"","obs_status":"","decimal":0},{"indicator":{"id":"SP.POP.1564.TO.ZS","value":"Population ages 15-64 (% of total population)"},"country":{"id":"TV","value":"Tuvalu"},"countryiso3code":"TUV","date":"2015","value":null,"unit":"","obs_status":"","decimal":0},{"indicator":{"id":"SP.POP.1564.TO.ZS","value":"Population ages 15-64 (% of total population)"},"country":{"id":"UG","value":"Uganda"},"countryiso3code":"UGA","date":"2019","value":null,"unit":"","obs_status":"","decimal":0},{"indicator":{"id":"SP.POP.1564.TO.ZS","value":"Population ages 15-64 (% of total population)"},"country":{"id":"UG","value":"Uganda"},"countryiso3code":"UGA","date":"2018","value":51.1284878975505,"unit":"","obs_status":"","decimal":0},{"indicator":{"id":"SP.POP.1564.TO.ZS","value":"Population ages 15-64 (% of total population)"},"country":{"id":"UG","value":"Uganda"},"countryiso3code":"UGA","date":"2017","value":50.7597569174302,"unit":"","obs_status":"","decimal":0},{"indicator":{"id":"SP.POP.1564.TO.ZS","value":"Population ages 15-64 (% of total population)"},"country":{"id":"UG","value":"Uganda"},"countryiso3code":"UGA","date":"2016","value":50.4247680770889,"unit":"","obs_status":"","decimal":0},{"indicator":{"id":"SP.POP.1564.TO.ZS","value":"Population ages 15-64 (% of total population)"},"country":{"id":"UG","value":"Uganda"},"countryiso3code":"UGA","date":"2015","value":50.129642675523,"unit":"","obs_status":"","decimal":0},{"indicator":{"id":"SP.POP.1564.TO.ZS","value":"Population ages 15-64 (% of total population)"},"country":{"id":"UA","value":"Ukraine"},"countryiso3code":"UKR","date":"2019","value":null,"unit":"","obs_status":"","decimal":0},{"indicator":{"id":"SP.POP.1564.TO.ZS","value":"Population ages 15-64 (% of total population)"},"country":{"id":"UA","value":"Ukraine"},"countryiso3code":"UKR","date":"2018","value":67.7529003875501,"unit":"","obs_status":"","decimal":0},{"indicator":{"id":"SP.POP.1564.TO.ZS","value":"Population ages 15-64 (% of total population)"},"country":{"id":"UA","value":"Ukraine"},"countryiso3code":"UKR","date":"2017","value":68.2158166427496,"unit":"","obs_status":"","decimal":0},{"indicator":{"id":"SP.POP.1564.TO.ZS","value":"Population ages 15-64 (% of total population)"},"country":{"id":"UA","value":"Ukraine"},"countryiso3code":"UKR","date":"2016","value":68.6712542835303,"unit":"","obs_status":"","decimal":0},{"indicator":{"id":"SP.POP.1564.TO.ZS","value":"Population ages 15-64 (% of total population)"},"country":{"id":"UA","value":"Ukraine"},"countryiso3code":"UKR","date":"2015","value":69.0666495939741,"unit":"","obs_status":"","decimal":0},{"indicator":{"id":"SP.POP.1564.TO.ZS","value":"Population ages 15-64 (% of total population)"},"country":{"id":"AE","value":"United Arab Emirates"},"countryiso3code":"ARE","date":"2019","value":null,"unit":"","obs_status":"","decimal":0},{"indicator":{"id":"SP.POP.1564.TO.ZS","value":"Population ages 15-64 (% of total population)"},"country":{"id":"AE","value":"United Arab Emirates"},"countryiso3code":"ARE","date":"2018","value":84.3114896450084,"unit":"","obs_status":"","decimal":0},{"indicator":{"id":"SP.POP.1564.TO.ZS","value":"Population ages 15-64 (% of total population)"},"country":{"id":"AE","value":"United Arab Emirates"},"countryiso3code":"ARE","date":"2017","value":84.4608995928516,"unit":"","obs_status":"","decimal":0},{"indicator":{"id":"SP.POP.1564.TO.ZS","value":"Population ages 15-64 (% of total population)"},"country":{"id":"AE","value":"United Arab Emirates"},"countryiso3code":"ARE","date":"2016","value":84.6274962664165,"unit":"","obs_status":"","decimal":0},{"indicator":{"id":"SP.POP.1564.TO.ZS","value":"Population ages 15-64 (% of total population)"},"country":{"id":"AE","value":"United Arab Emirates"},"countryiso3code":"ARE","date":"2015","value":84.9027410422222,"unit":"","obs_status":"","decimal":0},{"indicator":{"id":"SP.POP.1564.TO.ZS","value":"Population ages 15-64 (% of total population)"},"country":{"id":"GB","value":"United Kingdom"},"countryiso3code":"GBR","date":"2019","value":null,"unit":"","obs_status":"","decimal":0},{"indicator":{"id":"SP.POP.1564.TO.ZS","value":"Population ages 15-64 (% of total population)"},"country":{"id":"GB","value":"United Kingdom"},"countryiso3code":"GBR","date":"2018","value":63.926052256896,"unit":"","obs_status":"","decimal":0},{"indicator":{"id":"SP.POP.1564.TO.ZS","value":"Population ages 15-64 (% of total population)"},"country":{"id":"GB","value":"United Kingdom"},"countryiso3code":"GBR","date":"2017","value":64.0738555899797,"unit":"","obs_status":"","decimal":0},{"indicator":{"id":"SP.POP.1564.TO.ZS","value":"Population ages 15-64 (% of total population)"},"country":{"id":"GB","value":"United Kingdom"},"countryiso3code":"GBR","date":"2016","value":64.2519261230786,"unit":"","obs_status":"","decimal":0},{"indicator":{"id":"SP.POP.1564.TO.ZS","value":"Population ages 15-64 (% of total population)"},"country":{"id":"GB","value":"United Kingdom"},"countryiso3code":"GBR","date":"2015","value":64.4699481838379,"unit":"","obs_status":"","decimal":0},{"indicator":{"id":"SP.POP.1564.TO.ZS","value":"Population ages 15-64 (% of total population)"},"country":{"id":"US","value":"United States"},"countryiso3code":"USA","date":"2019","value":null,"unit":"","obs_status":"","decimal":0},{"indicator":{"id":"SP.POP.1564.TO.ZS","value":"Population ages 15-64 (% of total population)"},"country":{"id":"US","value":"United States"},"countryiso3code":"USA","date":"2018","value":65.4833059619314,"unit":"","obs_status":"","decimal":0},{"indicator":{"id":"SP.POP.1564.TO.ZS","value":"Population ages 15-64 (% of total population)"},"country":{"id":"US","value":"United States"},"countryiso3code":"USA","date":"2017","value":65.7221060220984,"unit":"","obs_status":"","decimal":0},{"indicator":{"id":"SP.POP.1564.TO.ZS","value":"Population ages 15-64 (% of total population)"},"country":{"id":"US","value":"United States"},"countryiso3code":"USA","date":"2016","value":65.9429787679709,"unit":"","obs_status":"","decimal":0},{"indicator":{"id":"SP.POP.1564.TO.ZS","value":"Population ages 15-64 (% of total population)"},"country":{"id":"US","value":"United States"},"countryiso3code":"USA","date":"2015","value":66.1333886980394,"unit":"","obs_status":"","decimal":0},{"indicator":{"id":"SP.POP.1564.TO.ZS","value":"Population ages 15-64 (% of total population)"},"country":{"id":"UY","value":"Uruguay"},"countryiso3code":"URY","date":"2019","value":null,"unit":"","obs_status":"","decimal":0},{"indicator":{"id":"SP.POP.1564.TO.ZS","value":"Population ages 15-64 (% of total population)"},"country":{"id":"UY","value":"Uruguay"},"countryiso3code":"URY","date":"2018","value":64.5774993948021,"unit":"","obs_status":"","decimal":0},{"indicator":{"id":"SP.POP.1564.TO.ZS","value":"Population ages 15-64 (% of total population)"},"country":{"id":"UY","value":"Uruguay"},"countryiso3code":"URY","date":"2017","value":64.5227418284307,"unit":"","obs_status":"","decimal":0},{"indicator":{"id":"SP.POP.1564.TO.ZS","value":"Population ages 15-64 (% of total population)"},"country":{"id":"UY","value":"Uruguay"},"countryiso3code":"URY","date":"2016","value":64.4669053064298,"unit":"","obs_status":"","decimal":0},{"indicator":{"id":"SP.POP.1564.TO.ZS","value":"Population ages 15-64 (% of total population)"},"country":{"id":"UY","value":"Uruguay"},"countryiso3code":"URY","date":"2015","value":64.4317175013313,"unit":"","obs_status":"","decimal":0},{"indicator":{"id":"SP.POP.1564.TO.ZS","value":"Population ages 15-64 (% of total population)"},"country":{"id":"UZ","value":"Uzbekistan"},"countryiso3code":"UZB","date":"2019","value":null,"unit":"","obs_status":"","decimal":0},{"indicator":{"id":"SP.POP.1564.TO.ZS","value":"Population ages 15-64 (% of total population)"},"country":{"id":"UZ","value":"Uzbekistan"},"countryiso3code":"UZB","date":"2018","value":66.8948047070961,"unit":"","obs_status":"","decimal":0},{"indicator":{"id":"SP.POP.1564.TO.ZS","value":"Population ages 15-64 (% of total population)"},"country":{"id":"UZ","value":"Uzbekistan"},"countryiso3code":"UZB","date":"2017","value":67.2169165092944,"unit":"","obs_status":"","decimal":0},{"indicator":{"id":"SP.POP.1564.TO.ZS","value":"Population ages 15-64 (% of total population)"},"country":{"id":"UZ","value":"Uzbekistan"},"countryiso3code":"UZB","date":"2016","value":67.4698238021159,"unit":"","obs_status":"","decimal":0},{"indicator":{"id":"SP.POP.1564.TO.ZS","value":"Population ages 15-64 (% of total population)"},"country":{"id":"UZ","value":"Uzbekistan"},"countryiso3code":"UZB","date":"2015","value":67.586509564298,"unit":"","obs_status":"","decimal":0},{"indicator":{"id":"SP.POP.1564.TO.ZS","value":"Population ages 15-64 (% of total population)"},"country":{"id":"VU","value":"Vanuatu"},"countryiso3code":"VUT","date":"2019","value":null,"unit":"","obs_status":"","decimal":0},{"indicator":{"id":"SP.POP.1564.TO.ZS","value":"Population ages 15-64 (% of total population)"},"country":{"id":"VU","value":"Vanuatu"},"countryiso3code":"VUT","date":"2018","value":57.5116167828345,"unit":"","obs_status":"","decimal":0},{"indicator":{"id":"SP.POP.1564.TO.ZS","value":"Population ages 15-64 (% of total population)"},"country":{"id":"VU","value":"Vanuatu"},"countryiso3code":"VUT","date":"2017","value":57.4638366431999,"unit":"","obs_status":"","decimal":0},{"indicator":{"id":"SP.POP.1564.TO.ZS","value":"Population ages 15-64 (% of total population)"},"country":{"id":"VU","value":"Vanuatu"},"countryiso3code":"VUT","date":"2016","value":57.3994898142493,"unit":"","obs_status":"","decimal":0},{"indicator":{"id":"SP.POP.1564.TO.ZS","value":"Population ages 15-64 (% of total population)"},"country":{"id":"VU","value":"Vanuatu"},"countryiso3code":"VUT","date":"2015","value":57.2031866632243,"unit":"","obs_status":"","decimal":0},{"indicator":{"id":"SP.POP.1564.TO.ZS","value":"Population ages 15-64 (% of total population)"},"country":{"id":"VE","value":"Venezuela, RB"},"countryiso3code":"VEN","date":"2019","value":null,"unit":"","obs_status":"","decimal":0},{"indicator":{"id":"SP.POP.1564.TO.ZS","value":"Population ages 15-64 (% of total population)"},"country":{"id":"VE","value":"Venezuela, RB"},"countryiso3code":"VEN","date":"2018","value":65.0663627988088,"unit":"","obs_status":"","decimal":0},{"indicator":{"id":"SP.POP.1564.TO.ZS","value":"Population ages 15-64 (% of total population)"},"country":{"id":"VE","value":"Venezuela, RB"},"countryiso3code":"VEN","date":"2017","value":65.0856982015533,"unit":"","obs_status":"","decimal":0},{"indicator":{"id":"SP.POP.1564.TO.ZS","value":"Population ages 15-64 (% of total population)"},"country":{"id":"VE","value":"Venezuela, RB"},"countryiso3code":"VEN","date":"2016","value":65.1392077150525,"unit":"","obs_status":"","decimal":0},{"indicator":{"id":"SP.POP.1564.TO.ZS","value":"Population ages 15-64 (% of total population)"},"country":{"id":"VE","value":"Venezuela, RB"},"countryiso3code":"VEN","date":"2015","value":65.2547157288874,"unit":"","obs_status":"","decimal":0},{"indicator":{"id":"SP.POP.1564.TO.ZS","value":"Population ages 15-64 (% of total population)"},"country":{"id":"VN","value":"Vietnam"},"countryiso3code":"VNM","date":"2019","value":null,"unit":"","obs_status":"","decimal":0},{"indicator":{"id":"SP.POP.1564.TO.ZS","value":"Population ages 15-64 (% of total population)"},"country":{"id":"VN","value":"Vietnam"},"countryiso3code":"VNM","date":"2018","value":69.5523448704195,"unit":"","obs_status":"","decimal":0},{"indicator":{"id":"SP.POP.1564.TO.ZS","value":"Population ages 15-64 (% of total population)"},"country":{"id":"VN","value":"Vietnam"},"countryiso3code":"VNM","date":"2017","value":69.8714209653194,"unit":"","obs_status":"","decimal":0},{"indicator":{"id":"SP.POP.1564.TO.ZS","value":"Population ages 15-64 (% of total population)"},"country":{"id":"VN","value":"Vietnam"},"countryiso3code":"VNM","date":"2016","value":70.1383404701017,"unit":"","obs_status":"","decimal":0},{"indicator":{"id":"SP.POP.1564.TO.ZS","value":"Population ages 15-64 (% of total population)"},"country":{"id":"VN","value":"Vietnam"},"countryiso3code":"VNM","date":"2015","value":70.3118125996983,"unit":"","obs_status":"","decimal":0},{"indicator":{"id":"SP.POP.1564.TO.ZS","value":"Population ages 15-64 (% of total population)"},"country":{"id":"VI","value":"Virgin Islands (U.S.)"},"countryiso3code":"VIR","date":"2019","value":null,"unit":"","obs_status":"","decimal":0},{"indicator":{"id":"SP.POP.1564.TO.ZS","value":"Population ages 15-64 (% of total population)"},"country":{"id":"VI","value":"Virgin Islands (U.S.)"},"countryiso3code":"VIR","date":"2018","value":60.998280473825,"unit":"","obs_status":"","decimal":0},{"indicator":{"id":"SP.POP.1564.TO.ZS","value":"Population ages 15-64 (% of total population)"},"country":{"id":"VI","value":"Virgin Islands (U.S.)"},"countryiso3code":"VIR","date":"2017","value":61.3607507326899,"unit":"","obs_status":"","decimal":0},{"indicator":{"id":"SP.POP.1564.TO.ZS","value":"Population ages 15-64 (% of total population)"},"country":{"id":"VI","value":"Virgin Islands (U.S.)"},"countryiso3code":"VIR","date":"2016","value":61.7646778270616,"unit":"","obs_status":"","decimal":0},{"indicator":{"id":"SP.POP.1564.TO.ZS","value":"Population ages 15-64 (% of total population)"},"country":{"id":"VI","value":"Virgin Islands (U.S.)"},"countryiso3code":"VIR","date":"2015","value":62.2191733836392,"unit":"","obs_status":"","decimal":0},{"indicator":{"id":"SP.POP.1564.TO.ZS","value":"Population ages 15-64 (% of total population)"},"country":{"id":"PS","value":"West Bank and Gaza"},"countryiso3code":"PSE","date":"2019","value":null,"unit":"","obs_status":"","decimal":0},{"indicator":{"id":"SP.POP.1564.TO.ZS","value":"Population ages 15-64 (% of total population)"},"country":{"id":"PS","value":"West Bank and Gaza"},"countryiso3code":"PSE","date":"2018","value":57.9193329849872,"unit":"","obs_status":"","decimal":0},{"indicator":{"id":"SP.POP.1564.TO.ZS","value":"Population ages 15-64 (% of total population)"},"country":{"id":"PS","value":"West Bank and Gaza"},"countryiso3code":"PSE","date":"2017","value":57.6431883286811,"unit":"","obs_status":"","decimal":0},{"indicator":{"id":"SP.POP.1564.TO.ZS","value":"Population ages 15-64 (% of total population)"},"country":{"id":"PS","value":"West Bank and Gaza"},"countryiso3code":"PSE","date":"2016","value":57.3576457604472,"unit":"","obs_status":"","decimal":0},{"indicator":{"id":"SP.POP.1564.TO.ZS","value":"Population ages 15-64 (% of total population)"},"country":{"id":"PS","value":"West Bank and Gaza"},"countryiso3code":"PSE","date":"2015","value":57.0805750992567,"unit":"","obs_status":"","decimal":0},{"indicator":{"id":"SP.POP.1564.TO.ZS","value":"Population ages 15-64 (% of total population)"},"country":{"id":"YE","value":"Yemen, Rep."},"countryiso3code":"YEM","date":"2019","value":null,"unit":"","obs_status":"","decimal":0},{"indicator":{"id":"SP.POP.1564.TO.ZS","value":"Population ages 15-64 (% of total population)"},"country":{"id":"YE","value":"Yemen, Rep."},"countryiso3code":"YEM","date":"2018","value":57.5088399699032,"unit":"","obs_status":"","decimal":0},{"indicator":{"id":"SP.POP.1564.TO.ZS","value":"Population ages 15-64 (% of total population)"},"country":{"id":"YE","value":"Yemen, Rep."},"countryiso3code":"YEM","date":"2017","value":57.1469676163513,"unit":"","obs_status":"","decimal":0},{"indicator":{"id":"SP.POP.1564.TO.ZS","value":"Population ages 15-64 (% of total population)"},"country":{"id":"YE","value":"Yemen, Rep."},"countryiso3code":"YEM","date":"2016","value":56.8101547220192,"unit":"","obs_status":"","decimal":0},{"indicator":{"id":"SP.POP.1564.TO.ZS","value":"Population ages 15-64 (% of total population)"},"country":{"id":"YE","value":"Yemen, Rep."},"countryiso3code":"YEM","date":"2015","value":56.512237635232,"unit":"","obs_status":"","decimal":0},{"indicator":{"id":"SP.POP.1564.TO.ZS","value":"Population ages 15-64 (% of total population)"},"country":{"id":"ZM","value":"Zambia"},"countryiso3code":"ZMB","date":"2019","value":null,"unit":"","obs_status":"","decimal":0},{"indicator":{"id":"SP.POP.1564.TO.ZS","value":"Population ages 15-64 (% of total population)"},"country":{"id":"ZM","value":"Zambia"},"countryiso3code":"ZMB","date":"2018","value":52.9641808172429,"unit":"","obs_status":"","decimal":0},{"indicator":{"id":"SP.POP.1564.TO.ZS","value":"Population ages 15-64 (% of total population)"},"country":{"id":"ZM","value":"Zambia"},"countryiso3code":"ZMB","date":"2017","value":52.5038242573589,"unit":"","obs_status":"","decimal":0},{"indicator":{"id":"SP.POP.1564.TO.ZS","value":"Population ages 15-64 (% of total population)"},"country":{"id":"ZM","value":"Zambia"},"countryiso3code":"ZMB","date":"2016","value":52.0909700137954,"unit":"","obs_status":"","decimal":0},{"indicator":{"id":"SP.POP.1564.TO.ZS","value":"Population ages 15-64 (% of total population)"},"country":{"id":"ZM","value":"Zambia"},"countryiso3code":"ZMB","date":"2015","value":51.7587640963638,"unit":"","obs_status":"","decimal":0},{"indicator":{"id":"SP.POP.1564.TO.ZS","value":"Population ages 15-64 (% of total population)"},"country":{"id":"ZW","value":"Zimbabwe"},"countryiso3code":"ZWE","date":"2019","value":null,"unit":"","obs_status":"","decimal":0},{"indicator":{"id":"SP.POP.1564.TO.ZS","value":"Population ages 15-64 (% of total population)"},"country":{"id":"ZW","value":"Zimbabwe"},"countryiso3code":"ZWE","date":"2018","value":54.659410108955,"unit":"","obs_status":"","decimal":0},{"indicator":{"id":"SP.POP.1564.TO.ZS","value":"Population ages 15-64 (% of total population)"},"country":{"id":"ZW","value":"Zimbabwe"},"countryiso3code":"ZWE","date":"2017","value":54.50594050052,"unit":"","obs_status":"","decimal":0},{"indicator":{"id":"SP.POP.1564.TO.ZS","value":"Population ages 15-64 (% of total population)"},"country":{"id":"ZW","value":"Zimbabwe"},"countryiso3code":"ZWE","date":"2016","value":54.4731339552859,"unit":"","obs_status":"","decimal":0},{"indicator":{"id":"SP.POP.1564.TO.ZS","value":"Population ages 15-64 (% of total population)"},"country":{"id":"ZW","value":"Zimbabwe"},"countryiso3code":"ZWE","date":"2015","value":54.6034569585618,"unit":"","obs_status":"","decimal":0}]]