[{"page":7,"pages":7,"per_page":200,"total":1320,"sourceid":"15","lastupdated":"2020-05-19"},[{"indicator":{"id":"SP.POP.0014.FE.ZS","value":"Population ages 0-14, female (% of female population)"},"country":{"id":"TL","value":"Timor-Leste"},"countryiso3code":"TLS","date":"2019","value":null,"unit":"","obs_status":"","decimal":0},{"indicator":{"id":"SP.POP.0014.FE.ZS","value":"Population ages 0-14, female (% of female population)"},"country":{"id":"TL","value":"Timor-Leste"},"countryiso3code":"TLS","date":"2018","value":37.5382103294261,"unit":"","obs_status":"","decimal":0},{"indicator":{"id":"SP.POP.0014.FE.ZS","value":"Population ages 0-14, female (% of female population)"},"country":{"id":"TL","value":"Timor-Leste"},"countryiso3code":"TLS","date":"2017","value":38.0718255317142,"unit":"","obs_status":"","decimal":0},{"indicator":{"id":"SP.POP.0014.FE.ZS","value":"Population ages 0-14, female (% of female population)"},"country":{"id":"TL","value":"Timor-Leste"},"countryiso3code":"TLS","date":"2016","value":38.6489117689497,"unit":"","obs_status":"","decimal":0},{"indicator":{"id":"SP.POP.0014.FE.ZS","value":"Population ages 0-14, female (% of female population)"},"country":{"id":"TL","value":"Timor-Leste"},"countryiso3code":"TLS","date":"2015","value":39.2788498110911,"unit":"","obs_status":"","decimal":0},{"indicator":{"id":"SP.POP.0014.FE.ZS","value":"Population ages 0-14, female (% of female population)"},"country":{"id":"TG","value":"Togo"},"countryiso3code":"TGO","date":"2019","value":null,"unit":"","obs_status":"","decimal":0},{"indicator":{"id":"SP.POP.0014.FE.ZS","value":"Population ages 0-14, female (% of female population)"},"country":{"id":"TG","value":"Togo"},"countryiso3code":"TGO","date":"2018","value":40.9912111221895,"unit":"","obs_status":"","decimal":0},{"indicator":{"id":"SP.POP.0014.FE.ZS","value":"Population ages 0-14, female (% of female population)"},"country":{"id":"TG","value":"Togo"},"countryiso3code":"TGO","date":"2017","value":41.2817051858492,"unit":"","obs_status":"","decimal":0},{"indicator":{"id":"SP.POP.0014.FE.ZS","value":"Population ages 0-14, female (% of female population)"},"country":{"id":"TG","value":"Togo"},"countryiso3code":"TGO","date":"2016","value":41.5374624671132,"unit":"","obs_status":"","decimal":0},{"indicator":{"id":"SP.POP.0014.FE.ZS","value":"Population ages 0-14, female (% of female population)"},"country":{"id":"TG","value":"Togo"},"countryiso3code":"TGO","date":"2015","value":41.7598406732629,"unit":"","obs_status":"","decimal":0},{"indicator":{"id":"SP.POP.0014.FE.ZS","value":"Population ages 0-14, female (% of female population)"},"country":{"id":"TO","value":"Tonga"},"countryiso3code":"TON","date":"2019","value":null,"unit":"","obs_status":"","decimal":0},{"indicator":{"id":"SP.POP.0014.FE.ZS","value":"Population ages 0-14, female (% of female population)"},"country":{"id":"TO","value":"Tonga"},"countryiso3code":"TON","date":"2018","value":34.0286124142209,"unit":"","obs_status":"","decimal":0},{"indicator":{"id":"SP.POP.0014.FE.ZS","value":"Population ages 0-14, female (% of female population)"},"country":{"id":"TO","value":"Tonga"},"countryiso3code":"TON","date":"2017","value":34.3848642289972,"unit":"","obs_status":"","decimal":0},{"indicator":{"id":"SP.POP.0014.FE.ZS","value":"Population ages 0-14, female (% of female population)"},"country":{"id":"TO","value":"Tonga"},"countryiso3code":"TON","date":"2016","value":34.7111032042539,"unit":"","obs_status":"","decimal":0},{"indicator":{"id":"SP.POP.0014.FE.ZS","value":"Population ages 0-14, female (% of female population)"},"country":{"id":"TO","value":"Tonga"},"countryiso3code":"TON","date":"2015","value":34.9217370603289,"unit":"","obs_status":"","decimal":0},{"indicator":{"id":"SP.POP.0014.FE.ZS","value":"Population ages 0-14, female (% of female population)"},"country":{"id":"TT","value":"Trinidad and Tobago"},"countryiso3code":"TTO","date":"2019","value":null,"unit":"","obs_status":"","decimal":0},{"indicator":{"id":"SP.POP.0014.FE.ZS","value":"Population ages 0-14, female (% of female population)"},"country":{"id":"TT","value":"Trinidad and Tobago"},"countryiso3code":"TTO","date":"2018","value":19.8768664517258,"unit":"","obs_status":"","decimal":0},{"indicator":{"id":"SP.POP.0014.FE.ZS","value":"Population ages 0-14, female (% of female population)"},"country":{"id":"TT","value":"Trinidad and Tobago"},"countryiso3code":"TTO","date":"2017","value":20.0017429094301,"unit":"","obs_status":"","decimal":0},{"indicator":{"id":"SP.POP.0014.FE.ZS","value":"Population ages 0-14, female (% of female population)"},"country":{"id":"TT","value":"Trinidad and Tobago"},"countryiso3code":"TTO","date":"2016","value":20.0927239416721,"unit":"","obs_status":"","decimal":0},{"indicator":{"id":"SP.POP.0014.FE.ZS","value":"Population ages 0-14, female (% of female population)"},"country":{"id":"TT","value":"Trinidad and Tobago"},"countryiso3code":"TTO","date":"2015","value":20.1580964893917,"unit":"","obs_status":"","decimal":0},{"indicator":{"id":"SP.POP.0014.FE.ZS","value":"Population ages 0-14, female (% of female population)"},"country":{"id":"TN","value":"Tunisia"},"countryiso3code":"TUN","date":"2019","value":null,"unit":"","obs_status":"","decimal":0},{"indicator":{"id":"SP.POP.0014.FE.ZS","value":"Population ages 0-14, female (% of female population)"},"country":{"id":"TN","value":"Tunisia"},"countryiso3code":"TUN","date":"2018","value":23.2036020276492,"unit":"","obs_status":"","decimal":0},{"indicator":{"id":"SP.POP.0014.FE.ZS","value":"Population ages 0-14, female (% of female population)"},"country":{"id":"TN","value":"Tunisia"},"countryiso3code":"TUN","date":"2017","value":23.1288853876312,"unit":"","obs_status":"","decimal":0},{"indicator":{"id":"SP.POP.0014.FE.ZS","value":"Population ages 0-14, female (% of female population)"},"country":{"id":"TN","value":"Tunisia"},"countryiso3code":"TUN","date":"2016","value":22.9984949553914,"unit":"","obs_status":"","decimal":0},{"indicator":{"id":"SP.POP.0014.FE.ZS","value":"Population ages 0-14, female (% of female population)"},"country":{"id":"TN","value":"Tunisia"},"countryiso3code":"TUN","date":"2015","value":22.7714081753003,"unit":"","obs_status":"","decimal":0},{"indicator":{"id":"SP.POP.0014.FE.ZS","value":"Population ages 0-14, female (% of female population)"},"country":{"id":"TR","value":"Turkey"},"countryiso3code":"TUR","date":"2019","value":null,"unit":"","obs_status":"","decimal":0},{"indicator":{"id":"SP.POP.0014.FE.ZS","value":"Population ages 0-14, female (% of female population)"},"country":{"id":"TR","value":"Turkey"},"countryiso3code":"TUR","date":"2018","value":23.769858803014,"unit":"","obs_status":"","decimal":0},{"indicator":{"id":"SP.POP.0014.FE.ZS","value":"Population ages 0-14, female (% of female population)"},"country":{"id":"TR","value":"Turkey"},"countryiso3code":"TUR","date":"2017","value":24.0985467535801,"unit":"","obs_status":"","decimal":0},{"indicator":{"id":"SP.POP.0014.FE.ZS","value":"Population ages 0-14, female (% of female population)"},"country":{"id":"TR","value":"Turkey"},"countryiso3code":"TUR","date":"2016","value":24.4009172058789,"unit":"","obs_status":"","decimal":0},{"indicator":{"id":"SP.POP.0014.FE.ZS","value":"Population ages 0-14, female (% of female population)"},"country":{"id":"TR","value":"Turkey"},"countryiso3code":"TUR","date":"2015","value":24.6642755043832,"unit":"","obs_status":"","decimal":0},{"indicator":{"id":"SP.POP.0014.FE.ZS","value":"Population ages 0-14, female (% of female population)"},"country":{"id":"TM","value":"Turkmenistan"},"countryiso3code":"TKM","date":"2019","value":null,"unit":"","obs_status":"","decimal":0},{"indicator":{"id":"SP.POP.0014.FE.ZS","value":"Population ages 0-14, female (% of female population)"},"country":{"id":"TM","value":"Turkmenistan"},"countryiso3code":"TKM","date":"2018","value":29.944568295678,"unit":"","obs_status":"","decimal":0},{"indicator":{"id":"SP.POP.0014.FE.ZS","value":"Population ages 0-14, female (% of female population)"},"country":{"id":"TM","value":"Turkmenistan"},"countryiso3code":"TKM","date":"2017","value":30.0353830840732,"unit":"","obs_status":"","decimal":0},{"indicator":{"id":"SP.POP.0014.FE.ZS","value":"Population ages 0-14, female (% of female population)"},"country":{"id":"TM","value":"Turkmenistan"},"countryiso3code":"TKM","date":"2016","value":29.9599830775247,"unit":"","obs_status":"","decimal":0},{"indicator":{"id":"SP.POP.0014.FE.ZS","value":"Population ages 0-14, female (% of female population)"},"country":{"id":"TM","value":"Turkmenistan"},"countryiso3code":"TKM","date":"2015","value":29.5887071169501,"unit":"","obs_status":"","decimal":0},{"indicator":{"id":"SP.POP.0014.FE.ZS","value":"Population ages 0-14, female (% of female population)"},"country":{"id":"TC","value":"Turks and Caicos Islands"},"countryiso3code":"TCA","date":"2019","value":null,"unit":"","obs_status":"","decimal":0},{"indicator":{"id":"SP.POP.0014.FE.ZS","value":"Population ages 0-14, female (% of female population)"},"country":{"id":"TC","value":"Turks and Caicos Islands"},"countryiso3code":"TCA","date":"2018","value":null,"unit":"","obs_status":"","decimal":0},{"indicator":{"id":"SP.POP.0014.FE.ZS","value":"Population ages 0-14, female (% of female population)"},"country":{"id":"TC","value":"Turks and Caicos Islands"},"countryiso3code":"TCA","date":"2017","value":null,"unit":"","obs_status":"","decimal":0},{"indicator":{"id":"SP.POP.0014.FE.ZS","value":"Population ages 0-14, female (% of female population)"},"country":{"id":"TC","value":"Turks and Caicos Islands"},"countryiso3code":"TCA","date":"2016","value":null,"unit":"","obs_status":"","decimal":0},{"indicator":{"id":"SP.POP.0014.FE.ZS","value":"Population ages 0-14, female (% of female population)"},"country":{"id":"TC","value":"Turks and Caicos Islands"},"countryiso3code":"TCA","date":"2015","value":null,"unit":"","obs_status":"","decimal":0},{"indicator":{"id":"SP.POP.0014.FE.ZS","value":"Population ages 0-14, female (% of female population)"},"country":{"id":"TV","value":"Tuvalu"},"countryiso3code":"TUV","date":"2019","value":null,"unit":"","obs_status":"","decimal":0},{"indicator":{"id":"SP.POP.0014.FE.ZS","value":"Population ages 0-14, female (% of female population)"},"country":{"id":"TV","value":"Tuvalu"},"countryiso3code":"TUV","date":"2018","value":null,"unit":"","obs_status":"","decimal":0},{"indicator":{"id":"SP.POP.0014.FE.ZS","value":"Population ages 0-14, female (% of female population)"},"country":{"id":"TV","value":"Tuvalu"},"countryiso3code":"TUV","date":"2017","value":null,"unit":"","obs_status":"","decimal":0},{"indicator":{"id":"SP.POP.0014.FE.ZS","value":"Population ages 0-14, female (% of female population)"},"country":{"id":"TV","value":"Tuvalu"},"countryiso3code":"TUV","date":"2016","value":null,"unit":"","obs_status":"","decimal":0},{"indicator":{"id":"SP.POP.0014.FE.ZS","value":"Population ages 0-14, female (% of female population)"},"country":{"id":"TV","value":"Tuvalu"},"countryiso3code":"TUV","date":"2015","value":null,"unit":"","obs_status":"","decimal":0},{"indicator":{"id":"SP.POP.0014.FE.ZS","value":"Population ages 0-14, female (% of female population)"},"country":{"id":"UG","value":"Uganda"},"countryiso3code":"UGA","date":"2019","value":null,"unit":"","obs_status":"","decimal":0},{"indicator":{"id":"SP.POP.0014.FE.ZS","value":"Population ages 0-14, female (% of female population)"},"country":{"id":"UG","value":"Uganda"},"countryiso3code":"UGA","date":"2018","value":45.7995844143058,"unit":"","obs_status":"","decimal":0},{"indicator":{"id":"SP.POP.0014.FE.ZS","value":"Population ages 0-14, female (% of female population)"},"country":{"id":"UG","value":"Uganda"},"countryiso3code":"UGA","date":"2017","value":46.1516732433278,"unit":"","obs_status":"","decimal":0},{"indicator":{"id":"SP.POP.0014.FE.ZS","value":"Population ages 0-14, female (% of female population)"},"country":{"id":"UG","value":"Uganda"},"countryiso3code":"UGA","date":"2016","value":46.4765152683355,"unit":"","obs_status":"","decimal":0},{"indicator":{"id":"SP.POP.0014.FE.ZS","value":"Population ages 0-14, female (% of female population)"},"country":{"id":"UG","value":"Uganda"},"countryiso3code":"UGA","date":"2015","value":46.7712188837084,"unit":"","obs_status":"","decimal":0},{"indicator":{"id":"SP.POP.0014.FE.ZS","value":"Population ages 0-14, female (% of female population)"},"country":{"id":"UA","value":"Ukraine"},"countryiso3code":"UKR","date":"2019","value":null,"unit":"","obs_status":"","decimal":0},{"indicator":{"id":"SP.POP.0014.FE.ZS","value":"Population ages 0-14, female (% of female population)"},"country":{"id":"UA","value":"Ukraine"},"countryiso3code":"UKR","date":"2018","value":14.2859452168064,"unit":"","obs_status":"","decimal":0},{"indicator":{"id":"SP.POP.0014.FE.ZS","value":"Population ages 0-14, female (% of female population)"},"country":{"id":"UA","value":"Ukraine"},"countryiso3code":"UKR","date":"2017","value":14.1135067851152,"unit":"","obs_status":"","decimal":0},{"indicator":{"id":"SP.POP.0014.FE.ZS","value":"Population ages 0-14, female (% of female population)"},"country":{"id":"UA","value":"Ukraine"},"countryiso3code":"UKR","date":"2016","value":13.9334353936783,"unit":"","obs_status":"","decimal":0},{"indicator":{"id":"SP.POP.0014.FE.ZS","value":"Population ages 0-14, female (% of female population)"},"country":{"id":"UA","value":"Ukraine"},"countryiso3code":"UKR","date":"2015","value":13.7777804106038,"unit":"","obs_status":"","decimal":0},{"indicator":{"id":"SP.POP.0014.FE.ZS","value":"Population ages 0-14, female (% of female population)"},"country":{"id":"AE","value":"United Arab Emirates"},"countryiso3code":"ARE","date":"2019","value":null,"unit":"","obs_status":"","decimal":0},{"indicator":{"id":"SP.POP.0014.FE.ZS","value":"Population ages 0-14, female (% of female population)"},"country":{"id":"AE","value":"United Arab Emirates"},"countryiso3code":"ARE","date":"2018","value":23.6329517059021,"unit":"","obs_status":"","decimal":0},{"indicator":{"id":"SP.POP.0014.FE.ZS","value":"Population ages 0-14, female (% of female population)"},"country":{"id":"AE","value":"United Arab Emirates"},"countryiso3code":"ARE","date":"2017","value":23.6447185139384,"unit":"","obs_status":"","decimal":0},{"indicator":{"id":"SP.POP.0014.FE.ZS","value":"Population ages 0-14, female (% of female population)"},"country":{"id":"AE","value":"United Arab Emirates"},"countryiso3code":"ARE","date":"2016","value":23.5974044512832,"unit":"","obs_status":"","decimal":0},{"indicator":{"id":"SP.POP.0014.FE.ZS","value":"Population ages 0-14, female (% of female population)"},"country":{"id":"AE","value":"United Arab Emirates"},"countryiso3code":"ARE","date":"2015","value":23.4427846108849,"unit":"","obs_status":"","decimal":0},{"indicator":{"id":"SP.POP.0014.FE.ZS","value":"Population ages 0-14, female (% of female population)"},"country":{"id":"GB","value":"United Kingdom"},"countryiso3code":"GBR","date":"2019","value":null,"unit":"","obs_status":"","decimal":0},{"indicator":{"id":"SP.POP.0014.FE.ZS","value":"Population ages 0-14, female (% of female population)"},"country":{"id":"GB","value":"United Kingdom"},"countryiso3code":"GBR","date":"2018","value":17.0514998320606,"unit":"","obs_status":"","decimal":0},{"indicator":{"id":"SP.POP.0014.FE.ZS","value":"Population ages 0-14, female (% of female population)"},"country":{"id":"GB","value":"United Kingdom"},"countryiso3code":"GBR","date":"2017","value":17.0007994170761,"unit":"","obs_status":"","decimal":0},{"indicator":{"id":"SP.POP.0014.FE.ZS","value":"Population ages 0-14, female (% of female population)"},"country":{"id":"GB","value":"United Kingdom"},"countryiso3code":"GBR","date":"2016","value":16.9473137979515,"unit":"","obs_status":"","decimal":0},{"indicator":{"id":"SP.POP.0014.FE.ZS","value":"Population ages 0-14, female (% of female population)"},"country":{"id":"GB","value":"United Kingdom"},"countryiso3code":"GBR","date":"2015","value":16.9048833738824,"unit":"","obs_status":"","decimal":0},{"indicator":{"id":"SP.POP.0014.FE.ZS","value":"Population ages 0-14, female (% of female population)"},"country":{"id":"US","value":"United States"},"countryiso3code":"USA","date":"2019","value":null,"unit":"","obs_status":"","decimal":0},{"indicator":{"id":"SP.POP.0014.FE.ZS","value":"Population ages 0-14, female (% of female population)"},"country":{"id":"US","value":"United States"},"countryiso3code":"USA","date":"2018","value":18.1048535943438,"unit":"","obs_status":"","decimal":0},{"indicator":{"id":"SP.POP.0014.FE.ZS","value":"Population ages 0-14, female (% of female population)"},"country":{"id":"US","value":"United States"},"countryiso3code":"USA","date":"2017","value":18.2466676142417,"unit":"","obs_status":"","decimal":0},{"indicator":{"id":"SP.POP.0014.FE.ZS","value":"Population ages 0-14, female (% of female population)"},"country":{"id":"US","value":"United States"},"countryiso3code":"USA","date":"2016","value":18.4026326644684,"unit":"","obs_status":"","decimal":0},{"indicator":{"id":"SP.POP.0014.FE.ZS","value":"Population ages 0-14, female (% of female population)"},"country":{"id":"US","value":"United States"},"countryiso3code":"USA","date":"2015","value":18.5925591604973,"unit":"","obs_status":"","decimal":0},{"indicator":{"id":"SP.POP.0014.FE.ZS","value":"Population ages 0-14, female (% of female population)"},"country":{"id":"UY","value":"Uruguay"},"countryiso3code":"URY","date":"2019","value":null,"unit":"","obs_status":"","decimal":0},{"indicator":{"id":"SP.POP.0014.FE.ZS","value":"Population ages 0-14, female (% of female population)"},"country":{"id":"UY","value":"Uruguay"},"countryiso3code":"URY","date":"2018","value":19.4845254497412,"unit":"","obs_status":"","decimal":0},{"indicator":{"id":"SP.POP.0014.FE.ZS","value":"Population ages 0-14, female (% of female population)"},"country":{"id":"UY","value":"Uruguay"},"countryiso3code":"URY","date":"2017","value":19.641745380512,"unit":"","obs_status":"","decimal":0},{"indicator":{"id":"SP.POP.0014.FE.ZS","value":"Population ages 0-14, female (% of female population)"},"country":{"id":"UY","value":"Uruguay"},"countryiso3code":"URY","date":"2016","value":19.7928939991062,"unit":"","obs_status":"","decimal":0},{"indicator":{"id":"SP.POP.0014.FE.ZS","value":"Population ages 0-14, female (% of female population)"},"country":{"id":"UY","value":"Uruguay"},"countryiso3code":"URY","date":"2015","value":19.9206155549806,"unit":"","obs_status":"","decimal":0},{"indicator":{"id":"SP.POP.0014.FE.ZS","value":"Population ages 0-14, female (% of female population)"},"country":{"id":"UZ","value":"Uzbekistan"},"countryiso3code":"UZB","date":"2019","value":null,"unit":"","obs_status":"","decimal":0},{"indicator":{"id":"SP.POP.0014.FE.ZS","value":"Population ages 0-14, female (% of female population)"},"country":{"id":"UZ","value":"Uzbekistan"},"countryiso3code":"UZB","date":"2018","value":27.8447802809419,"unit":"","obs_status":"","decimal":0},{"indicator":{"id":"SP.POP.0014.FE.ZS","value":"Population ages 0-14, female (% of female population)"},"country":{"id":"UZ","value":"Uzbekistan"},"countryiso3code":"UZB","date":"2017","value":27.6879486392287,"unit":"","obs_status":"","decimal":0},{"indicator":{"id":"SP.POP.0014.FE.ZS","value":"Population ages 0-14, female (% of female population)"},"country":{"id":"UZ","value":"Uzbekistan"},"countryiso3code":"UZB","date":"2016","value":27.5660767517236,"unit":"","obs_status":"","decimal":0},{"indicator":{"id":"SP.POP.0014.FE.ZS","value":"Population ages 0-14, female (% of female population)"},"country":{"id":"UZ","value":"Uzbekistan"},"countryiso3code":"UZB","date":"2015","value":27.5330172418847,"unit":"","obs_status":"","decimal":0},{"indicator":{"id":"SP.POP.0014.FE.ZS","value":"Population ages 0-14, female (% of female population)"},"country":{"id":"VU","value":"Vanuatu"},"countryiso3code":"VUT","date":"2019","value":null,"unit":"","obs_status":"","decimal":0},{"indicator":{"id":"SP.POP.0014.FE.ZS","value":"Population ages 0-14, female (% of female population)"},"country":{"id":"VU","value":"Vanuatu"},"countryiso3code":"VUT","date":"2018","value":37.9887145075421,"unit":"","obs_status":"","decimal":0},{"indicator":{"id":"SP.POP.0014.FE.ZS","value":"Population ages 0-14, female (% of female population)"},"country":{"id":"VU","value":"Vanuatu"},"countryiso3code":"VUT","date":"2017","value":37.9675305289794,"unit":"","obs_status":"","decimal":0},{"indicator":{"id":"SP.POP.0014.FE.ZS","value":"Population ages 0-14, female (% of female population)"},"country":{"id":"VU","value":"Vanuatu"},"countryiso3code":"VUT","date":"2016","value":37.9693847040205,"unit":"","obs_status":"","decimal":0},{"indicator":{"id":"SP.POP.0014.FE.ZS","value":"Population ages 0-14, female (% of female population)"},"country":{"id":"VU","value":"Vanuatu"},"countryiso3code":"VUT","date":"2015","value":38.1273632585826,"unit":"","obs_status":"","decimal":0},{"indicator":{"id":"SP.POP.0014.FE.ZS","value":"Population ages 0-14, female (% of female population)"},"country":{"id":"VE","value":"Venezuela, RB"},"countryiso3code":"VEN","date":"2019","value":null,"unit":"","obs_status":"","decimal":0},{"indicator":{"id":"SP.POP.0014.FE.ZS","value":"Population ages 0-14, female (% of female population)"},"country":{"id":"VE","value":"Venezuela, RB"},"countryiso3code":"VEN","date":"2018","value":26.7442651479791,"unit":"","obs_status":"","decimal":0},{"indicator":{"id":"SP.POP.0014.FE.ZS","value":"Population ages 0-14, female (% of female population)"},"country":{"id":"VE","value":"Venezuela, RB"},"countryiso3code":"VEN","date":"2017","value":27.084071295868,"unit":"","obs_status":"","decimal":0},{"indicator":{"id":"SP.POP.0014.FE.ZS","value":"Population ages 0-14, female (% of female population)"},"country":{"id":"VE","value":"Venezuela, RB"},"countryiso3code":"VEN","date":"2016","value":27.3707024653766,"unit":"","obs_status":"","decimal":0},{"indicator":{"id":"SP.POP.0014.FE.ZS","value":"Population ages 0-14, female (% of female population)"},"country":{"id":"VE","value":"Venezuela, RB"},"countryiso3code":"VEN","date":"2015","value":27.578813735271,"unit":"","obs_status":"","decimal":0},{"indicator":{"id":"SP.POP.0014.FE.ZS","value":"Population ages 0-14, female (% of female population)"},"country":{"id":"VN","value":"Vietnam"},"countryiso3code":"VNM","date":"2019","value":null,"unit":"","obs_status":"","decimal":0},{"indicator":{"id":"SP.POP.0014.FE.ZS","value":"Population ages 0-14, female (% of female population)"},"country":{"id":"VN","value":"Vietnam"},"countryiso3code":"VNM","date":"2018","value":21.9075528837872,"unit":"","obs_status":"","decimal":0},{"indicator":{"id":"SP.POP.0014.FE.ZS","value":"Population ages 0-14, female (% of female population)"},"country":{"id":"VN","value":"Vietnam"},"countryiso3code":"VNM","date":"2017","value":21.8652766175097,"unit":"","obs_status":"","decimal":0},{"indicator":{"id":"SP.POP.0014.FE.ZS","value":"Population ages 0-14, female (% of female population)"},"country":{"id":"VN","value":"Vietnam"},"countryiso3code":"VNM","date":"2016","value":21.8373368378088,"unit":"","obs_status":"","decimal":0},{"indicator":{"id":"SP.POP.0014.FE.ZS","value":"Population ages 0-14, female (% of female population)"},"country":{"id":"VN","value":"Vietnam"},"countryiso3code":"VNM","date":"2015","value":21.855628067151,"unit":"","obs_status":"","decimal":0},{"indicator":{"id":"SP.POP.0014.FE.ZS","value":"Population ages 0-14, female (% of female population)"},"country":{"id":"VI","value":"Virgin Islands (U.S.)"},"countryiso3code":"VIR","date":"2019","value":null,"unit":"","obs_status":"","decimal":0},{"indicator":{"id":"SP.POP.0014.FE.ZS","value":"Population ages 0-14, female (% of female population)"},"country":{"id":"VI","value":"Virgin Islands (U.S.)"},"countryiso3code":"VIR","date":"2018","value":18.4743199664766,"unit":"","obs_status":"","decimal":0},{"indicator":{"id":"SP.POP.0014.FE.ZS","value":"Population ages 0-14, female (% of female population)"},"country":{"id":"VI","value":"Virgin Islands (U.S.)"},"countryiso3code":"VIR","date":"2017","value":18.6301120320612,"unit":"","obs_status":"","decimal":0},{"indicator":{"id":"SP.POP.0014.FE.ZS","value":"Population ages 0-14, female (% of female population)"},"country":{"id":"VI","value":"Virgin Islands (U.S.)"},"countryiso3code":"VIR","date":"2016","value":18.7989508578922,"unit":"","obs_status":"","decimal":0},{"indicator":{"id":"SP.POP.0014.FE.ZS","value":"Population ages 0-14, female (% of female population)"},"country":{"id":"VI","value":"Virgin Islands (U.S.)"},"countryiso3code":"VIR","date":"2015","value":19.0178018857621,"unit":"","obs_status":"","decimal":0},{"indicator":{"id":"SP.POP.0014.FE.ZS","value":"Population ages 0-14, female (% of female population)"},"country":{"id":"PS","value":"West Bank and Gaza"},"countryiso3code":"PSE","date":"2019","value":null,"unit":"","obs_status":"","decimal":0},{"indicator":{"id":"SP.POP.0014.FE.ZS","value":"Population ages 0-14, female (% of female population)"},"country":{"id":"PS","value":"West Bank and Gaza"},"countryiso3code":"PSE","date":"2018","value":38.6508960878599,"unit":"","obs_status":"","decimal":0},{"indicator":{"id":"SP.POP.0014.FE.ZS","value":"Population ages 0-14, female (% of female population)"},"country":{"id":"PS","value":"West Bank and Gaza"},"countryiso3code":"PSE","date":"2017","value":38.9772029112345,"unit":"","obs_status":"","decimal":0},{"indicator":{"id":"SP.POP.0014.FE.ZS","value":"Population ages 0-14, female (% of female population)"},"country":{"id":"PS","value":"West Bank and Gaza"},"countryiso3code":"PSE","date":"2016","value":39.3095735214781,"unit":"","obs_status":"","decimal":0},{"indicator":{"id":"SP.POP.0014.FE.ZS","value":"Population ages 0-14, female (% of female population)"},"country":{"id":"PS","value":"West Bank and Gaza"},"countryiso3code":"PSE","date":"2015","value":39.6294445253757,"unit":"","obs_status":"","decimal":0},{"indicator":{"id":"SP.POP.0014.FE.ZS","value":"Population ages 0-14, female (% of female population)"},"country":{"id":"YE","value":"Yemen, Rep."},"countryiso3code":"YEM","date":"2019","value":null,"unit":"","obs_status":"","decimal":0},{"indicator":{"id":"SP.POP.0014.FE.ZS","value":"Population ages 0-14, female (% of female population)"},"country":{"id":"YE","value":"Yemen, Rep."},"countryiso3code":"YEM","date":"2018","value":39.1325873743844,"unit":"","obs_status":"","decimal":0},{"indicator":{"id":"SP.POP.0014.FE.ZS","value":"Population ages 0-14, female (% of female population)"},"country":{"id":"YE","value":"Yemen, Rep."},"countryiso3code":"YEM","date":"2017","value":39.5202625932898,"unit":"","obs_status":"","decimal":0},{"indicator":{"id":"SP.POP.0014.FE.ZS","value":"Population ages 0-14, female (% of female population)"},"country":{"id":"YE","value":"Yemen, Rep."},"countryiso3code":"YEM","date":"2016","value":39.8833955632312,"unit":"","obs_status":"","decimal":0},{"indicator":{"id":"SP.POP.0014.FE.ZS","value":"Population ages 0-14, female (% of female population)"},"country":{"id":"YE","value":"Yemen, Rep."},"countryiso3code":"YEM","date":"2015","value":40.2101480898378,"unit":"","obs_status":"","decimal":0},{"indicator":{"id":"SP.POP.0014.FE.ZS","value":"Population ages 0-14, female (% of female population)"},"country":{"id":"ZM","value":"Zambia"},"countryiso3code":"ZMB","date":"2019","value":null,"unit":"","obs_status":"","decimal":0},{"indicator":{"id":"SP.POP.0014.FE.ZS","value":"Population ages 0-14, female (% of female population)"},"country":{"id":"ZM","value":"Zambia"},"countryiso3code":"ZMB","date":"2018","value":44.105812779342,"unit":"","obs_status":"","decimal":0},{"indicator":{"id":"SP.POP.0014.FE.ZS","value":"Population ages 0-14, female (% of female population)"},"country":{"id":"ZM","value":"Zambia"},"countryiso3code":"ZMB","date":"2017","value":44.5808807770976,"unit":"","obs_status":"","decimal":0},{"indicator":{"id":"SP.POP.0014.FE.ZS","value":"Population ages 0-14, female (% of female population)"},"country":{"id":"ZM","value":"Zambia"},"countryiso3code":"ZMB","date":"2016","value":45.0099858603219,"unit":"","obs_status":"","decimal":0},{"indicator":{"id":"SP.POP.0014.FE.ZS","value":"Population ages 0-14, female (% of female population)"},"country":{"id":"ZM","value":"Zambia"},"countryiso3code":"ZMB","date":"2015","value":45.3598944628524,"unit":"","obs_status":"","decimal":0},{"indicator":{"id":"SP.POP.0014.FE.ZS","value":"Population ages 0-14, female (% of female population)"},"country":{"id":"ZW","value":"Zimbabwe"},"countryiso3code":"ZWE","date":"2019","value":null,"unit":"","obs_status":"","decimal":0},{"indicator":{"id":"SP.POP.0014.FE.ZS","value":"Population ages 0-14, female (% of female population)"},"country":{"id":"ZW","value":"Zimbabwe"},"countryiso3code":"ZWE","date":"2018","value":40.3615464278774,"unit":"","obs_status":"","decimal":0},{"indicator":{"id":"SP.POP.0014.FE.ZS","value":"Population ages 0-14, female (% of female population)"},"country":{"id":"ZW","value":"Zimbabwe"},"countryiso3code":"ZWE","date":"2017","value":40.5399122868754,"unit":"","obs_status":"","decimal":0},{"indicator":{"id":"SP.POP.0014.FE.ZS","value":"Population ages 0-14, female (% of female population)"},"country":{"id":"ZW","value":"Zimbabwe"},"countryiso3code":"ZWE","date":"2016","value":40.5922161266274,"unit":"","obs_status":"","decimal":0},{"indicator":{"id":"SP.POP.0014.FE.ZS","value":"Population ages 0-14, female (% of female population)"},"country":{"id":"ZW","value":"Zimbabwe"},"countryiso3code":"ZWE","date":"2015","value":40.4663405219861,"unit":"","obs_status":"","decimal":0}]]