[{"page":7,"pages":7,"per_page":200,"total":1320,"sourceid":"2","lastupdated":"2020-05-19"},[{"indicator":{"id":"SP.POP.65UP.TO.ZS","value":"Population ages 65 and above (% of total population)"},"country":{"id":"TL","value":"Timor-Leste"},"countryiso3code":"TLS","date":"2019","value":null,"unit":"","obs_status":"","decimal":0},{"indicator":{"id":"SP.POP.65UP.TO.ZS","value":"Population ages 65 and above (% of total population)"},"country":{"id":"TL","value":"Timor-Leste"},"countryiso3code":"TLS","date":"2018","value":4.31649229400603,"unit":"","obs_status":"","decimal":0},{"indicator":{"id":"SP.POP.65UP.TO.ZS","value":"Population ages 65 and above (% of total population)"},"country":{"id":"TL","value":"Timor-Leste"},"countryiso3code":"TLS","date":"2017","value":4.35959390568973,"unit":"","obs_status":"","decimal":0},{"indicator":{"id":"SP.POP.65UP.TO.ZS","value":"Population ages 65 and above (% of total population)"},"country":{"id":"TL","value":"Timor-Leste"},"countryiso3code":"TLS","date":"2016","value":4.39018509162725,"unit":"","obs_status":"","decimal":0},{"indicator":{"id":"SP.POP.65UP.TO.ZS","value":"Population ages 65 and above (% of total population)"},"country":{"id":"TL","value":"Timor-Leste"},"countryiso3code":"TLS","date":"2015","value":4.38777164963362,"unit":"","obs_status":"","decimal":0},{"indicator":{"id":"SP.POP.65UP.TO.ZS","value":"Population ages 65 and above (% of total population)"},"country":{"id":"TG","value":"Togo"},"countryiso3code":"TGO","date":"2019","value":null,"unit":"","obs_status":"","decimal":0},{"indicator":{"id":"SP.POP.65UP.TO.ZS","value":"Population ages 65 and above (% of total population)"},"country":{"id":"TG","value":"Togo"},"countryiso3code":"TGO","date":"2018","value":2.86946801108822,"unit":"","obs_status":"","decimal":0},{"indicator":{"id":"SP.POP.65UP.TO.ZS","value":"Population ages 65 and above (% of total population)"},"country":{"id":"TG","value":"Togo"},"countryiso3code":"TGO","date":"2017","value":2.85022720087124,"unit":"","obs_status":"","decimal":0},{"indicator":{"id":"SP.POP.65UP.TO.ZS","value":"Population ages 65 and above (% of total population)"},"country":{"id":"TG","value":"Togo"},"countryiso3code":"TGO","date":"2016","value":2.82848716323182,"unit":"","obs_status":"","decimal":0},{"indicator":{"id":"SP.POP.65UP.TO.ZS","value":"Population ages 65 and above (% of total population)"},"country":{"id":"TG","value":"Togo"},"countryiso3code":"TGO","date":"2015","value":2.80254775330534,"unit":"","obs_status":"","decimal":0},{"indicator":{"id":"SP.POP.65UP.TO.ZS","value":"Population ages 65 and above (% of total population)"},"country":{"id":"TO","value":"Tonga"},"countryiso3code":"TON","date":"2019","value":null,"unit":"","obs_status":"","decimal":0},{"indicator":{"id":"SP.POP.65UP.TO.ZS","value":"Population ages 65 and above (% of total population)"},"country":{"id":"TO","value":"Tonga"},"countryiso3code":"TON","date":"2018","value":5.95366144364662,"unit":"","obs_status":"","decimal":0},{"indicator":{"id":"SP.POP.65UP.TO.ZS","value":"Population ages 65 and above (% of total population)"},"country":{"id":"TO","value":"Tonga"},"countryiso3code":"TON","date":"2017","value":5.96482283966352,"unit":"","obs_status":"","decimal":0},{"indicator":{"id":"SP.POP.65UP.TO.ZS","value":"Population ages 65 and above (% of total population)"},"country":{"id":"TO","value":"Tonga"},"countryiso3code":"TON","date":"2016","value":5.97332225880771,"unit":"","obs_status":"","decimal":0},{"indicator":{"id":"SP.POP.65UP.TO.ZS","value":"Population ages 65 and above (% of total population)"},"country":{"id":"TO","value":"Tonga"},"countryiso3code":"TON","date":"2015","value":5.99517766245622,"unit":"","obs_status":"","decimal":0},{"indicator":{"id":"SP.POP.65UP.TO.ZS","value":"Population ages 65 and above (% of total population)"},"country":{"id":"TT","value":"Trinidad and Tobago"},"countryiso3code":"TTO","date":"2019","value":null,"unit":"","obs_status":"","decimal":0},{"indicator":{"id":"SP.POP.65UP.TO.ZS","value":"Population ages 65 and above (% of total population)"},"country":{"id":"TT","value":"Trinidad and Tobago"},"countryiso3code":"TTO","date":"2018","value":10.7349535163324,"unit":"","obs_status":"","decimal":0},{"indicator":{"id":"SP.POP.65UP.TO.ZS","value":"Population ages 65 and above (% of total population)"},"country":{"id":"TT","value":"Trinidad and Tobago"},"countryiso3code":"TTO","date":"2017","value":10.3645870587887,"unit":"","obs_status":"","decimal":0},{"indicator":{"id":"SP.POP.65UP.TO.ZS","value":"Population ages 65 and above (% of total population)"},"country":{"id":"TT","value":"Trinidad and Tobago"},"countryiso3code":"TTO","date":"2016","value":10.0087836464473,"unit":"","obs_status":"","decimal":0},{"indicator":{"id":"SP.POP.65UP.TO.ZS","value":"Population ages 65 and above (% of total population)"},"country":{"id":"TT","value":"Trinidad and Tobago"},"countryiso3code":"TTO","date":"2015","value":9.66761242563824,"unit":"","obs_status":"","decimal":0},{"indicator":{"id":"SP.POP.65UP.TO.ZS","value":"Population ages 65 and above (% of total population)"},"country":{"id":"TN","value":"Tunisia"},"countryiso3code":"TUN","date":"2019","value":null,"unit":"","obs_status":"","decimal":0},{"indicator":{"id":"SP.POP.65UP.TO.ZS","value":"Population ages 65 and above (% of total population)"},"country":{"id":"TN","value":"Tunisia"},"countryiso3code":"TUN","date":"2018","value":8.31567907898877,"unit":"","obs_status":"","decimal":0},{"indicator":{"id":"SP.POP.65UP.TO.ZS","value":"Population ages 65 and above (% of total population)"},"country":{"id":"TN","value":"Tunisia"},"countryiso3code":"TUN","date":"2017","value":8.05233384204566,"unit":"","obs_status":"","decimal":0},{"indicator":{"id":"SP.POP.65UP.TO.ZS","value":"Population ages 65 and above (% of total population)"},"country":{"id":"TN","value":"Tunisia"},"countryiso3code":"TUN","date":"2016","value":7.82946130753467,"unit":"","obs_status":"","decimal":0},{"indicator":{"id":"SP.POP.65UP.TO.ZS","value":"Population ages 65 and above (% of total population)"},"country":{"id":"TN","value":"Tunisia"},"countryiso3code":"TUN","date":"2015","value":7.66500813196912,"unit":"","obs_status":"","decimal":0},{"indicator":{"id":"SP.POP.65UP.TO.ZS","value":"Population ages 65 and above (% of total population)"},"country":{"id":"TR","value":"Turkey"},"countryiso3code":"TUR","date":"2019","value":null,"unit":"","obs_status":"","decimal":0},{"indicator":{"id":"SP.POP.65UP.TO.ZS","value":"Population ages 65 and above (% of total population)"},"country":{"id":"TR","value":"Turkey"},"countryiso3code":"TUR","date":"2018","value":8.4832129399716,"unit":"","obs_status":"","decimal":0},{"indicator":{"id":"SP.POP.65UP.TO.ZS","value":"Population ages 65 and above (% of total population)"},"country":{"id":"TR","value":"Turkey"},"countryiso3code":"TUR","date":"2017","value":8.25571138776413,"unit":"","obs_status":"","decimal":0},{"indicator":{"id":"SP.POP.65UP.TO.ZS","value":"Population ages 65 and above (% of total population)"},"country":{"id":"TR","value":"Turkey"},"countryiso3code":"TUR","date":"2016","value":8.05000799783324,"unit":"","obs_status":"","decimal":0},{"indicator":{"id":"SP.POP.65UP.TO.ZS","value":"Population ages 65 and above (% of total population)"},"country":{"id":"TR","value":"Turkey"},"countryiso3code":"TUR","date":"2015","value":7.86886477141321,"unit":"","obs_status":"","decimal":0},{"indicator":{"id":"SP.POP.65UP.TO.ZS","value":"Population ages 65 and above (% of total population)"},"country":{"id":"TM","value":"Turkmenistan"},"countryiso3code":"TKM","date":"2019","value":null,"unit":"","obs_status":"","decimal":0},{"indicator":{"id":"SP.POP.65UP.TO.ZS","value":"Population ages 65 and above (% of total population)"},"country":{"id":"TM","value":"Turkmenistan"},"countryiso3code":"TKM","date":"2018","value":4.42663446194014,"unit":"","obs_status":"","decimal":0},{"indicator":{"id":"SP.POP.65UP.TO.ZS","value":"Population ages 65 and above (% of total population)"},"country":{"id":"TM","value":"Turkmenistan"},"countryiso3code":"TKM","date":"2017","value":4.27749642346457,"unit":"","obs_status":"","decimal":0},{"indicator":{"id":"SP.POP.65UP.TO.ZS","value":"Population ages 65 and above (% of total population)"},"country":{"id":"TM","value":"Turkmenistan"},"countryiso3code":"TKM","date":"2016","value":4.15767749464535,"unit":"","obs_status":"","decimal":0},{"indicator":{"id":"SP.POP.65UP.TO.ZS","value":"Population ages 65 and above (% of total population)"},"country":{"id":"TM","value":"Turkmenistan"},"countryiso3code":"TKM","date":"2015","value":4.07466856605958,"unit":"","obs_status":"","decimal":0},{"indicator":{"id":"SP.POP.65UP.TO.ZS","value":"Population ages 65 and above (% of total population)"},"country":{"id":"TC","value":"Turks and Caicos Islands"},"countryiso3code":"TCA","date":"2019","value":null,"unit":"","obs_status":"","decimal":0},{"indicator":{"id":"SP.POP.65UP.TO.ZS","value":"Population ages 65 and above (% of total population)"},"country":{"id":"TC","value":"Turks and Caicos Islands"},"countryiso3code":"TCA","date":"2018","value":null,"unit":"","obs_status":"","decimal":0},{"indicator":{"id":"SP.POP.65UP.TO.ZS","value":"Population ages 65 and above (% of total population)"},"country":{"id":"TC","value":"Turks and Caicos Islands"},"countryiso3code":"TCA","date":"2017","value":null,"unit":"","obs_status":"","decimal":0},{"indicator":{"id":"SP.POP.65UP.TO.ZS","value":"Population ages 65 and above (% of total population)"},"country":{"id":"TC","value":"Turks and Caicos Islands"},"countryiso3code":"TCA","date":"2016","value":null,"unit":"","obs_status":"","decimal":0},{"indicator":{"id":"SP.POP.65UP.TO.ZS","value":"Population ages 65 and above (% of total population)"},"country":{"id":"TC","value":"Turks and Caicos Islands"},"countryiso3code":"TCA","date":"2015","value":null,"unit":"","obs_status":"","decimal":0},{"indicator":{"id":"SP.POP.65UP.TO.ZS","value":"Population ages 65 and above (% of total population)"},"country":{"id":"TV","value":"Tuvalu"},"countryiso3code":"TUV","date":"2019","value":null,"unit":"","obs_status":"","decimal":0},{"indicator":{"id":"SP.POP.65UP.TO.ZS","value":"Population ages 65 and above (% of total population)"},"country":{"id":"TV","value":"Tuvalu"},"countryiso3code":"TUV","date":"2018","value":null,"unit":"","obs_status":"","decimal":0},{"indicator":{"id":"SP.POP.65UP.TO.ZS","value":"Population ages 65 and above (% of total population)"},"country":{"id":"TV","value":"Tuvalu"},"countryiso3code":"TUV","date":"2017","value":null,"unit":"","obs_status":"","decimal":0},{"indicator":{"id":"SP.POP.65UP.TO.ZS","value":"Population ages 65 and above (% of total population)"},"country":{"id":"TV","value":"Tuvalu"},"countryiso3code":"TUV","date":"2016","value":null,"unit":"","obs_status":"","decimal":0},{"indicator":{"id":"SP.POP.65UP.TO.ZS","value":"Population ages 65 and above (% of total population)"},"country":{"id":"TV","value":"Tuvalu"},"countryiso3code":"TUV","date":"2015","value":null,"unit":"","obs_status":"","decimal":0},{"indicator":{"id":"SP.POP.65UP.TO.ZS","value":"Population ages 65 and above (% of total population)"},"country":{"id":"UG","value":"Uganda"},"countryiso3code":"UGA","date":"2019","value":null,"unit":"","obs_status":"","decimal":0},{"indicator":{"id":"SP.POP.65UP.TO.ZS","value":"Population ages 65 and above (% of total population)"},"country":{"id":"UG","value":"Uganda"},"countryiso3code":"UGA","date":"2018","value":1.94098692046317,"unit":"","obs_status":"","decimal":0},{"indicator":{"id":"SP.POP.65UP.TO.ZS","value":"Population ages 65 and above (% of total population)"},"country":{"id":"UG","value":"Uganda"},"countryiso3code":"UGA","date":"2017","value":1.92030488414537,"unit":"","obs_status":"","decimal":0},{"indicator":{"id":"SP.POP.65UP.TO.ZS","value":"Population ages 65 and above (% of total population)"},"country":{"id":"UG","value":"Uganda"},"countryiso3code":"UGA","date":"2016","value":1.90077642490639,"unit":"","obs_status":"","decimal":0},{"indicator":{"id":"SP.POP.65UP.TO.ZS","value":"Population ages 65 and above (% of total population)"},"country":{"id":"UG","value":"Uganda"},"countryiso3code":"UGA","date":"2015","value":1.88283445587944,"unit":"","obs_status":"","decimal":0},{"indicator":{"id":"SP.POP.65UP.TO.ZS","value":"Population ages 65 and above (% of total population)"},"country":{"id":"UA","value":"Ukraine"},"countryiso3code":"UKR","date":"2019","value":null,"unit":"","obs_status":"","decimal":0},{"indicator":{"id":"SP.POP.65UP.TO.ZS","value":"Population ages 65 and above (% of total population)"},"country":{"id":"UA","value":"Ukraine"},"countryiso3code":"UKR","date":"2018","value":16.4346864392016,"unit":"","obs_status":"","decimal":0},{"indicator":{"id":"SP.POP.65UP.TO.ZS","value":"Population ages 65 and above (% of total population)"},"country":{"id":"UA","value":"Ukraine"},"countryiso3code":"UKR","date":"2017","value":16.1552261547116,"unit":"","obs_status":"","decimal":0},{"indicator":{"id":"SP.POP.65UP.TO.ZS","value":"Population ages 65 and above (% of total population)"},"country":{"id":"UA","value":"Ukraine"},"countryiso3code":"UKR","date":"2016","value":15.8940764958357,"unit":"","obs_status":"","decimal":0},{"indicator":{"id":"SP.POP.65UP.TO.ZS","value":"Population ages 65 and above (% of total population)"},"country":{"id":"UA","value":"Ukraine"},"countryiso3code":"UKR","date":"2015","value":15.6694126854989,"unit":"","obs_status":"","decimal":0},{"indicator":{"id":"SP.POP.65UP.TO.ZS","value":"Population ages 65 and above (% of total population)"},"country":{"id":"AE","value":"United Arab Emirates"},"countryiso3code":"ARE","date":"2019","value":null,"unit":"","obs_status":"","decimal":0},{"indicator":{"id":"SP.POP.65UP.TO.ZS","value":"Population ages 65 and above (% of total population)"},"country":{"id":"AE","value":"United Arab Emirates"},"countryiso3code":"ARE","date":"2018","value":1.08500098484481,"unit":"","obs_status":"","decimal":0},{"indicator":{"id":"SP.POP.65UP.TO.ZS","value":"Population ages 65 and above (% of total population)"},"country":{"id":"AE","value":"United Arab Emirates"},"countryiso3code":"ARE","date":"2017","value":1.03467797621702,"unit":"","obs_status":"","decimal":0},{"indicator":{"id":"SP.POP.65UP.TO.ZS","value":"Population ages 65 and above (% of total population)"},"country":{"id":"AE","value":"United Arab Emirates"},"countryiso3code":"ARE","date":"2016","value":0.986990678326415,"unit":"","obs_status":"","decimal":0},{"indicator":{"id":"SP.POP.65UP.TO.ZS","value":"Population ages 65 and above (% of total population)"},"country":{"id":"AE","value":"United Arab Emirates"},"countryiso3code":"ARE","date":"2015","value":0.93336859946669,"unit":"","obs_status":"","decimal":0},{"indicator":{"id":"SP.POP.65UP.TO.ZS","value":"Population ages 65 and above (% of total population)"},"country":{"id":"GB","value":"United Kingdom"},"countryiso3code":"GBR","date":"2019","value":null,"unit":"","obs_status":"","decimal":0},{"indicator":{"id":"SP.POP.65UP.TO.ZS","value":"Population ages 65 and above (% of total population)"},"country":{"id":"GB","value":"United Kingdom"},"countryiso3code":"GBR","date":"2018","value":18.3958656741466,"unit":"","obs_status":"","decimal":0},{"indicator":{"id":"SP.POP.65UP.TO.ZS","value":"Population ages 65 and above (% of total population)"},"country":{"id":"GB","value":"United Kingdom"},"countryiso3code":"GBR","date":"2017","value":18.2911350395904,"unit":"","obs_status":"","decimal":0},{"indicator":{"id":"SP.POP.65UP.TO.ZS","value":"Population ages 65 and above (% of total population)"},"country":{"id":"GB","value":"United Kingdom"},"countryiso3code":"GBR","date":"2016","value":18.1583745643756,"unit":"","obs_status":"","decimal":0},{"indicator":{"id":"SP.POP.65UP.TO.ZS","value":"Population ages 65 and above (% of total population)"},"country":{"id":"GB","value":"United Kingdom"},"countryiso3code":"GBR","date":"2015","value":17.9742100784289,"unit":"","obs_status":"","decimal":0},{"indicator":{"id":"SP.POP.65UP.TO.ZS","value":"Population ages 65 and above (% of total population)"},"country":{"id":"US","value":"United States"},"countryiso3code":"USA","date":"2019","value":null,"unit":"","obs_status":"","decimal":0},{"indicator":{"id":"SP.POP.65UP.TO.ZS","value":"Population ages 65 and above (% of total population)"},"country":{"id":"US","value":"United States"},"countryiso3code":"USA","date":"2018","value":15.8076540556035,"unit":"","obs_status":"","decimal":0},{"indicator":{"id":"SP.POP.65UP.TO.ZS","value":"Population ages 65 and above (% of total population)"},"country":{"id":"US","value":"United States"},"countryiso3code":"USA","date":"2017","value":15.4193658960742,"unit":"","obs_status":"","decimal":0},{"indicator":{"id":"SP.POP.65UP.TO.ZS","value":"Population ages 65 and above (% of total population)"},"country":{"id":"US","value":"United States"},"countryiso3code":"USA","date":"2016","value":15.0336787501808,"unit":"","obs_status":"","decimal":0},{"indicator":{"id":"SP.POP.65UP.TO.ZS","value":"Population ages 65 and above (% of total population)"},"country":{"id":"US","value":"United States"},"countryiso3code":"USA","date":"2015","value":14.6428847122761,"unit":"","obs_status":"","decimal":0},{"indicator":{"id":"SP.POP.65UP.TO.ZS","value":"Population ages 65 and above (% of total population)"},"country":{"id":"UY","value":"Uruguay"},"countryiso3code":"URY","date":"2019","value":null,"unit":"","obs_status":"","decimal":0},{"indicator":{"id":"SP.POP.65UP.TO.ZS","value":"Population ages 65 and above (% of total population)"},"country":{"id":"UY","value":"Uruguay"},"countryiso3code":"URY","date":"2018","value":14.8145195308593,"unit":"","obs_status":"","decimal":0},{"indicator":{"id":"SP.POP.65UP.TO.ZS","value":"Population ages 65 and above (% of total population)"},"country":{"id":"UY","value":"Uruguay"},"countryiso3code":"URY","date":"2017","value":14.7002261801567,"unit":"","obs_status":"","decimal":0},{"indicator":{"id":"SP.POP.65UP.TO.ZS","value":"Population ages 65 and above (% of total population)"},"country":{"id":"UY","value":"Uruguay"},"countryiso3code":"URY","date":"2016","value":14.5913311093128,"unit":"","obs_status":"","decimal":0},{"indicator":{"id":"SP.POP.65UP.TO.ZS","value":"Population ages 65 and above (% of total population)"},"country":{"id":"UY","value":"Uruguay"},"countryiso3code":"URY","date":"2015","value":14.4830508946489,"unit":"","obs_status":"","decimal":0},{"indicator":{"id":"SP.POP.65UP.TO.ZS","value":"Population ages 65 and above (% of total population)"},"country":{"id":"UZ","value":"Uzbekistan"},"countryiso3code":"UZB","date":"2019","value":null,"unit":"","obs_status":"","decimal":0},{"indicator":{"id":"SP.POP.65UP.TO.ZS","value":"Population ages 65 and above (% of total population)"},"country":{"id":"UZ","value":"Uzbekistan"},"countryiso3code":"UZB","date":"2018","value":4.4191378781364,"unit":"","obs_status":"","decimal":0},{"indicator":{"id":"SP.POP.65UP.TO.ZS","value":"Population ages 65 and above (% of total population)"},"country":{"id":"UZ","value":"Uzbekistan"},"countryiso3code":"UZB","date":"2017","value":4.26475960335778,"unit":"","obs_status":"","decimal":0},{"indicator":{"id":"SP.POP.65UP.TO.ZS","value":"Population ages 65 and above (% of total population)"},"country":{"id":"UZ","value":"Uzbekistan"},"countryiso3code":"UZB","date":"2016","value":4.14162684514612,"unit":"","obs_status":"","decimal":0},{"indicator":{"id":"SP.POP.65UP.TO.ZS","value":"Population ages 65 and above (% of total population)"},"country":{"id":"UZ","value":"Uzbekistan"},"countryiso3code":"UZB","date":"2015","value":4.05863556338683,"unit":"","obs_status":"","decimal":0},{"indicator":{"id":"SP.POP.65UP.TO.ZS","value":"Population ages 65 and above (% of total population)"},"country":{"id":"VU","value":"Vanuatu"},"countryiso3code":"VUT","date":"2019","value":null,"unit":"","obs_status":"","decimal":0},{"indicator":{"id":"SP.POP.65UP.TO.ZS","value":"Population ages 65 and above (% of total population)"},"country":{"id":"VU","value":"Vanuatu"},"countryiso3code":"VUT","date":"2018","value":3.64015306819735,"unit":"","obs_status":"","decimal":0},{"indicator":{"id":"SP.POP.65UP.TO.ZS","value":"Population ages 65 and above (% of total population)"},"country":{"id":"VU","value":"Vanuatu"},"countryiso3code":"VUT","date":"2017","value":3.67377675037652,"unit":"","obs_status":"","decimal":0},{"indicator":{"id":"SP.POP.65UP.TO.ZS","value":"Population ages 65 and above (% of total population)"},"country":{"id":"VU","value":"Vanuatu"},"countryiso3code":"VUT","date":"2016","value":3.70459526461395,"unit":"","obs_status":"","decimal":0},{"indicator":{"id":"SP.POP.65UP.TO.ZS","value":"Population ages 65 and above (% of total population)"},"country":{"id":"VU","value":"Vanuatu"},"countryiso3code":"VUT","date":"2015","value":3.72478147014347,"unit":"","obs_status":"","decimal":0},{"indicator":{"id":"SP.POP.65UP.TO.ZS","value":"Population ages 65 and above (% of total population)"},"country":{"id":"VE","value":"Venezuela, RB"},"countryiso3code":"VEN","date":"2019","value":null,"unit":"","obs_status":"","decimal":0},{"indicator":{"id":"SP.POP.65UP.TO.ZS","value":"Population ages 65 and above (% of total population)"},"country":{"id":"VE","value":"Venezuela, RB"},"countryiso3code":"VEN","date":"2018","value":7.26698662012597,"unit":"","obs_status":"","decimal":0},{"indicator":{"id":"SP.POP.65UP.TO.ZS","value":"Population ages 65 and above (% of total population)"},"country":{"id":"VE","value":"Venezuela, RB"},"countryiso3code":"VEN","date":"2017","value":6.94368203720475,"unit":"","obs_status":"","decimal":0},{"indicator":{"id":"SP.POP.65UP.TO.ZS","value":"Population ages 65 and above (% of total population)"},"country":{"id":"VE","value":"Venezuela, RB"},"countryiso3code":"VEN","date":"2016","value":6.6436402757606,"unit":"","obs_status":"","decimal":0},{"indicator":{"id":"SP.POP.65UP.TO.ZS","value":"Population ages 65 and above (% of total population)"},"country":{"id":"VE","value":"Venezuela, RB"},"countryiso3code":"VEN","date":"2015","value":6.36488559256154,"unit":"","obs_status":"","decimal":0},{"indicator":{"id":"SP.POP.65UP.TO.ZS","value":"Population ages 65 and above (% of total population)"},"country":{"id":"VN","value":"Vietnam"},"countryiso3code":"VNM","date":"2019","value":null,"unit":"","obs_status":"","decimal":0},{"indicator":{"id":"SP.POP.65UP.TO.ZS","value":"Population ages 65 and above (% of total population)"},"country":{"id":"VN","value":"Vietnam"},"countryiso3code":"VNM","date":"2018","value":7.2749782978793,"unit":"","obs_status":"","decimal":0},{"indicator":{"id":"SP.POP.65UP.TO.ZS","value":"Population ages 65 and above (% of total population)"},"country":{"id":"VN","value":"Vietnam"},"countryiso3code":"VNM","date":"2017","value":7.03102794813837,"unit":"","obs_status":"","decimal":0},{"indicator":{"id":"SP.POP.65UP.TO.ZS","value":"Population ages 65 and above (% of total population)"},"country":{"id":"VN","value":"Vietnam"},"countryiso3code":"VNM","date":"2016","value":6.82469158458086,"unit":"","obs_status":"","decimal":0},{"indicator":{"id":"SP.POP.65UP.TO.ZS","value":"Population ages 65 and above (% of total population)"},"country":{"id":"VN","value":"Vietnam"},"countryiso3code":"VNM","date":"2015","value":6.65835853517865,"unit":"","obs_status":"","decimal":0},{"indicator":{"id":"SP.POP.65UP.TO.ZS","value":"Population ages 65 and above (% of total population)"},"country":{"id":"VI","value":"Virgin Islands (U.S.)"},"countryiso3code":"VIR","date":"2019","value":null,"unit":"","obs_status":"","decimal":0},{"indicator":{"id":"SP.POP.65UP.TO.ZS","value":"Population ages 65 and above (% of total population)"},"country":{"id":"VI","value":"Virgin Islands (U.S.)"},"countryiso3code":"VIR","date":"2018","value":19.2883072220099,"unit":"","obs_status":"","decimal":0},{"indicator":{"id":"SP.POP.65UP.TO.ZS","value":"Population ages 65 and above (% of total population)"},"country":{"id":"VI","value":"Virgin Islands (U.S.)"},"countryiso3code":"VIR","date":"2017","value":18.7224942959972,"unit":"","obs_status":"","decimal":0},{"indicator":{"id":"SP.POP.65UP.TO.ZS","value":"Population ages 65 and above (% of total population)"},"country":{"id":"VI","value":"Virgin Islands (U.S.)"},"countryiso3code":"VIR","date":"2016","value":18.1303953832213,"unit":"","obs_status":"","decimal":0},{"indicator":{"id":"SP.POP.65UP.TO.ZS","value":"Population ages 65 and above (% of total population)"},"country":{"id":"VI","value":"Virgin Islands (U.S.)"},"countryiso3code":"VIR","date":"2015","value":17.4936641323196,"unit":"","obs_status":"","decimal":0},{"indicator":{"id":"SP.POP.65UP.TO.ZS","value":"Population ages 65 and above (% of total population)"},"country":{"id":"PS","value":"West Bank and Gaza"},"countryiso3code":"PSE","date":"2019","value":null,"unit":"","obs_status":"","decimal":0},{"indicator":{"id":"SP.POP.65UP.TO.ZS","value":"Population ages 65 and above (% of total population)"},"country":{"id":"PS","value":"West Bank and Gaza"},"countryiso3code":"PSE","date":"2018","value":3.13330573708009,"unit":"","obs_status":"","decimal":0},{"indicator":{"id":"SP.POP.65UP.TO.ZS","value":"Population ages 65 and above (% of total population)"},"country":{"id":"PS","value":"West Bank and Gaza"},"countryiso3code":"PSE","date":"2017","value":3.09407997553098,"unit":"","obs_status":"","decimal":0},{"indicator":{"id":"SP.POP.65UP.TO.ZS","value":"Population ages 65 and above (% of total population)"},"country":{"id":"PS","value":"West Bank and Gaza"},"countryiso3code":"PSE","date":"2016","value":3.05536176772468,"unit":"","obs_status":"","decimal":0},{"indicator":{"id":"SP.POP.65UP.TO.ZS","value":"Population ages 65 and above (% of total population)"},"country":{"id":"PS","value":"West Bank and Gaza"},"countryiso3code":"PSE","date":"2015","value":3.01633899044548,"unit":"","obs_status":"","decimal":0},{"indicator":{"id":"SP.POP.65UP.TO.ZS","value":"Population ages 65 and above (% of total population)"},"country":{"id":"YE","value":"Yemen, Rep."},"countryiso3code":"YEM","date":"2019","value":null,"unit":"","obs_status":"","decimal":0},{"indicator":{"id":"SP.POP.65UP.TO.ZS","value":"Population ages 65 and above (% of total population)"},"country":{"id":"YE","value":"Yemen, Rep."},"countryiso3code":"YEM","date":"2018","value":2.87626975604452,"unit":"","obs_status":"","decimal":0},{"indicator":{"id":"SP.POP.65UP.TO.ZS","value":"Population ages 65 and above (% of total population)"},"country":{"id":"YE","value":"Yemen, Rep."},"countryiso3code":"YEM","date":"2017","value":2.85163700902815,"unit":"","obs_status":"","decimal":0},{"indicator":{"id":"SP.POP.65UP.TO.ZS","value":"Population ages 65 and above (% of total population)"},"country":{"id":"YE","value":"Yemen, Rep."},"countryiso3code":"YEM","date":"2016","value":2.8256519531947,"unit":"","obs_status":"","decimal":0},{"indicator":{"id":"SP.POP.65UP.TO.ZS","value":"Population ages 65 and above (% of total population)"},"country":{"id":"YE","value":"Yemen, Rep."},"countryiso3code":"YEM","date":"2015","value":2.79591328954544,"unit":"","obs_status":"","decimal":0},{"indicator":{"id":"SP.POP.65UP.TO.ZS","value":"Population ages 65 and above (% of total population)"},"country":{"id":"ZM","value":"Zambia"},"countryiso3code":"ZMB","date":"2019","value":null,"unit":"","obs_status":"","decimal":0},{"indicator":{"id":"SP.POP.65UP.TO.ZS","value":"Population ages 65 and above (% of total population)"},"country":{"id":"ZM","value":"Zambia"},"countryiso3code":"ZMB","date":"2018","value":2.09967802593266,"unit":"","obs_status":"","decimal":0},{"indicator":{"id":"SP.POP.65UP.TO.ZS","value":"Population ages 65 and above (% of total population)"},"country":{"id":"ZM","value":"Zambia"},"countryiso3code":"ZMB","date":"2017","value":2.08480693055531,"unit":"","obs_status":"","decimal":0},{"indicator":{"id":"SP.POP.65UP.TO.ZS","value":"Population ages 65 and above (% of total population)"},"country":{"id":"ZM","value":"Zambia"},"countryiso3code":"ZMB","date":"2016","value":2.07070534846608,"unit":"","obs_status":"","decimal":0},{"indicator":{"id":"SP.POP.65UP.TO.ZS","value":"Population ages 65 and above (% of total population)"},"country":{"id":"ZM","value":"Zambia"},"countryiso3code":"ZMB","date":"2015","value":2.05672004056083,"unit":"","obs_status":"","decimal":0},{"indicator":{"id":"SP.POP.65UP.TO.ZS","value":"Population ages 65 and above (% of total population)"},"country":{"id":"ZW","value":"Zimbabwe"},"countryiso3code":"ZWE","date":"2019","value":null,"unit":"","obs_status":"","decimal":0},{"indicator":{"id":"SP.POP.65UP.TO.ZS","value":"Population ages 65 and above (% of total population)"},"country":{"id":"ZW","value":"Zimbabwe"},"countryiso3code":"ZWE","date":"2018","value":2.93952365300113,"unit":"","obs_status":"","decimal":0},{"indicator":{"id":"SP.POP.65UP.TO.ZS","value":"Population ages 65 and above (% of total population)"},"country":{"id":"ZW","value":"Zimbabwe"},"countryiso3code":"ZWE","date":"2017","value":2.8961911187331,"unit":"","obs_status":"","decimal":0},{"indicator":{"id":"SP.POP.65UP.TO.ZS","value":"Population ages 65 and above (% of total population)"},"country":{"id":"ZW","value":"Zimbabwe"},"countryiso3code":"ZWE","date":"2016","value":2.86177852824712,"unit":"","obs_status":"","decimal":0},{"indicator":{"id":"SP.POP.65UP.TO.ZS","value":"Population ages 65 and above (% of total population)"},"country":{"id":"ZW","value":"Zimbabwe"},"countryiso3code":"ZWE","date":"2015","value":2.84419509202889,"unit":"","obs_status":"","decimal":0}]]