[{"page":7,"pages":7,"per_page":200,"total":1320,"sourceid":"2","lastupdated":"2020-05-19"},[{"indicator":{"id":"SP.POP.1564.MA.ZS","value":"Population ages 15-64, male (% of male population)"},"country":{"id":"TL","value":"Timor-Leste"},"countryiso3code":"TLS","date":"2019","value":null,"unit":"","obs_status":"","decimal":0},{"indicator":{"id":"SP.POP.1564.MA.ZS","value":"Population ages 15-64, male (% of male population)"},"country":{"id":"TL","value":"Timor-Leste"},"countryiso3code":"TLS","date":"2018","value":58.0118092420426,"unit":"","obs_status":"","decimal":0},{"indicator":{"id":"SP.POP.1564.MA.ZS","value":"Population ages 15-64, male (% of male population)"},"country":{"id":"TL","value":"Timor-Leste"},"countryiso3code":"TLS","date":"2017","value":57.4636900489968,"unit":"","obs_status":"","decimal":0},{"indicator":{"id":"SP.POP.1564.MA.ZS","value":"Population ages 15-64, male (% of male population)"},"country":{"id":"TL","value":"Timor-Leste"},"countryiso3code":"TLS","date":"2016","value":56.8846963841269,"unit":"","obs_status":"","decimal":0},{"indicator":{"id":"SP.POP.1564.MA.ZS","value":"Population ages 15-64, male (% of male population)"},"country":{"id":"TL","value":"Timor-Leste"},"countryiso3code":"TLS","date":"2015","value":56.2852734816177,"unit":"","obs_status":"","decimal":0},{"indicator":{"id":"SP.POP.1564.MA.ZS","value":"Population ages 15-64, male (% of male population)"},"country":{"id":"TG","value":"Togo"},"countryiso3code":"TGO","date":"2019","value":null,"unit":"","obs_status":"","decimal":0},{"indicator":{"id":"SP.POP.1564.MA.ZS","value":"Population ages 15-64, male (% of male population)"},"country":{"id":"TG","value":"Togo"},"countryiso3code":"TGO","date":"2018","value":55.6766183217061,"unit":"","obs_status":"","decimal":0},{"indicator":{"id":"SP.POP.1564.MA.ZS","value":"Population ages 15-64, male (% of male population)"},"country":{"id":"TG","value":"Togo"},"countryiso3code":"TGO","date":"2017","value":55.3768934549562,"unit":"","obs_status":"","decimal":0},{"indicator":{"id":"SP.POP.1564.MA.ZS","value":"Population ages 15-64, male (% of male population)"},"country":{"id":"TG","value":"Togo"},"countryiso3code":"TGO","date":"2016","value":55.1176151302658,"unit":"","obs_status":"","decimal":0},{"indicator":{"id":"SP.POP.1564.MA.ZS","value":"Population ages 15-64, male (% of male population)"},"country":{"id":"TG","value":"Togo"},"countryiso3code":"TGO","date":"2015","value":54.9001307624954,"unit":"","obs_status":"","decimal":0},{"indicator":{"id":"SP.POP.1564.MA.ZS","value":"Population ages 15-64, male (% of male population)"},"country":{"id":"TO","value":"Tonga"},"countryiso3code":"TON","date":"2019","value":null,"unit":"","obs_status":"","decimal":0},{"indicator":{"id":"SP.POP.1564.MA.ZS","value":"Population ages 15-64, male (% of male population)"},"country":{"id":"TO","value":"Tonga"},"countryiso3code":"TON","date":"2018","value":57.7199542750857,"unit":"","obs_status":"","decimal":0},{"indicator":{"id":"SP.POP.1564.MA.ZS","value":"Population ages 15-64, male (% of male population)"},"country":{"id":"TO","value":"Tonga"},"countryiso3code":"TON","date":"2017","value":57.3406278800714,"unit":"","obs_status":"","decimal":0},{"indicator":{"id":"SP.POP.1564.MA.ZS","value":"Population ages 15-64, male (% of male population)"},"country":{"id":"TO","value":"Tonga"},"countryiso3code":"TON","date":"2016","value":56.9687858527515,"unit":"","obs_status":"","decimal":0},{"indicator":{"id":"SP.POP.1564.MA.ZS","value":"Population ages 15-64, male (% of male population)"},"country":{"id":"TO","value":"Tonga"},"countryiso3code":"TON","date":"2015","value":56.6235880332718,"unit":"","obs_status":"","decimal":0},{"indicator":{"id":"SP.POP.1564.MA.ZS","value":"Population ages 15-64, male (% of male population)"},"country":{"id":"TT","value":"Trinidad and Tobago"},"countryiso3code":"TTO","date":"2019","value":null,"unit":"","obs_status":"","decimal":0},{"indicator":{"id":"SP.POP.1564.MA.ZS","value":"Population ages 15-64, male (% of male population)"},"country":{"id":"TT","value":"Trinidad and Tobago"},"countryiso3code":"TTO","date":"2018","value":69.3035698163104,"unit":"","obs_status":"","decimal":0},{"indicator":{"id":"SP.POP.1564.MA.ZS","value":"Population ages 15-64, male (% of male population)"},"country":{"id":"TT","value":"Trinidad and Tobago"},"countryiso3code":"TTO","date":"2017","value":69.5587218472666,"unit":"","obs_status":"","decimal":0},{"indicator":{"id":"SP.POP.1564.MA.ZS","value":"Population ages 15-64, male (% of male population)"},"country":{"id":"TT","value":"Trinidad and Tobago"},"countryiso3code":"TTO","date":"2016","value":69.8412978077691,"unit":"","obs_status":"","decimal":0},{"indicator":{"id":"SP.POP.1564.MA.ZS","value":"Population ages 15-64, male (% of male population)"},"country":{"id":"TT","value":"Trinidad and Tobago"},"countryiso3code":"TTO","date":"2015","value":70.1431423440758,"unit":"","obs_status":"","decimal":0},{"indicator":{"id":"SP.POP.1564.MA.ZS","value":"Population ages 15-64, male (% of male population)"},"country":{"id":"TN","value":"Tunisia"},"countryiso3code":"TUN","date":"2019","value":null,"unit":"","obs_status":"","decimal":0},{"indicator":{"id":"SP.POP.1564.MA.ZS","value":"Population ages 15-64, male (% of male population)"},"country":{"id":"TN","value":"Tunisia"},"countryiso3code":"TUN","date":"2018","value":67.3085900945631,"unit":"","obs_status":"","decimal":0},{"indicator":{"id":"SP.POP.1564.MA.ZS","value":"Population ages 15-64, male (% of male population)"},"country":{"id":"TN","value":"Tunisia"},"countryiso3code":"TUN","date":"2017","value":67.5897102245368,"unit":"","obs_status":"","decimal":0},{"indicator":{"id":"SP.POP.1564.MA.ZS","value":"Population ages 15-64, male (% of male population)"},"country":{"id":"TN","value":"Tunisia"},"countryiso3code":"TUN","date":"2016","value":67.8857857203942,"unit":"","obs_status":"","decimal":0},{"indicator":{"id":"SP.POP.1564.MA.ZS","value":"Population ages 15-64, male (% of male population)"},"country":{"id":"TN","value":"Tunisia"},"countryiso3code":"TUN","date":"2015","value":68.2178660198288,"unit":"","obs_status":"","decimal":0},{"indicator":{"id":"SP.POP.1564.MA.ZS","value":"Population ages 15-64, male (% of male population)"},"country":{"id":"TR","value":"Turkey"},"countryiso3code":"TUR","date":"2019","value":null,"unit":"","obs_status":"","decimal":0},{"indicator":{"id":"SP.POP.1564.MA.ZS","value":"Population ages 15-64, male (% of male population)"},"country":{"id":"TR","value":"Turkey"},"countryiso3code":"TUR","date":"2018","value":67.1315718953836,"unit":"","obs_status":"","decimal":0},{"indicator":{"id":"SP.POP.1564.MA.ZS","value":"Population ages 15-64, male (% of male population)"},"country":{"id":"TR","value":"Turkey"},"countryiso3code":"TUR","date":"2017","value":66.916736219137,"unit":"","obs_status":"","decimal":0},{"indicator":{"id":"SP.POP.1564.MA.ZS","value":"Population ages 15-64, male (% of male population)"},"country":{"id":"TR","value":"Turkey"},"countryiso3code":"TUR","date":"2016","value":66.7221819222589,"unit":"","obs_status":"","decimal":0},{"indicator":{"id":"SP.POP.1564.MA.ZS","value":"Population ages 15-64, male (% of male population)"},"country":{"id":"TR","value":"Turkey"},"countryiso3code":"TUR","date":"2015","value":66.5632852024921,"unit":"","obs_status":"","decimal":0},{"indicator":{"id":"SP.POP.1564.MA.ZS","value":"Population ages 15-64, male (% of male population)"},"country":{"id":"TM","value":"Turkmenistan"},"countryiso3code":"TKM","date":"2019","value":null,"unit":"","obs_status":"","decimal":0},{"indicator":{"id":"SP.POP.1564.MA.ZS","value":"Population ages 15-64, male (% of male population)"},"country":{"id":"TM","value":"Turkmenistan"},"countryiso3code":"TKM","date":"2018","value":64.5699443341603,"unit":"","obs_status":"","decimal":0},{"indicator":{"id":"SP.POP.1564.MA.ZS","value":"Population ages 15-64, male (% of male population)"},"country":{"id":"TM","value":"Turkmenistan"},"countryiso3code":"TKM","date":"2017","value":64.5951936521105,"unit":"","obs_status":"","decimal":0},{"indicator":{"id":"SP.POP.1564.MA.ZS","value":"Population ages 15-64, male (% of male population)"},"country":{"id":"TM","value":"Turkmenistan"},"countryiso3code":"TKM","date":"2016","value":64.7739830213333,"unit":"","obs_status":"","decimal":0},{"indicator":{"id":"SP.POP.1564.MA.ZS","value":"Population ages 15-64, male (% of male population)"},"country":{"id":"TM","value":"Turkmenistan"},"countryiso3code":"TKM","date":"2015","value":65.2372384647108,"unit":"","obs_status":"","decimal":0},{"indicator":{"id":"SP.POP.1564.MA.ZS","value":"Population ages 15-64, male (% of male population)"},"country":{"id":"TC","value":"Turks and Caicos Islands"},"countryiso3code":"TCA","date":"2019","value":null,"unit":"","obs_status":"","decimal":0},{"indicator":{"id":"SP.POP.1564.MA.ZS","value":"Population ages 15-64, male (% of male population)"},"country":{"id":"TC","value":"Turks and Caicos Islands"},"countryiso3code":"TCA","date":"2018","value":null,"unit":"","obs_status":"","decimal":0},{"indicator":{"id":"SP.POP.1564.MA.ZS","value":"Population ages 15-64, male (% of male population)"},"country":{"id":"TC","value":"Turks and Caicos Islands"},"countryiso3code":"TCA","date":"2017","value":null,"unit":"","obs_status":"","decimal":0},{"indicator":{"id":"SP.POP.1564.MA.ZS","value":"Population ages 15-64, male (% of male population)"},"country":{"id":"TC","value":"Turks and Caicos Islands"},"countryiso3code":"TCA","date":"2016","value":null,"unit":"","obs_status":"","decimal":0},{"indicator":{"id":"SP.POP.1564.MA.ZS","value":"Population ages 15-64, male (% of male population)"},"country":{"id":"TC","value":"Turks and Caicos Islands"},"countryiso3code":"TCA","date":"2015","value":null,"unit":"","obs_status":"","decimal":0},{"indicator":{"id":"SP.POP.1564.MA.ZS","value":"Population ages 15-64, male (% of male population)"},"country":{"id":"TV","value":"Tuvalu"},"countryiso3code":"TUV","date":"2019","value":null,"unit":"","obs_status":"","decimal":0},{"indicator":{"id":"SP.POP.1564.MA.ZS","value":"Population ages 15-64, male (% of male population)"},"country":{"id":"TV","value":"Tuvalu"},"countryiso3code":"TUV","date":"2018","value":null,"unit":"","obs_status":"","decimal":0},{"indicator":{"id":"SP.POP.1564.MA.ZS","value":"Population ages 15-64, male (% of male population)"},"country":{"id":"TV","value":"Tuvalu"},"countryiso3code":"TUV","date":"2017","value":null,"unit":"","obs_status":"","decimal":0},{"indicator":{"id":"SP.POP.1564.MA.ZS","value":"Population ages 15-64, male (% of male population)"},"country":{"id":"TV","value":"Tuvalu"},"countryiso3code":"TUV","date":"2016","value":null,"unit":"","obs_status":"","decimal":0},{"indicator":{"id":"SP.POP.1564.MA.ZS","value":"Population ages 15-64, male (% of male population)"},"country":{"id":"TV","value":"Tuvalu"},"countryiso3code":"TUV","date":"2015","value":null,"unit":"","obs_status":"","decimal":0},{"indicator":{"id":"SP.POP.1564.MA.ZS","value":"Population ages 15-64, male (% of male population)"},"country":{"id":"UG","value":"Uganda"},"countryiso3code":"UGA","date":"2019","value":null,"unit":"","obs_status":"","decimal":0},{"indicator":{"id":"SP.POP.1564.MA.ZS","value":"Population ages 15-64, male (% of male population)"},"country":{"id":"UG","value":"Uganda"},"countryiso3code":"UGA","date":"2018","value":50.3366653346269,"unit":"","obs_status":"","decimal":0},{"indicator":{"id":"SP.POP.1564.MA.ZS","value":"Population ages 15-64, male (% of male population)"},"country":{"id":"UG","value":"Uganda"},"countryiso3code":"UGA","date":"2017","value":49.9254698152505,"unit":"","obs_status":"","decimal":0},{"indicator":{"id":"SP.POP.1564.MA.ZS","value":"Population ages 15-64, male (% of male population)"},"country":{"id":"UG","value":"Uganda"},"countryiso3code":"UGA","date":"2016","value":49.556554810197,"unit":"","obs_status":"","decimal":0},{"indicator":{"id":"SP.POP.1564.MA.ZS","value":"Population ages 15-64, male (% of male population)"},"country":{"id":"UG","value":"Uganda"},"countryiso3code":"UGA","date":"2015","value":49.2402257214482,"unit":"","obs_status":"","decimal":0},{"indicator":{"id":"SP.POP.1564.MA.ZS","value":"Population ages 15-64, male (% of male population)"},"country":{"id":"UA","value":"Ukraine"},"countryiso3code":"UKR","date":"2019","value":null,"unit":"","obs_status":"","decimal":0},{"indicator":{"id":"SP.POP.1564.MA.ZS","value":"Population ages 15-64, male (% of male population)"},"country":{"id":"UA","value":"Ukraine"},"countryiso3code":"UKR","date":"2018","value":70.5345918195597,"unit":"","obs_status":"","decimal":0},{"indicator":{"id":"SP.POP.1564.MA.ZS","value":"Population ages 15-64, male (% of male population)"},"country":{"id":"UA","value":"Ukraine"},"countryiso3code":"UKR","date":"2017","value":70.9280259032973,"unit":"","obs_status":"","decimal":0},{"indicator":{"id":"SP.POP.1564.MA.ZS","value":"Population ages 15-64, male (% of male population)"},"country":{"id":"UA","value":"Ukraine"},"countryiso3code":"UKR","date":"2016","value":71.338923476019,"unit":"","obs_status":"","decimal":0},{"indicator":{"id":"SP.POP.1564.MA.ZS","value":"Population ages 15-64, male (% of male population)"},"country":{"id":"UA","value":"Ukraine"},"countryiso3code":"UKR","date":"2015","value":71.7176393915416,"unit":"","obs_status":"","decimal":0},{"indicator":{"id":"SP.POP.1564.MA.ZS","value":"Population ages 15-64, male (% of male population)"},"country":{"id":"AE","value":"United Arab Emirates"},"countryiso3code":"ARE","date":"2019","value":null,"unit":"","obs_status":"","decimal":0},{"indicator":{"id":"SP.POP.1564.MA.ZS","value":"Population ages 15-64, male (% of male population)"},"country":{"id":"AE","value":"United Arab Emirates"},"countryiso3code":"ARE","date":"2018","value":88.3043675659849,"unit":"","obs_status":"","decimal":0},{"indicator":{"id":"SP.POP.1564.MA.ZS","value":"Population ages 15-64, male (% of male population)"},"country":{"id":"AE","value":"United Arab Emirates"},"countryiso3code":"ARE","date":"2017","value":88.446545680816,"unit":"","obs_status":"","decimal":0},{"indicator":{"id":"SP.POP.1564.MA.ZS","value":"Population ages 15-64, male (% of male population)"},"country":{"id":"AE","value":"United Arab Emirates"},"countryiso3code":"ARE","date":"2016","value":88.5890189319582,"unit":"","obs_status":"","decimal":0},{"indicator":{"id":"SP.POP.1564.MA.ZS","value":"Population ages 15-64, male (% of male population)"},"country":{"id":"AE","value":"United Arab Emirates"},"countryiso3code":"ARE","date":"2015","value":88.8404187549668,"unit":"","obs_status":"","decimal":0},{"indicator":{"id":"SP.POP.1564.MA.ZS","value":"Population ages 15-64, male (% of male population)"},"country":{"id":"GB","value":"United Kingdom"},"countryiso3code":"GBR","date":"2019","value":null,"unit":"","obs_status":"","decimal":0},{"indicator":{"id":"SP.POP.1564.MA.ZS","value":"Population ages 15-64, male (% of male population)"},"country":{"id":"GB","value":"United Kingdom"},"countryiso3code":"GBR","date":"2018","value":64.610255064935,"unit":"","obs_status":"","decimal":0},{"indicator":{"id":"SP.POP.1564.MA.ZS","value":"Population ages 15-64, male (% of male population)"},"country":{"id":"GB","value":"United Kingdom"},"countryiso3code":"GBR","date":"2017","value":64.7733807733804,"unit":"","obs_status":"","decimal":0},{"indicator":{"id":"SP.POP.1564.MA.ZS","value":"Population ages 15-64, male (% of male population)"},"country":{"id":"GB","value":"United Kingdom"},"countryiso3code":"GBR","date":"2016","value":64.9698870731983,"unit":"","obs_status":"","decimal":0},{"indicator":{"id":"SP.POP.1564.MA.ZS","value":"Population ages 15-64, male (% of male population)"},"country":{"id":"GB","value":"United Kingdom"},"countryiso3code":"GBR","date":"2015","value":65.2099850721615,"unit":"","obs_status":"","decimal":0},{"indicator":{"id":"SP.POP.1564.MA.ZS","value":"Population ages 15-64, male (% of male population)"},"country":{"id":"US","value":"United States"},"countryiso3code":"USA","date":"2019","value":null,"unit":"","obs_status":"","decimal":0},{"indicator":{"id":"SP.POP.1564.MA.ZS","value":"Population ages 15-64, male (% of male population)"},"country":{"id":"US","value":"United States"},"countryiso3code":"USA","date":"2018","value":66.4088716329403,"unit":"","obs_status":"","decimal":0},{"indicator":{"id":"SP.POP.1564.MA.ZS","value":"Population ages 15-64, male (% of male population)"},"country":{"id":"US","value":"United States"},"countryiso3code":"USA","date":"2017","value":66.6387612512319,"unit":"","obs_status":"","decimal":0},{"indicator":{"id":"SP.POP.1564.MA.ZS","value":"Population ages 15-64, male (% of male population)"},"country":{"id":"US","value":"United States"},"countryiso3code":"USA","date":"2016","value":66.8537256836091,"unit":"","obs_status":"","decimal":0},{"indicator":{"id":"SP.POP.1564.MA.ZS","value":"Population ages 15-64, male (% of male population)"},"country":{"id":"US","value":"United States"},"countryiso3code":"USA","date":"2015","value":67.0399868199102,"unit":"","obs_status":"","decimal":0},{"indicator":{"id":"SP.POP.1564.MA.ZS","value":"Population ages 15-64, male (% of male population)"},"country":{"id":"UY","value":"Uruguay"},"countryiso3code":"URY","date":"2019","value":null,"unit":"","obs_status":"","decimal":0},{"indicator":{"id":"SP.POP.1564.MA.ZS","value":"Population ages 15-64, male (% of male population)"},"country":{"id":"UY","value":"Uruguay"},"countryiso3code":"URY","date":"2018","value":66.2341826881503,"unit":"","obs_status":"","decimal":0},{"indicator":{"id":"SP.POP.1564.MA.ZS","value":"Population ages 15-64, male (% of male population)"},"country":{"id":"UY","value":"Uruguay"},"countryiso3code":"URY","date":"2017","value":66.1669621001097,"unit":"","obs_status":"","decimal":0},{"indicator":{"id":"SP.POP.1564.MA.ZS","value":"Population ages 15-64, male (% of male population)"},"country":{"id":"UY","value":"Uruguay"},"countryiso3code":"URY","date":"2016","value":66.102603929896,"unit":"","obs_status":"","decimal":0},{"indicator":{"id":"SP.POP.1564.MA.ZS","value":"Population ages 15-64, male (% of male population)"},"country":{"id":"UY","value":"Uruguay"},"countryiso3code":"URY","date":"2015","value":66.0591539504834,"unit":"","obs_status":"","decimal":0},{"indicator":{"id":"SP.POP.1564.MA.ZS","value":"Population ages 15-64, male (% of male population)"},"country":{"id":"UZ","value":"Uzbekistan"},"countryiso3code":"UZB","date":"2019","value":null,"unit":"","obs_status":"","decimal":0},{"indicator":{"id":"SP.POP.1564.MA.ZS","value":"Population ages 15-64, male (% of male population)"},"country":{"id":"UZ","value":"Uzbekistan"},"countryiso3code":"UZB","date":"2018","value":66.6203620994513,"unit":"","obs_status":"","decimal":0},{"indicator":{"id":"SP.POP.1564.MA.ZS","value":"Population ages 15-64, male (% of male population)"},"country":{"id":"UZ","value":"Uzbekistan"},"countryiso3code":"UZB","date":"2017","value":66.9469502859445,"unit":"","obs_status":"","decimal":0},{"indicator":{"id":"SP.POP.1564.MA.ZS","value":"Population ages 15-64, male (% of male population)"},"country":{"id":"UZ","value":"Uzbekistan"},"countryiso3code":"UZB","date":"2016","value":67.2064777844754,"unit":"","obs_status":"","decimal":0},{"indicator":{"id":"SP.POP.1564.MA.ZS","value":"Population ages 15-64, male (% of male population)"},"country":{"id":"UZ","value":"Uzbekistan"},"countryiso3code":"UZB","date":"2015","value":67.3268023350419,"unit":"","obs_status":"","decimal":0},{"indicator":{"id":"SP.POP.1564.MA.ZS","value":"Population ages 15-64, male (% of male population)"},"country":{"id":"VU","value":"Vanuatu"},"countryiso3code":"VUT","date":"2019","value":null,"unit":"","obs_status":"","decimal":0},{"indicator":{"id":"SP.POP.1564.MA.ZS","value":"Population ages 15-64, male (% of male population)"},"country":{"id":"VU","value":"Vanuatu"},"countryiso3code":"VUT","date":"2018","value":56.5736192805503,"unit":"","obs_status":"","decimal":0},{"indicator":{"id":"SP.POP.1564.MA.ZS","value":"Population ages 15-64, male (% of male population)"},"country":{"id":"VU","value":"Vanuatu"},"countryiso3code":"VUT","date":"2017","value":56.4707588407118,"unit":"","obs_status":"","decimal":0},{"indicator":{"id":"SP.POP.1564.MA.ZS","value":"Population ages 15-64, male (% of male population)"},"country":{"id":"VU","value":"Vanuatu"},"countryiso3code":"VUT","date":"2016","value":56.3591940795298,"unit":"","obs_status":"","decimal":0},{"indicator":{"id":"SP.POP.1564.MA.ZS","value":"Population ages 15-64, male (% of male population)"},"country":{"id":"VU","value":"Vanuatu"},"countryiso3code":"VUT","date":"2015","value":56.1345612874619,"unit":"","obs_status":"","decimal":0},{"indicator":{"id":"SP.POP.1564.MA.ZS","value":"Population ages 15-64, male (% of male population)"},"country":{"id":"VE","value":"Venezuela, RB"},"countryiso3code":"VEN","date":"2019","value":null,"unit":"","obs_status":"","decimal":0},{"indicator":{"id":"SP.POP.1564.MA.ZS","value":"Population ages 15-64, male (% of male population)"},"country":{"id":"VE","value":"Venezuela, RB"},"countryiso3code":"VEN","date":"2018","value":64.8606008094454,"unit":"","obs_status":"","decimal":0},{"indicator":{"id":"SP.POP.1564.MA.ZS","value":"Population ages 15-64, male (% of male population)"},"country":{"id":"VE","value":"Venezuela, RB"},"countryiso3code":"VEN","date":"2017","value":64.8884947443269,"unit":"","obs_status":"","decimal":0},{"indicator":{"id":"SP.POP.1564.MA.ZS","value":"Population ages 15-64, male (% of male population)"},"country":{"id":"VE","value":"Venezuela, RB"},"countryiso3code":"VEN","date":"2016","value":64.9590394300556,"unit":"","obs_status":"","decimal":0},{"indicator":{"id":"SP.POP.1564.MA.ZS","value":"Population ages 15-64, male (% of male population)"},"country":{"id":"VE","value":"Venezuela, RB"},"countryiso3code":"VEN","date":"2015","value":65.0997705242498,"unit":"","obs_status":"","decimal":0},{"indicator":{"id":"SP.POP.1564.MA.ZS","value":"Population ages 15-64, male (% of male population)"},"country":{"id":"VN","value":"Vietnam"},"countryiso3code":"VNM","date":"2019","value":null,"unit":"","obs_status":"","decimal":0},{"indicator":{"id":"SP.POP.1564.MA.ZS","value":"Population ages 15-64, male (% of male population)"},"country":{"id":"VN","value":"Vietnam"},"countryiso3code":"VNM","date":"2018","value":69.8720161614521,"unit":"","obs_status":"","decimal":0},{"indicator":{"id":"SP.POP.1564.MA.ZS","value":"Population ages 15-64, male (% of male population)"},"country":{"id":"VN","value":"Vietnam"},"countryiso3code":"VNM","date":"2017","value":70.2120345563851,"unit":"","obs_status":"","decimal":0},{"indicator":{"id":"SP.POP.1564.MA.ZS","value":"Population ages 15-64, male (% of male population)"},"country":{"id":"VN","value":"Vietnam"},"countryiso3code":"VNM","date":"2016","value":70.5051936480069,"unit":"","obs_status":"","decimal":0},{"indicator":{"id":"SP.POP.1564.MA.ZS","value":"Population ages 15-64, male (% of male population)"},"country":{"id":"VN","value":"Vietnam"},"countryiso3code":"VNM","date":"2015","value":70.7021874316656,"unit":"","obs_status":"","decimal":0},{"indicator":{"id":"SP.POP.1564.MA.ZS","value":"Population ages 15-64, male (% of male population)"},"country":{"id":"VI","value":"Virgin Islands (U.S.)"},"countryiso3code":"VIR","date":"2019","value":null,"unit":"","obs_status":"","decimal":0},{"indicator":{"id":"SP.POP.1564.MA.ZS","value":"Population ages 15-64, male (% of male population)"},"country":{"id":"VI","value":"Virgin Islands (U.S.)"},"countryiso3code":"VIR","date":"2018","value":61.0344481269459,"unit":"","obs_status":"","decimal":0},{"indicator":{"id":"SP.POP.1564.MA.ZS","value":"Population ages 15-64, male (% of male population)"},"country":{"id":"VI","value":"Virgin Islands (U.S.)"},"countryiso3code":"VIR","date":"2017","value":61.2076228686058,"unit":"","obs_status":"","decimal":0},{"indicator":{"id":"SP.POP.1564.MA.ZS","value":"Population ages 15-64, male (% of male population)"},"country":{"id":"VI","value":"Virgin Islands (U.S.)"},"countryiso3code":"VIR","date":"2016","value":61.4417048891381,"unit":"","obs_status":"","decimal":0},{"indicator":{"id":"SP.POP.1564.MA.ZS","value":"Population ages 15-64, male (% of male population)"},"country":{"id":"VI","value":"Virgin Islands (U.S.)"},"countryiso3code":"VIR","date":"2015","value":61.7971686795169,"unit":"","obs_status":"","decimal":0},{"indicator":{"id":"SP.POP.1564.MA.ZS","value":"Population ages 15-64, male (% of male population)"},"country":{"id":"PS","value":"West Bank and Gaza"},"countryiso3code":"PSE","date":"2019","value":null,"unit":"","obs_status":"","decimal":0},{"indicator":{"id":"SP.POP.1564.MA.ZS","value":"Population ages 15-64, male (% of male population)"},"country":{"id":"PS","value":"West Bank and Gaza"},"countryiso3code":"PSE","date":"2018","value":57.8433538729361,"unit":"","obs_status":"","decimal":0},{"indicator":{"id":"SP.POP.1564.MA.ZS","value":"Population ages 15-64, male (% of male population)"},"country":{"id":"PS","value":"West Bank and Gaza"},"countryiso3code":"PSE","date":"2017","value":57.5578812221431,"unit":"","obs_status":"","decimal":0},{"indicator":{"id":"SP.POP.1564.MA.ZS","value":"Population ages 15-64, male (% of male population)"},"country":{"id":"PS","value":"West Bank and Gaza"},"countryiso3code":"PSE","date":"2016","value":57.2642486517926,"unit":"","obs_status":"","decimal":0},{"indicator":{"id":"SP.POP.1564.MA.ZS","value":"Population ages 15-64, male (% of male population)"},"country":{"id":"PS","value":"West Bank and Gaza"},"countryiso3code":"PSE","date":"2015","value":56.9832280691067,"unit":"","obs_status":"","decimal":0},{"indicator":{"id":"SP.POP.1564.MA.ZS","value":"Population ages 15-64, male (% of male population)"},"country":{"id":"YE","value":"Yemen, Rep."},"countryiso3code":"YEM","date":"2019","value":null,"unit":"","obs_status":"","decimal":0},{"indicator":{"id":"SP.POP.1564.MA.ZS","value":"Population ages 15-64, male (% of male population)"},"country":{"id":"YE","value":"Yemen, Rep."},"countryiso3code":"YEM","date":"2018","value":57.3102366056189,"unit":"","obs_status":"","decimal":0},{"indicator":{"id":"SP.POP.1564.MA.ZS","value":"Population ages 15-64, male (% of male population)"},"country":{"id":"YE","value":"Yemen, Rep."},"countryiso3code":"YEM","date":"2017","value":56.9429652850488,"unit":"","obs_status":"","decimal":0},{"indicator":{"id":"SP.POP.1564.MA.ZS","value":"Population ages 15-64, male (% of male population)"},"country":{"id":"YE","value":"Yemen, Rep."},"countryiso3code":"YEM","date":"2016","value":56.6014611359399,"unit":"","obs_status":"","decimal":0},{"indicator":{"id":"SP.POP.1564.MA.ZS","value":"Population ages 15-64, male (% of male population)"},"country":{"id":"YE","value":"Yemen, Rep."},"countryiso3code":"YEM","date":"2015","value":56.2995257032766,"unit":"","obs_status":"","decimal":0},{"indicator":{"id":"SP.POP.1564.MA.ZS","value":"Population ages 15-64, male (% of male population)"},"country":{"id":"ZM","value":"Zambia"},"countryiso3code":"ZMB","date":"2019","value":null,"unit":"","obs_status":"","decimal":0},{"indicator":{"id":"SP.POP.1564.MA.ZS","value":"Population ages 15-64, male (% of male population)"},"country":{"id":"ZM","value":"Zambia"},"countryiso3code":"ZMB","date":"2018","value":52.5567918240588,"unit":"","obs_status":"","decimal":0},{"indicator":{"id":"SP.POP.1564.MA.ZS","value":"Population ages 15-64, male (% of male population)"},"country":{"id":"ZM","value":"Zambia"},"countryiso3code":"ZMB","date":"2017","value":52.0934678691464,"unit":"","obs_status":"","decimal":0},{"indicator":{"id":"SP.POP.1564.MA.ZS","value":"Population ages 15-64, male (% of male population)"},"country":{"id":"ZM","value":"Zambia"},"countryiso3code":"ZMB","date":"2016","value":51.681534575095,"unit":"","obs_status":"","decimal":0},{"indicator":{"id":"SP.POP.1564.MA.ZS","value":"Population ages 15-64, male (% of male population)"},"country":{"id":"ZM","value":"Zambia"},"countryiso3code":"ZMB","date":"2015","value":51.3541578769254,"unit":"","obs_status":"","decimal":0},{"indicator":{"id":"SP.POP.1564.MA.ZS","value":"Population ages 15-64, male (% of male population)"},"country":{"id":"ZW","value":"Zimbabwe"},"countryiso3code":"ZWE","date":"2019","value":null,"unit":"","obs_status":"","decimal":0},{"indicator":{"id":"SP.POP.1564.MA.ZS","value":"Population ages 15-64, male (% of male population)"},"country":{"id":"ZW","value":"Zimbabwe"},"countryiso3code":"ZWE","date":"2018","value":53.1629268224608,"unit":"","obs_status":"","decimal":0},{"indicator":{"id":"SP.POP.1564.MA.ZS","value":"Population ages 15-64, male (% of male population)"},"country":{"id":"ZW","value":"Zimbabwe"},"countryiso3code":"ZWE","date":"2017","value":52.9819151507425,"unit":"","obs_status":"","decimal":0},{"indicator":{"id":"SP.POP.1564.MA.ZS","value":"Population ages 15-64, male (% of male population)"},"country":{"id":"ZW","value":"Zimbabwe"},"countryiso3code":"ZWE","date":"2016","value":52.9287828394868,"unit":"","obs_status":"","decimal":0},{"indicator":{"id":"SP.POP.1564.MA.ZS","value":"Population ages 15-64, male (% of male population)"},"country":{"id":"ZW","value":"Zimbabwe"},"countryiso3code":"ZWE","date":"2015","value":53.0457110896425,"unit":"","obs_status":"","decimal":0}]]